<?xml version="1.0" standalone="no"?>
<!-- Generated by Visual Integrity Suite v8.5 -->
<!DOCTYPE svg PUBLIC "-//W3C//DTD SVG 1.1//EN"
	"http://www.w3.org/Graphics/SVG/1.1/DTD/svg11.dtd" [
<!ENTITY sto0 "fill:none;  fill-rule:nonzero; stroke:#000000; stroke-width:0.54; stroke-linecap:butt; stroke-linejoin:miter">
<!ENTITY sto1 "fill:none;  fill-rule:nonzero; stroke:#000000; stroke-width:1.08; stroke-linecap:butt; stroke-linejoin:miter">
<!ENTITY stt0 "font-family:Arial; font-size:8.00px; font-weight:bold; fill:#000000">
<!ENTITY stt1 "font-family:Arial; font-size:7.00px; fill:#000000">
<!ENTITY stt2 "font-family:Arial; font-size:6.00px; fill:#000000">
<!ENTITY stt3 "font-family:Arial; font-size:6.00px; font-style:italic; fill:#000000">
]>
<svg version="1.1" baseProfile="full" xmlns="http://www.w3.org/2000/svg" xmlns:xlink="http://www.w3.org/1999/xlink" xml:space="preserve" width="55.31mm" height="58.26mm" viewBox="0 0 156.78 165.16">
<g style="clip-rule:evenodd; clip-path:url(#ClipId0)"> <clipPath id="ClipId0">
<path d="M 0.00 0.00 L 156.78 0.00 L 156.78 165.78
	 L 0.00 165.78 Z"/>
</clipPath>
<text x="62.64" y="7.02"
	style="&stt0;">74HC373</text>
<text x="60.12" y="16.56"
	style="&stt0;">74HCT373</text>
<text x="5.40" y="38.88"
	style="&stt1;">O</text>
<text x="10.80" y="38.88"
	style="&stt1;">E</text>
<text x="143.46" y="38.88"
	style="&stt1;">V</text>
<text x="148.14" y="40.32"
	style="&stt2;">C</text>
<text x="152.46" y="40.32"
	style="&stt2;">C</text>
<text x="6.12" y="50.94"
	style="&stt1;">Q</text>
<text x="11.52" y="50.94"
	style="&stt1;">0</text>
<text x="143.46" y="50.94"
	style="&stt1;">Q</text>
<text x="148.86" y="50.94"
	style="&stt1;">7</text>
<text x="6.48" y="63.00"
	style="&stt1;">D</text>
<text x="11.52" y="63.00"
	style="&stt1;">0</text>
<text x="143.46" y="63.00"
	style="&stt1;">D</text>
<text x="148.50" y="63.00"
	style="&stt1;">7</text>
<text x="6.48" y="74.88"
	style="&stt1;">D</text>
<text x="11.52" y="74.88"
	style="&stt1;">1</text>
<text x="143.46" y="74.88"
	style="&stt1;">D</text>
<text x="148.50" y="74.88"
	style="&stt1;">6</text>
<text x="6.12" y="86.94"
	style="&stt1;">Q</text>
<text x="11.52" y="86.94"
	style="&stt1;">1</text>
<text x="143.46" y="86.94"
	style="&stt1;">Q</text>
<text x="148.86" y="86.94"
	style="&stt1;">6</text>
<text x="6.12" y="99.00"
	style="&stt1;">Q</text>
<text x="11.52" y="99.00"
	style="&stt1;">2</text>
<text x="143.46" y="99.00"
	style="&stt1;">Q</text>
<text x="148.86" y="99.00"
	style="&stt1;">5</text>
<text x="6.48" y="110.88"
	style="&stt1;">D</text>
<text x="11.52" y="110.88"
	style="&stt1;">2</text>
<text x="143.46" y="110.88"
	style="&stt1;">D</text>
<text x="148.50" y="110.88"
	style="&stt1;">5</text>
<text x="6.48" y="122.94"
	style="&stt1;">D</text>
<text x="11.52" y="122.94"
	style="&stt1;">3</text>
<text x="143.46" y="122.94"
	style="&stt1;">D</text>
<text x="148.50" y="122.94"
	style="&stt1;">4</text>
<text x="6.12" y="135.00"
	style="&stt1;">Q</text>
<text x="11.52" y="135.00"
	style="&stt1;">3</text>
<text x="143.46" y="135.00"
	style="&stt1;">Q</text>
<text x="148.86" y="135.00"
	style="&stt1;">4</text>
<text x="0.00" y="146.88"
	style="&stt1;">GND</text>
<text x="143.46" y="146.88"
	style="&stt1;">L</text>
<text x="147.42" y="146.88"
	style="&stt1;">E</text>
<text x="97.38" y="163.80"
	style="&stt3;">001aae046</text>
<polyline style="&sto0;"
	points="31.56,40.63 19.56,40.63 19.56,31.83 31.56,31.83 
	31.56,40.63 31.56,40.63 "/>
<text x="23.04" y="38.70"
	style="&stt1;">1</text>
<polyline style="&sto0;"
	points="31.56,52.63 19.56,52.63 19.56,43.83 31.56,43.83 
	31.56,52.63 31.56,52.63 "/>
<text x="23.04" y="50.76"
	style="&stt1;">2</text>
<polyline style="&sto0;"
	points="31.56,64.63 19.56,64.63 19.56,55.83 31.56,55.83 
	31.56,64.63 31.56,64.63 "/>
<text x="23.04" y="62.82"
	style="&stt1;">3</text>
<polyline style="&sto0;"
	points="31.56,76.63 19.56,76.63 19.56,67.83 31.56,67.83 
	31.56,76.63 31.56,76.63 "/>
<text x="23.04" y="74.70"
	style="&stt1;">4</text>
<polyline style="&sto0;"
	points="31.56,88.63 19.56,88.63 19.56,79.83 31.56,79.83 
	31.56,88.63 31.56,88.63 "/>
<text x="23.04" y="86.76"
	style="&stt1;">5</text>
<polyline style="&sto0;"
	points="31.56,100.63 19.56,100.63 19.56,91.83 31.56,91.83 
	31.56,100.63 31.56,100.63 "/>
<text x="23.04" y="98.82"
	style="&stt1;">6</text>
<polyline style="&sto0;"
	points="31.56,112.63 19.56,112.63 19.56,103.83 31.56,103.83 
	31.56,112.63 31.56,112.63 "/>
<text x="23.04" y="110.70"
	style="&stt1;">7</text>
<polyline style="&sto0;"
	points="31.56,124.64 19.56,124.64 19.56,115.84 31.56,115.84 
	31.56,124.64 31.56,124.64 "/>
<text x="23.04" y="122.76"
	style="&stt1;">8</text>
<polyline style="&sto0;"
	points="31.56,136.64 19.56,136.64 19.56,127.84 31.56,127.84 
	31.56,136.64 31.56,136.64 "/>
<text x="23.04" y="134.82"
	style="&stt1;">9</text>
<polyline style="&sto0;"
	points="31.56,148.64 19.56,148.64 19.56,139.84 31.56,139.84 
	31.56,148.64 31.56,148.64 "/>
<text x="21.24" y="146.70"
	style="&stt1;">1</text>
<text x="25.02" y="146.70"
	style="&stt1;">0</text>
<polyline style="&sto0;"
	points="139.56,136.64 127.56,136.64 127.56,127.84 139.56,127.84 
	139.56,136.64 139.56,136.64 "/>
<text x="129.96" y="134.82"
	style="&stt1;">1</text>
<text x="133.92" y="134.82"
	style="&stt1;">2</text>
<polyline style="&sto0;"
	points="139.56,148.64 127.56,148.64 127.56,139.84 139.56,139.84 
	139.56,148.64 139.56,148.64 "/>
<text x="129.96" y="146.70"
	style="&stt1;">1</text>
<text x="133.92" y="146.70"
	style="&stt1;">1</text>
<polyline style="&sto0;"
	points="139.56,112.63 127.56,112.63 127.56,103.83 139.56,103.83 
	139.56,112.63 139.56,112.63 "/>
<text x="129.96" y="110.70"
	style="&stt1;">1</text>
<text x="133.92" y="110.70"
	style="&stt1;">4</text>
<polyline style="&sto0;"
	points="139.56,124.63 127.56,124.63 127.56,115.84 139.56,115.84 
	139.56,124.63 139.56,124.63 "/>
<text x="129.96" y="122.76"
	style="&stt1;">1</text>
<text x="133.92" y="122.76"
	style="&stt1;">3</text>
<polyline style="&sto0;"
	points="139.56,88.64 127.56,88.64 127.56,79.84 139.56,79.84 
	139.56,88.64 139.56,88.64 "/>
<text x="129.96" y="86.76"
	style="&stt1;">1</text>
<text x="133.92" y="86.76"
	style="&stt1;">6</text>
<polyline style="&sto0;"
	points="139.56,100.64 127.56,100.64 127.56,91.84 139.56,91.84 
	139.56,100.64 139.56,100.64 "/>
<text x="129.96" y="98.82"
	style="&stt1;">1</text>
<text x="133.92" y="98.82"
	style="&stt1;">5</text>
<polyline style="&sto0;"
	points="139.56,64.63 127.56,64.63 127.56,55.83 139.56,55.83 
	139.56,64.63 139.56,64.63 "/>
<text x="129.96" y="62.82"
	style="&stt1;">1</text>
<text x="133.92" y="62.82"
	style="&stt1;">8</text>
<polyline style="&sto0;"
	points="139.56,76.63 127.56,76.63 127.56,67.83 139.56,67.83 
	139.56,76.63 139.56,76.63 "/>
<text x="129.96" y="74.70"
	style="&stt1;">1</text>
<text x="133.92" y="74.70"
	style="&stt1;">7</text>
<polyline style="&sto0;"
	points="139.56,40.63 127.56,40.63 127.56,31.83 139.56,31.83 
	139.56,40.63 139.56,40.63 "/>
<text x="129.96" y="38.70"
	style="&stt1;">2</text>
<text x="133.92" y="38.70"
	style="&stt1;">0</text>
<polyline style="&sto0;"
	points="139.56,52.63 127.56,52.63 127.56,43.83 139.56,43.83 
	139.56,52.63 139.56,52.63 "/>
<text x="129.96" y="50.76"
	style="&stt1;">1</text>
<text x="133.92" y="50.76"
	style="&stt1;">9</text>
<polyline style="&sto1;"
	points="127.56,155.83 31.55,155.83 31.56,24.63 127.56,24.63 
	127.56,155.83 127.56,155.83 "/>
<path style="&sto0;"
d="M 54.76 38.23 C 54.76 42.65 51.17 46.23 46.76 46.23 C 42.34 46.23 38.76 42.65 38.76 38.23
	 C 38.76 33.81 42.34 30.23 46.76 30.23 C 51.17 30.23 54.76 33.81 54.76 38.23 L 54.76 38.23"/>
<polyline style="&sto0;"
	points="5.96,32.63 14.76,32.63 "/>
</g>
</svg>
