<?xml version="1.0" standalone="no"?>
<!-- Generated by Visual Integrity Suite v8.5 -->
<!DOCTYPE svg PUBLIC "-//W3C//DTD SVG 1.1//EN"
	"http://www.w3.org/Graphics/SVG/1.1/DTD/svg11.dtd" [
<!ENTITY sto0 "fill:none;  fill-rule:nonzero; stroke:#000000; stroke-width:1.08; stroke-linecap:butt; stroke-linejoin:round">
<!ENTITY sto1 "fill:none;  fill-rule:nonzero; stroke:#000000; stroke-width:0.36; stroke-linecap:round; stroke-linejoin:round">
<!ENTITY sto2 "fill:#000000;  fill-rule:nonzero; stroke:none; stroke-width:1.08; stroke-linecap:butt; stroke-linejoin:round">
<!ENTITY sto3 "fill:none;  fill-rule:nonzero; stroke:#000000; stroke-width:1.44; stroke-linecap:butt; stroke-linejoin:miter">
<!ENTITY sto4 "fill:none;  fill-rule:nonzero; stroke:#000000; stroke-width:0.54; stroke-linecap:butt; stroke-linejoin:miter">
<!ENTITY sto5 "fill:none;  fill-rule:nonzero; stroke:#000000; stroke-width:1.08; stroke-linecap:butt; stroke-linejoin:miter">
<!ENTITY sto6 "fill:none;  fill-rule:nonzero; stroke:#000000; stroke-width:0.54; stroke-linecap:square; stroke-linejoin:miter">
<!ENTITY sto7 "fill:#000000;  fill-rule:nonzero; stroke:#000000; stroke-width:0.72; stroke-linecap:butt; stroke-linejoin:miter">
<!ENTITY sto8 "fill:#FFFFFF;  fill-rule:nonzero; stroke:#000000; stroke-width:0.54; stroke-linecap:butt; stroke-linejoin:miter">
<!ENTITY stt0 "font-family:Arial; font-size:7.00px; fill:#000000">
<!ENTITY stt1 "font-family:Arial; font-size:6.00px; fill:#000000">
<!ENTITY stt2 "font-family:Arial; font-size:6.00px; font-style:italic; fill:#000000">
]>
<svg version="1.1" baseProfile="full" xmlns="http://www.w3.org/2000/svg" xmlns:xlink="http://www.w3.org/1999/xlink" xml:space="preserve" width="84.09mm" height="82.69mm" viewBox="0 0 238.35 234.41">
<polyline style="&sto0;"
	points="30.29,115.06 56.31,115.06 78.31,80.03 165.39,80.03 
	189.37,115.06 216.97,115.06 "/>
<polyline style="&sto1;"
	points="68.33,33.57 68.33,2.34 "/>
<polyline style="&sto1;"
	points="65.32,29.60 71.33,29.60 "/>
<polyline style="&sto1;"
	points="177.97,31.66 177.97,2.34 "/>
<polyline style="&sto1;"
	points="174.97,27.17 180.98,27.17 "/>
<polyline style="&sto1;"
	points="129.53,4.14 174.17,4.14 "/>
<polyline style="&sto1;"
	points="115.75,4.14 72.30,4.14 "/>
<polyline style="&sto1;"
	points="60.34,57.41 60.34,11.97 "/>
<polyline style="&sto1;"
	points="57.33,16.99 63.28,16.99 "/>
<polyline style="&sto1;"
	points="185.40,57.41 185.40,11.97 "/>
<polyline style="&sto1;"
	points="182.39,16.36 188.40,16.36 "/>
<polyline style="&sto1;"
	points="76.32,57.41 76.32,37.39 "/>
<polyline style="&sto1;"
	points="73.32,42.38 79.33,42.38 "/>
<polyline style="&sto1;"
	points="167.88,57.41 167.88,37.39 "/>
<polyline style="&sto1;"
	points="164.88,41.99 170.89,41.99 "/>
<polyline style="&sto1;"
	points="68.33,93.17 68.33,122.87 "/>
<polyline style="&sto1;"
	points="65.32,95.95 71.33,95.95 "/>
<polyline style="&sto1;"
	points="176.39,93.01 176.39,122.87 "/>
<polyline style="&sto1;"
	points="173.38,96.13 179.39,96.13 "/>
<polyline style="&sto1;"
	points="130.55,121.27 172.16,121.27 "/>
<polyline style="&sto1;"
	points="115.75,121.27 72.12,121.27 "/>
<polyline style="&sto1;"
	points="60.34,68.68 60.34,112.76 "/>
<polyline style="&sto1;"
	points="57.33,108.69 63.28,108.69 "/>
<polyline style="&sto1;"
	points="185.40,68.68 185.40,112.84 "/>
<polyline style="&sto1;"
	points="182.39,109.22 188.40,109.22 "/>
<polyline style="&sto1;"
	points="76.32,68.68 76.32,88.25 "/>
<polyline style="&sto1;"
	points="73.32,83.20 79.33,83.20 "/>
<polyline style="&sto1;"
	points="168.39,68.68 168.39,88.18 "/>
<polyline style="&sto1;"
	points="165.39,84.44 171.40,84.44 "/>
<polyline style="&sto1;"
	points="30.11,45.56 77.11,45.56 "/>
<polyline style="&sto1;"
	points="29.86,80.03 77.11,80.03 "/>
<polyline style="&sto1;"
	points="84.25,55.63 79.69,55.63 "/>
<polyline style="&sto1;"
	points="52.41,55.63 57.93,55.63 "/>
<polyline style="&sto1;"
	points="193.32,55.63 188.20,55.63 "/>
<polyline style="&sto1;"
	points="159.96,55.63 165.28,55.63 "/>
<polyline style="&sto1;"
	points="84.25,70.54 79.52,70.54 "/>
<polyline style="&sto1;"
	points="52.41,70.54 57.53,70.54 "/>
<polyline style="&sto1;"
	points="193.32,70.54 188.60,70.54 "/>
<polyline style="&sto1;"
	points="160.47,70.54 165.39,70.54 "/>
<polyline style="&sto0;"
	points="30.29,10.52 56.31,10.52 78.31,45.56 165.39,45.56 
	189.37,10.52 216.97,10.52 "/>
<text x="73.22" y="30.91"
	style="&stt0;">V</text>
<text x="77.90" y="32.17"
	style="&stt1;">M</text>
<text x="162.50" y="30.91"
	style="&stt0;">V</text>
<text x="167.18" y="32.17"
	style="&stt1;">M</text>
<text x="119.30" y="6.79"
	style="&stt0;">t</text>
<text x="121.28" y="8.23"
	style="&stt1;">W</text>
<text x="119.30" y="122.89"
	style="&stt0;">t</text>
<text x="121.28" y="124.33"
	style="&stt1;">W</text>
<text x="81.32" y="41.89"
	style="&stt0;">1</text>
<text x="85.28" y="41.89"
	style="&stt0;">0</text>
<text x="89.06" y="41.89"
	style="&stt0;"> </text>
<text x="91.04" y="41.89"
	style="&stt0;">%</text>
<text x="38.84" y="17.77"
	style="&stt0;">9</text>
<text x="42.80" y="17.77"
	style="&stt0;">0</text>
<text x="46.58" y="17.77"
	style="&stt0;"> </text>
<text x="48.56" y="17.77"
	style="&stt0;">%</text>
<text x="17.42" y="48.19"
	style="&stt0;">0</text>
<text x="21.20" y="48.19"
	style="&stt0;"> </text>
<text x="23.18" y="48.19"
	style="&stt0;">V</text>
<text x="21.56" y="12.91"
	style="&stt0;">V</text>
<text x="26.24" y="14.35"
	style="&stt1;">I</text>
<text x="21.56" y="81.49"
	style="&stt0;">V</text>
<text x="26.24" y="82.93"
	style="&stt1;">I</text>
<text x="1.40" y="25.33"
	style="&stt0;">n</text>
<text x="5.18" y="25.33"
	style="&stt0;">e</text>
<text x="9.14" y="25.33"
	style="&stt0;">g</text>
<text x="13.10" y="25.33"
	style="&stt0;">a</text>
<text x="16.88" y="25.33"
	style="&stt0;">t</text>
<text x="18.86" y="25.33"
	style="&stt0;">i</text>
<text x="20.48" y="25.33"
	style="&stt0;">v</text>
<text x="23.90" y="25.33"
	style="&stt0;">e</text>
<text x="27.86" y="25.33"
	style="&stt0;"> </text>
<text x="11.12" y="33.79"
	style="&stt0;">p</text>
<text x="15.08" y="33.79"
	style="&stt0;">u</text>
<text x="18.86" y="33.79"
	style="&stt0;">l</text>
<text x="20.48" y="33.79"
	style="&stt0;">s</text>
<text x="23.90" y="33.79"
	style="&stt0;">e</text>
<text x="4.10" y="93.73"
	style="&stt0;">p</text>
<text x="8.06" y="93.73"
	style="&stt0;">o</text>
<text x="11.84" y="93.73"
	style="&stt0;">s</text>
<text x="15.44" y="93.73"
	style="&stt0;">i</text>
<text x="16.88" y="93.73"
	style="&stt0;">t</text>
<text x="18.86" y="93.73"
	style="&stt0;">i</text>
<text x="20.48" y="93.73"
	style="&stt0;">v</text>
<text x="23.90" y="93.73"
	style="&stt0;">e</text>
<text x="27.86" y="93.73"
	style="&stt0;"> </text>
<text x="11.12" y="102.19"
	style="&stt0;">p</text>
<text x="15.08" y="102.19"
	style="&stt0;">u</text>
<text x="18.86" y="102.19"
	style="&stt0;">l</text>
<text x="20.48" y="102.19"
	style="&stt0;">s</text>
<text x="23.90" y="102.19"
	style="&stt0;">e</text>
<text x="17.42" y="117.67"
	style="&stt0;">0</text>
<text x="21.20" y="117.67"
	style="&stt0;"> </text>
<text x="23.18" y="117.67"
	style="&stt0;">V</text>
<text x="73.22" y="98.95"
	style="&stt0;">V</text>
<text x="77.90" y="100.39"
	style="&stt1;">M</text>
<text x="162.68" y="98.95"
	style="&stt0;">V</text>
<text x="167.36" y="100.39"
	style="&stt1;">M</text>
<text x="81.32" y="87.97"
	style="&stt0;">9</text>
<text x="85.28" y="87.97"
	style="&stt0;">0</text>
<text x="89.06" y="87.97"
	style="&stt0;"> </text>
<text x="91.04" y="87.97"
	style="&stt0;">%</text>
<text x="38.84" y="111.37"
	style="&stt0;">1</text>
<text x="42.80" y="111.37"
	style="&stt0;">0</text>
<text x="46.58" y="111.37"
	style="&stt0;"> </text>
<text x="48.56" y="111.37"
	style="&stt0;">%</text>
<text x="174.74" y="72.49"
	style="&stt0;">t</text>
<text x="176.72" y="73.93"
	style="&stt1;">f</text>
<text x="174.56" y="57.73"
	style="&stt0;">t</text>
<text x="176.54" y="59.17"
	style="&stt1;">r</text>
<text x="66.20" y="72.49"
	style="&stt0;">t</text>
<text x="68.18" y="73.93"
	style="&stt1;">r</text>
<text x="66.38" y="57.73"
	style="&stt0;">t</text>
<text x="68.36" y="59.17"
	style="&stt1;">f</text>
<polyline style="&sto2;"
	points="72.93,2.91 68.93,4.14 72.93,5.31 72.93,2.91 
	72.93,2.91 "/>
<polyline style="&sto2;"
	points="80.52,54.41 76.52,55.63 80.52,56.81 80.52,54.41 
	80.52,54.41 "/>
<polyline style="&sto2;"
	points="80.52,69.31 76.52,70.54 80.52,71.71 80.52,69.31 
	80.52,69.31 "/>
<polyline style="&sto2;"
	points="72.93,120.04 68.93,121.27 72.93,122.44 72.93,120.04 
	72.93,120.04 "/>
<polyline style="&sto2;"
	points="189.60,54.41 185.60,55.63 189.60,56.81 189.60,54.41 
	189.60,54.41 "/>
<polyline style="&sto2;"
	points="189.60,69.31 185.60,70.54 189.60,71.71 189.60,69.31 
	189.60,69.31 "/>
<polyline style="&sto2;"
	points="56.14,71.76 60.14,70.54 56.14,69.36 56.14,71.76 
	56.14,71.76 "/>
<polyline style="&sto2;"
	points="56.14,56.86 60.14,55.63 56.14,54.46 56.14,56.86 
	56.14,56.86 "/>
<polyline style="&sto2;"
	points="164.19,71.76 168.19,70.54 164.19,69.36 164.19,71.76 
	164.19,71.76 "/>
<polyline style="&sto2;"
	points="171.58,122.50 175.58,121.27 171.58,120.10 171.58,122.50 
	171.58,122.50 "/>
<polyline style="&sto2;"
	points="163.68,56.86 167.68,55.63 163.68,54.46 163.68,56.86 
	163.68,56.86 "/>
<polyline style="&sto2;"
	points="173.37,5.36 177.37,4.14 173.37,2.96 173.37,5.36 
	173.37,5.36 "/>
<text x="206.24" y="233.05"
	style="&stt2;">0</text>
<text x="209.48" y="233.05"
	style="&stt2;">0</text>
<text x="212.90" y="233.05"
	style="&stt2;">1</text>
<text x="216.32" y="233.05"
	style="&stt2;">a</text>
<text x="219.56" y="233.05"
	style="&stt2;">a</text>
<text x="222.98" y="233.05"
	style="&stt2;">d</text>
<text x="226.22" y="233.05"
	style="&stt2;">9</text>
<text x="229.64" y="233.05"
	style="&stt2;">8</text>
<text x="232.88" y="233.05"
	style="&stt2;">3</text>
<polyline style="&sto3;"
	points="159.79,200.48 167.79,200.48 "/>
<polyline style="&sto3;"
	points="159.79,203.79 167.79,203.79 "/>
<polyline style="&sto4;"
	points="163.79,185.69 163.79,200.48 "/>
<polyline style="&sto4;"
	points="74.16,185.60 74.16,193.82 "/>
<polyline style="&sto4;"
	points="107.50,169.10 107.50,157.53 "/>
<polyline style="&sto4;"
	points="91.01,185.60 34.23,185.60 "/>
<polyline style="&sto5;"
	points="123.91,169.16 123.91,201.88 91.01,201.88 91.01,169.16 
	123.91,169.16 123.91,169.16 "/>
<text x="100.22" y="188.05"
	style="&stt0;">D</text>
<text x="105.26" y="188.05"
	style="&stt0;">U</text>
<text x="110.30" y="188.05"
	style="&stt0;">T</text>
<text x="100.76" y="153.49"
	style="&stt0;">V</text>
<text x="105.44" y="154.93"
	style="&stt1;">C</text>
<text x="109.76" y="154.93"
	style="&stt1;">C</text>
<text x="212.00" y="153.49"
	style="&stt0;">V</text>
<text x="216.68" y="154.93"
	style="&stt1;">C</text>
<text x="221.00" y="154.93"
	style="&stt1;">C</text>
<text x="48.02" y="178.33"
	style="&stt1;">V</text>
<text x="51.98" y="179.41"
	style="&stt1;">I</text>
<text x="136.04" y="178.33"
	style="&stt1;">V</text>
<text x="140.00" y="179.41"
	style="&stt1;">O</text>
<text x="79.16" y="204.07"
	style="&stt1;">R</text>
<text x="83.48" y="205.33"
	style="&stt1;">T</text>
<text x="176.72" y="179.41"
	style="&stt0;"> </text>
<text x="178.70" y="179.41"
	style="&stt1;">R</text>
<text x="183.02" y="180.67"
	style="&stt1;">L</text>
<text x="198.32" y="179.41"
	style="&stt1;">S</text>
<text x="202.46" y="179.41"
	style="&stt1;">1</text>
<text x="170.78" y="204.07"
	style="&stt1;">C</text>
<text x="175.10" y="205.33"
	style="&stt1;">L</text>
<text x="221.36" y="187.69"
	style="&stt0;">o</text>
<text x="225.32" y="187.69"
	style="&stt0;">p</text>
<text x="229.28" y="187.69"
	style="&stt0;">e</text>
<text x="233.06" y="187.69"
	style="&stt0;">n</text>
<polyline style="&sto6;"
	points="50.67,218.35 50.67,189.56 "/>
<polyline style="&sto4;"
	points="49.07,221.54 50.67,218.35 "/>
<polyline style="&sto4;"
	points="45.87,221.54 47.47,218.35 53.87,218.35 52.27,221.54 "/>
<polyline style="&sto6;"
	points="74.16,218.35 74.16,209.82 "/>
<polyline style="&sto4;"
	points="72.56,221.54 74.16,218.35 "/>
<polyline style="&sto4;"
	points="69.35,221.54 70.96,218.35 77.36,218.35 75.76,221.54 "/>
<polyline style="&sto6;"
	points="107.47,218.35 107.47,201.88 "/>
<polyline style="&sto4;"
	points="105.87,221.54 107.47,218.35 "/>
<polyline style="&sto4;"
	points="102.67,221.54 104.27,218.35 110.67,218.35 109.07,221.54 "/>
<polyline style="&sto6;"
	points="140.40,218.35 140.40,189.56 "/>
<polyline style="&sto4;"
	points="138.80,221.54 140.40,218.35 "/>
<polyline style="&sto4;"
	points="135.60,221.54 137.20,218.35 143.60,218.35 142.00,221.54 "/>
<polyline style="&sto6;"
	points="163.79,218.35 163.79,203.79 "/>
<polyline style="&sto4;"
	points="162.19,221.54 163.79,218.35 "/>
<polyline style="&sto4;"
	points="158.99,221.54 160.59,218.35 166.99,218.35 165.39,221.54 "/>
<polyline style="&sto4;"
	points="217.14,221.54 218.74,218.35 "/>
<polyline style="&sto4;"
	points="213.94,221.54 215.54,218.35 221.94,218.35 220.34,221.54 "/>
<polyline style="&sto6;"
	points="173.67,185.56 123.91,185.56 "/>
<polyline style="&sto6;"
	points="189.67,185.56 198.74,185.56 "/>
<polyline style="&sto4;"
	points="189.67,183.16 189.67,187.96 173.67,187.96 173.67,183.16 
	189.67,183.16 189.67,183.16 "/>
<polyline style="&sto4;"
	points="71.76,193.82 76.56,193.82 76.56,209.82 71.76,209.82 
	71.76,193.82 71.76,193.82 "/>
<path style="&sto7;"
d="M 164.59 185.69 C 164.59 186.14 164.23 186.50 163.79 186.50 C 163.35 186.50 162.99 186.14 162.99 185.69
	 C 162.99 185.25 163.35 184.90 163.79 184.90 C 164.23 184.90 164.59 185.25 164.59 185.69 L 164.59 185.69"/>
<path style="&sto7;"
d="M 74.95 185.60 C 74.95 186.05 74.60 186.41 74.16 186.41 C 73.71 186.41 73.35 186.05 73.35 185.60
	 C 73.35 185.16 73.71 184.81 74.16 184.81 C 74.60 184.81 74.95 185.16 74.95 185.60 L 74.95 185.60"/>
<polyline style="&sto3;"
	points="200.34,185.56 210.74,178.36 "/>
<path style="&sto8;"
d="M 200.34 187.16 C 199.46 187.16 198.74 186.45 198.74 185.56 C 198.74 184.68 199.46 183.96 200.34 183.96
	 C 201.23 183.96 201.94 184.68 201.94 185.56 C 201.94 186.45 201.23 187.16 200.34 187.16 L 200.34 187.16"/>
<polyline style="&sto6;"
	points="211.54,177.56 218.74,177.56 218.74,157.53 "/>
<polyline style="&sto6;"
	points="211.54,193.56 218.74,193.56 218.74,218.35 "/>
<polyline style="&sto6;"
	points="211.54,185.56 218.74,185.56 "/>
<path style="&sto4;"
d="M 144.40 185.56 C 144.40 187.77 142.61 189.56 140.40 189.56 C 138.19 189.56 136.40 187.77 136.40 185.56
	 C 136.40 183.35 138.19 181.56 140.40 181.56 C 142.61 181.56 144.40 183.35 144.40 185.56 L 144.40 185.56"/>
<polyline style="&sto4;"
	points="134.80,189.56 146.00,189.56 "/>
<path style="&sto4;"
d="M 54.67 185.56 C 54.67 187.77 52.88 189.56 50.67 189.56 C 48.46 189.56 46.67 187.77 46.67 185.56
	 C 46.67 183.35 48.46 181.56 50.67 181.56 C 52.88 181.56 54.67 183.35 54.67 185.56 L 54.67 185.56"/>
<polyline style="&sto4;"
	points="45.07,189.56 56.27,189.56 "/>
<polyline style="&sto4;"
	points="34.23,193.60 18.23,193.60 18.23,177.60 34.23,177.60 
	34.23,193.60 34.23,193.60 "/>
<text x="23.36" y="184.63"
	style="&stt0;">G</text>
<polyline style="&sto6;"
	points="22.23,191.20 24.63,191.20 24.63,187.20 27.83,187.20 
	27.83,191.20 30.23,191.20 "/>
</svg>
