<?xml version="1.0" standalone="no"?>
<!-- Generated by Visual Integrity Suite v8.5 -->
<!DOCTYPE svg PUBLIC "-//W3C//DTD SVG 1.1//EN"
	"http://www.w3.org/Graphics/SVG/1.1/DTD/svg11.dtd" [
<!ENTITY sto0 "fill:none;  fill-rule:nonzero; stroke:#000000; stroke-width:1.08; stroke-linecap:butt; stroke-linejoin:miter">
<!ENTITY sto1 "fill:none;  fill-rule:nonzero; stroke:#000000; stroke-width:0.54; stroke-linecap:butt; stroke-linejoin:miter">
<!ENTITY stt0 "font-family:Arial; font-size:6.00px; font-style:italic; fill:#000000">
<!ENTITY stt1 "font-family:Arial; font-size:7.00px; fill:#000000">
]>
<svg version="1.1" baseProfile="full" xmlns="http://www.w3.org/2000/svg" xmlns:xlink="http://www.w3.org/1999/xlink" xml:space="preserve" width="32.57mm" height="48.97mm" viewBox="0 0 92.34 138.83">
<text x="61.16" y="137.47"
	style="&stt0;">0</text>
<text x="64.58" y="137.47"
	style="&stt0;">0</text>
<text x="67.82" y="137.47"
	style="&stt0;">1</text>
<text x="71.24" y="137.47"
	style="&stt0;">a</text>
<text x="74.48" y="137.47"
	style="&stt0;">a</text>
<text x="77.90" y="137.47"
	style="&stt0;">e</text>
<text x="81.14" y="137.47"
	style="&stt0;">0</text>
<text x="84.56" y="137.47"
	style="&stt0;">4</text>
<text x="87.80" y="137.47"
	style="&stt0;">8</text>
<text x="19.22" y="28.93"
	style="&stt1;">D</text>
<text x="24.26" y="28.93"
	style="&stt1;">0</text>
<text x="19.22" y="41.17"
	style="&stt1;">D</text>
<text x="24.26" y="41.17"
	style="&stt1;">1</text>
<text x="19.22" y="53.59"
	style="&stt1;">D</text>
<text x="24.26" y="53.59"
	style="&stt1;">2</text>
<text x="19.22" y="66.01"
	style="&stt1;">D</text>
<text x="24.26" y="66.01"
	style="&stt1;">3</text>
<text x="19.22" y="78.43"
	style="&stt1;">D</text>
<text x="24.26" y="78.43"
	style="&stt1;">4</text>
<text x="19.22" y="90.85"
	style="&stt1;">D</text>
<text x="24.26" y="90.85"
	style="&stt1;">5</text>
<text x="19.22" y="103.09"
	style="&stt1;">D</text>
<text x="24.26" y="103.09"
	style="&stt1;">6</text>
<text x="19.22" y="115.51"
	style="&stt1;">D</text>
<text x="24.26" y="115.51"
	style="&stt1;">7</text>
<text x="35.24" y="122.35"
	style="&stt1;">O</text>
<text x="40.64" y="122.35"
	style="&stt1;">E</text>
<text x="35.96" y="18.49"
	style="&stt1;">L</text>
<text x="39.92" y="18.49"
	style="&stt1;">E</text>
<text x="52.34" y="29.11"
	style="&stt1;">Q</text>
<text x="57.74" y="29.11"
	style="&stt1;">0</text>
<text x="52.34" y="41.53"
	style="&stt1;">Q</text>
<text x="57.74" y="41.53"
	style="&stt1;">1</text>
<text x="52.34" y="53.77"
	style="&stt1;">Q</text>
<text x="57.74" y="53.77"
	style="&stt1;">2</text>
<text x="52.34" y="66.19"
	style="&stt1;">Q</text>
<text x="57.74" y="66.19"
	style="&stt1;">3</text>
<text x="52.34" y="78.61"
	style="&stt1;">Q</text>
<text x="57.74" y="78.61"
	style="&stt1;">4</text>
<text x="52.34" y="91.03"
	style="&stt1;">Q</text>
<text x="57.74" y="91.03"
	style="&stt1;">5</text>
<text x="52.34" y="103.45"
	style="&stt1;">Q</text>
<text x="57.74" y="103.45"
	style="&stt1;">6</text>
<text x="52.34" y="115.69"
	style="&stt1;">Q</text>
<text x="57.74" y="115.69"
	style="&stt1;">7</text>
<text x="42.44" y="6.79"
	style="&stt1;">1</text>
<text x="46.40" y="6.79"
	style="&stt1;">1</text>
<text x="42.44" y="137.11"
	style="&stt1;">1</text>
<polyline style="&sto0;"
	points="65.04,125.57 65.04,10.32 15.79,10.32 15.79,125.57 
	65.04,125.57 65.04,125.57 "/>
<polyline style="&sto1;"
	points="80.89,26.76 65.10,26.76 "/>
<polyline style="&sto1;"
	points="80.89,39.10 65.10,39.10 "/>
<polyline style="&sto1;"
	points="80.89,51.44 65.10,51.44 "/>
<polyline style="&sto1;"
	points="80.89,63.78 65.10,63.78 "/>
<polyline style="&sto1;"
	points="80.89,76.12 65.10,76.12 "/>
<polyline style="&sto1;"
	points="80.89,88.45 65.10,88.45 "/>
<polyline style="&sto1;"
	points="80.89,100.79 65.10,100.79 "/>
<polyline style="&sto1;"
	points="0.43,26.76 15.80,26.76 "/>
<polyline style="&sto1;"
	points="0.43,39.10 15.80,39.10 "/>
<polyline style="&sto1;"
	points="0.43,51.44 15.80,51.44 "/>
<polyline style="&sto1;"
	points="0.43,63.78 15.80,63.78 "/>
<polyline style="&sto1;"
	points="0.43,76.12 15.80,76.12 "/>
<polyline style="&sto1;"
	points="0.43,88.45 15.80,88.45 "/>
<polyline style="&sto1;"
	points="0.43,100.79 15.80,100.79 "/>
<polyline style="&sto1;"
	points="0.43,113.13 15.80,113.13 "/>
<polyline style="&sto1;"
	points="65.14,113.13 80.51,113.13 "/>
<path style="&sto0;"
d="M 38.21 128.76 C 38.21 129.90 39.13 130.82 40.27 130.82 C 41.42 130.82 42.34 129.90 42.34 128.76
	 C 42.34 127.62 41.42 126.69 40.27 126.69 C 39.13 126.69 38.21 127.62 38.21 128.76 L 38.21 128.76"/>
<polyline style="&sto1;"
	points="40.39,130.83 40.39,137.93 "/>
<polyline style="&sto1;"
	points="40.39,0.80 40.39,9.96 "/>
<text x="71.42" y="110.65"
	style="&stt1;">1</text>
<text x="75.20" y="110.65"
	style="&stt1;">9</text>
<text x="71.42" y="98.41"
	style="&stt1;">1</text>
<text x="75.20" y="98.41"
	style="&stt1;">6</text>
<text x="71.42" y="86.17"
	style="&stt1;">1</text>
<text x="75.20" y="86.17"
	style="&stt1;">5</text>
<text x="71.42" y="73.93"
	style="&stt1;">1</text>
<text x="75.20" y="73.93"
	style="&stt1;">2</text>
<text x="71.42" y="61.69"
	style="&stt1;">9</text>
<text x="71.42" y="49.27"
	style="&stt1;">6</text>
<text x="71.42" y="37.03"
	style="&stt1;">5</text>
<text x="71.42" y="24.79"
	style="&stt1;">2</text>
<text x="1.40" y="110.65"
	style="&stt1;">1</text>
<text x="5.36" y="110.65"
	style="&stt1;">8</text>
<text x="1.40" y="98.41"
	style="&stt1;">1</text>
<text x="5.36" y="98.41"
	style="&stt1;">7</text>
<text x="1.40" y="86.17"
	style="&stt1;">1</text>
<text x="5.36" y="86.17"
	style="&stt1;">4</text>
<text x="1.40" y="73.93"
	style="&stt1;">1</text>
<text x="5.36" y="73.93"
	style="&stt1;">3</text>
<text x="5.36" y="61.69"
	style="&stt1;">8</text>
<text x="5.36" y="49.27"
	style="&stt1;">7</text>
<text x="5.36" y="37.03"
	style="&stt1;">4</text>
<text x="5.36" y="24.79"
	style="&stt1;">3</text>
<polyline style="&sto1;"
	points="36.15,115.60 45.28,115.60 "/>
</svg>
