<?xml version="1.0" standalone="no"?>
<!-- Generated by Visual Integrity Suite v8.5 -->
<!DOCTYPE svg PUBLIC "-//W3C//DTD SVG 1.1//EN"
	"http://www.w3.org/Graphics/SVG/1.1/DTD/svg11.dtd" [
<!ENTITY sto0 "fill:none;  fill-rule:nonzero; stroke:#000000; stroke-width:1.08; stroke-linecap:butt; stroke-linejoin:miter">
<!ENTITY sto1 "fill:#000000;  fill-rule:nonzero; stroke:#000000; stroke-width:0.72; stroke-linecap:butt; stroke-linejoin:miter">
<!ENTITY sto2 "fill:none;  fill-rule:nonzero; stroke:#000000; stroke-width:0.54; stroke-linecap:square; stroke-linejoin:miter">
<!ENTITY sto3 "fill:none;  fill-rule:nonzero; stroke:#000000; stroke-width:0.54; stroke-linecap:butt; stroke-linejoin:miter">
<!ENTITY sto4 "fill:#000000;  fill-rule:nonzero; stroke:none; stroke-width:0.54; stroke-linecap:butt; stroke-linejoin:miter">
<!ENTITY stt0 "font-family:Arial; font-size:6.00px; font-style:italic; fill:#000000">
<!ENTITY stt1 "font-family:Arial; font-size:7.00px; fill:#000000">
]>
<svg version="1.1" baseProfile="full" xmlns="http://www.w3.org/2000/svg" xmlns:xlink="http://www.w3.org/1999/xlink" xml:space="preserve" width="166.43mm" height="71.45mm" viewBox="0 0 471.78 202.55">
<path style="&sto0;"
d="M 71.44 125.25 C 71.44 126.13 70.72 126.85 69.84 126.85 C 68.96 126.85 68.24 126.13 68.24 125.25
	 C 68.24 124.37 68.96 123.65 69.84 123.65 C 70.72 123.65 71.44 124.37 71.44 125.25 L 71.44 125.25"/>
<polyline style="&sto0;"
	points="54.64,117.25 54.64,133.25 66.64,125.25 54.64,117.25 
	54.64,117.25 "/>
<path style="&sto0;"
d="M 38.64 125.25 C 38.64 126.13 37.92 126.85 37.04 126.85 C 36.16 126.85 35.44 126.13 35.44 125.25
	 C 35.44 124.37 36.16 123.65 37.04 123.65 C 37.92 123.65 38.64 124.37 38.64 125.25 L 38.64 125.25"/>
<polyline style="&sto0;"
	points="21.84,117.25 21.84,133.25 33.84,125.25 21.84,117.25 
	21.84,117.25 "/>
<path style="&sto1;"
d="M 383.33 113.25 C 383.33 113.69 382.97 114.05 382.53 114.05 C 382.08 114.05 381.73 113.69 381.73 113.25
	 C 381.73 112.81 382.08 112.45 382.53 112.45 C 382.97 112.45 383.33 112.81 383.33 113.25 L 383.33 113.25"/>
<path style="&sto1;"
d="M 395.33 125.25 C 395.33 125.69 394.97 126.05 394.53 126.05 C 394.08 126.05 393.73 125.69 393.73 125.25
	 C 393.73 124.81 394.08 124.45 394.53 124.45 C 394.97 124.45 395.33 124.81 395.33 125.25 L 395.33 125.25"/>
<path style="&sto1;"
d="M 395.33 145.25 C 395.33 145.69 394.97 146.05 394.53 146.05 C 394.08 146.05 393.73 145.69 393.73 145.25
	 C 393.73 144.81 394.08 144.45 394.53 144.45 C 394.97 144.45 395.33 144.81 395.33 145.25 L 395.33 145.25"/>
<path style="&sto1;"
d="M 331.21 113.25 C 331.21 113.69 330.85 114.05 330.41 114.05 C 329.97 114.05 329.61 113.69 329.61 113.25
	 C 329.61 112.81 329.97 112.45 330.41 112.45 C 330.85 112.45 331.21 112.81 331.21 113.25 L 331.21 113.25"/>
<path style="&sto1;"
d="M 343.21 125.25 C 343.21 125.69 342.85 126.05 342.41 126.05 C 341.97 126.05 341.61 125.69 341.61 125.25
	 C 341.61 124.81 341.97 124.45 342.41 124.45 C 342.85 124.45 343.21 124.81 343.21 125.25 L 343.21 125.25"/>
<path style="&sto1;"
d="M 343.21 145.25 C 343.21 145.69 342.85 146.05 342.41 146.05 C 341.97 146.05 341.61 145.69 341.61 145.25
	 C 341.61 144.81 341.97 144.45 342.41 144.45 C 342.85 144.45 343.21 144.81 343.21 145.25 L 343.21 145.25"/>
<path style="&sto1;"
d="M 279.10 113.25 C 279.10 113.69 278.74 114.05 278.30 114.05 C 277.86 114.05 277.50 113.69 277.50 113.25
	 C 277.50 112.81 277.86 112.45 278.30 112.45 C 278.74 112.45 279.10 112.81 279.10 113.25 L 279.10 113.25"/>
<path style="&sto1;"
d="M 291.10 125.25 C 291.10 125.69 290.74 126.05 290.30 126.05 C 289.86 126.05 289.50 125.69 289.50 125.25
	 C 289.50 124.81 289.86 124.45 290.30 124.45 C 290.74 124.45 291.10 124.81 291.10 125.25 L 291.10 125.25"/>
<path style="&sto1;"
d="M 226.99 113.25 C 226.99 113.69 226.63 114.05 226.19 114.05 C 225.75 114.05 225.39 113.69 225.39 113.25
	 C 225.39 112.81 225.75 112.45 226.19 112.45 C 226.63 112.45 226.99 112.81 226.99 113.25 L 226.99 113.25"/>
<path style="&sto1;"
d="M 238.99 125.25 C 238.99 125.69 238.63 126.05 238.19 126.05 C 237.75 126.05 237.39 125.69 237.39 125.25
	 C 237.39 124.81 237.75 124.45 238.19 124.45 C 238.63 124.45 238.99 124.81 238.99 125.25 L 238.99 125.25"/>
<path style="&sto1;"
d="M 238.99 145.25 C 238.99 145.69 238.63 146.05 238.19 146.05 C 237.75 146.05 237.39 145.69 237.39 145.25
	 C 237.39 144.81 237.75 144.45 238.19 144.45 C 238.63 144.45 238.99 144.81 238.99 145.25 L 238.99 145.25"/>
<path style="&sto1;"
d="M 291.10 145.25 C 291.10 145.69 290.74 146.05 290.30 146.05 C 289.86 146.05 289.50 145.69 289.50 145.25
	 C 289.50 144.81 289.86 144.45 290.30 144.45 C 290.74 144.45 291.10 144.81 291.10 145.25 L 291.10 145.25"/>
<path style="&sto1;"
d="M 174.87 113.25 C 174.87 113.69 174.51 114.05 174.07 114.05 C 173.63 114.05 173.27 113.69 173.27 113.25
	 C 173.27 112.81 173.63 112.45 174.07 112.45 C 174.51 112.45 174.87 112.81 174.87 113.25 L 174.87 113.25"/>
<path style="&sto1;"
d="M 186.87 125.25 C 186.87 125.69 186.51 126.05 186.07 126.05 C 185.63 126.05 185.27 125.69 185.27 125.25
	 C 185.27 124.81 185.63 124.45 186.07 124.45 C 186.51 124.45 186.87 124.81 186.87 125.25 L 186.87 125.25"/>
<path style="&sto1;"
d="M 186.87 145.25 C 186.87 145.69 186.51 146.05 186.07 146.05 C 185.63 146.05 185.27 145.69 185.27 145.25
	 C 185.27 144.81 185.63 144.45 186.07 144.45 C 186.51 144.45 186.87 144.81 186.87 145.25 L 186.87 145.25"/>
<path style="&sto1;"
d="M 122.76 113.25 C 122.76 113.69 122.40 114.05 121.96 114.05 C 121.52 114.05 121.16 113.69 121.16 113.25
	 C 121.16 112.81 121.52 112.45 121.96 112.45 C 122.40 112.45 122.76 112.81 122.76 113.25 L 122.76 113.25"/>
<path style="&sto1;"
d="M 134.76 125.25 C 134.76 125.69 134.40 126.05 133.96 126.05 C 133.52 126.05 133.16 125.69 133.16 125.25
	 C 133.16 124.81 133.52 124.45 133.96 124.45 C 134.40 124.45 134.76 124.81 134.76 125.25 L 134.76 125.25"/>
<path style="&sto1;"
d="M 134.76 145.25 C 134.76 145.69 134.40 146.05 133.96 146.05 C 133.52 146.05 133.16 145.69 133.16 145.25
	 C 133.16 144.81 133.52 144.45 133.96 144.45 C 134.40 144.45 134.76 144.81 134.76 145.25 L 134.76 145.25"/>
<path style="&sto1;"
d="M 70.65 113.25 C 70.65 113.69 70.29 114.05 69.85 114.05 C 69.41 114.05 69.05 113.69 69.05 113.25
	 C 69.05 112.81 69.41 112.45 69.85 112.45 C 70.29 112.45 70.65 112.81 70.65 113.25 L 70.65 113.25"/>
<path style="&sto1;"
d="M 47.44 125.25 C 47.44 125.69 47.08 126.05 46.64 126.05 C 46.20 126.05 45.84 125.69 45.84 125.25
	 C 45.84 124.81 46.20 124.45 46.64 124.45 C 47.08 124.45 47.44 124.81 47.44 125.25 L 47.44 125.25"/>
<path style="&sto1;"
d="M 82.65 125.25 C 82.65 125.69 82.29 126.05 81.85 126.05 C 81.41 126.05 81.05 125.69 81.05 125.25
	 C 81.05 124.81 81.41 124.45 81.85 124.45 C 82.29 124.45 82.65 124.81 82.65 125.25 L 82.65 125.25"/>
<path style="&sto1;"
d="M 82.65 145.25 C 82.65 145.69 82.29 146.05 81.85 146.05 C 81.41 146.05 81.05 145.69 81.05 145.25
	 C 81.05 144.81 81.41 144.45 81.85 144.45 C 82.29 144.45 82.65 144.81 82.65 145.25 L 82.65 145.25"/>
<polyline style="&sto0;"
	points="426.64,17.08 410.64,17.08 418.64,29.08 426.64,17.08 
	426.64,17.08 "/>
<polyline style="&sto2;"
	points="418.64,17.08 418.64,9.25 "/>
<text x="440.60" y="201.19"
	style="&stt0;">0</text>
<text x="443.84" y="201.19"
	style="&stt0;">0</text>
<text x="447.26" y="201.19"
	style="&stt0;">1</text>
<text x="450.68" y="201.19"
	style="&stt0;">a</text>
<text x="453.92" y="201.19"
	style="&stt0;">a</text>
<text x="457.34" y="201.19"
	style="&stt0;">e</text>
<text x="460.58" y="201.19"
	style="&stt0;">0</text>
<text x="464.00" y="201.19"
	style="&stt0;">5</text>
<text x="467.24" y="201.19"
	style="&stt0;">2</text>
<polyline style="&sto0;"
	points="454.64,101.25 454.64,49.25 426.66,49.25 426.66,101.25 
	454.64,101.25 454.64,101.25 "/>
<text x="429.08" y="63.67"
	style="&stt1;">D</text>
<text x="430.34" y="98.77"
	style="&stt1;">L</text>
<text x="434.12" y="98.77"
	style="&stt1;">E</text>
<text x="442.22" y="98.77"
	style="&stt1;">L</text>
<text x="446.18" y="98.77"
	style="&stt1;">E</text>
<text x="446.72" y="63.67"
	style="&stt1;">Q</text>
<polyline style="&sto3;"
	points="426.66,61.42 418.64,61.42 418.64,29.08 "/>
<polyline style="&sto3;"
	points="434.64,101.25 434.64,113.25 46.64,113.25 46.64,125.25 "/>
<polyline style="&sto3;"
	points="54.64,125.25 38.64,125.25 "/>
<polyline style="&sto3;"
	points="21.84,125.25 13.84,125.25 "/>
<path style="&sto0;"
d="M 38.64 145.25 C 38.64 146.13 37.92 146.85 37.04 146.85 C 36.16 146.85 35.44 146.13 35.44 145.25
	 C 35.44 144.37 36.16 143.65 37.04 143.65 C 37.92 143.65 38.64 144.37 38.64 145.25 L 38.64 145.25"/>
<polyline style="&sto0;"
	points="21.84,137.25 21.84,153.25 33.84,145.25 21.84,137.25 
	21.84,137.25 "/>
<path style="&sto0;"
d="M 97.84 174.05 C 96.96 174.05 96.24 173.33 96.24 172.45 C 96.24 171.57 96.96 170.85 97.84 170.85
	 C 98.72 170.85 99.44 171.57 99.44 172.45 C 99.44 173.33 98.72 174.05 97.84 174.05 L 97.84 174.05"/>
<path style="&sto0;"
d="M 150.64 174.05 C 149.76 174.05 149.04 173.33 149.04 172.45 C 149.04 171.57 149.76 170.85 150.64 170.85
	 C 151.52 170.85 152.24 171.57 152.24 172.45 C 152.24 173.33 151.52 174.05 150.64 174.05 L 150.64 174.05"/>
<path style="&sto0;"
d="M 202.64 174.05 C 201.76 174.05 201.04 173.33 201.04 172.45 C 201.04 171.57 201.76 170.85 202.64 170.85
	 C 203.52 170.85 204.24 171.57 204.24 172.45 C 204.24 173.33 203.52 174.05 202.64 174.05 L 202.64 174.05"/>
<path style="&sto0;"
d="M 254.64 174.05 C 253.76 174.05 253.04 173.33 253.04 172.45 C 253.04 171.57 253.76 170.85 254.64 170.85
	 C 255.52 170.85 256.24 171.57 256.24 172.45 C 256.24 173.33 255.52 174.05 254.64 174.05 L 254.64 174.05"/>
<path style="&sto0;"
d="M 306.64 174.05 C 305.76 174.05 305.04 173.33 305.04 172.45 C 305.04 171.57 305.76 170.85 306.64 170.85
	 C 307.52 170.85 308.24 171.57 308.24 172.45 C 308.24 173.33 307.52 174.05 306.64 174.05 L 306.64 174.05"/>
<path style="&sto0;"
d="M 358.64 174.05 C 357.76 174.05 357.04 173.33 357.04 172.45 C 357.04 171.57 357.76 170.85 358.64 170.85
	 C 359.52 170.85 360.24 171.57 360.24 172.45 C 360.24 173.33 359.52 174.05 358.64 174.05 L 358.64 174.05"/>
<path style="&sto0;"
d="M 410.64 174.05 C 409.76 174.05 409.04 173.33 409.04 172.45 C 409.04 171.57 409.76 170.85 410.64 170.85
	 C 411.52 170.85 412.24 171.57 412.24 172.45 C 412.24 173.33 411.52 174.05 410.64 174.05 L 410.64 174.05"/>
<path style="&sto0;"
d="M 462.64 174.05 C 461.76 174.05 461.04 173.33 461.04 172.45 C 461.04 171.57 461.76 170.85 462.64 170.85
	 C 463.52 170.85 464.24 171.57 464.24 172.45 C 464.24 173.33 463.52 174.05 462.64 174.05 L 462.64 174.05"/>
<polyline style="&sto3;"
	points="21.84,145.25 13.84,145.25 "/>
<polyline style="&sto3;"
	points="446.64,101.25 446.64,125.25 71.44,125.25 "/>
<text x="429.98" y="75.55"
	style="&stt1;">L</text>
<text x="433.76" y="75.55"
	style="&stt1;">A</text>
<text x="437.54" y="75.55"
	style="&stt1;">T</text>
<text x="441.86" y="75.55"
	style="&stt1;">C</text>
<text x="446.90" y="75.55"
	style="&stt1;">H</text>
<text x="451.94" y="75.55"
	style="&stt1;"> </text>
<text x="438.98" y="84.01"
	style="&stt1;">8</text>
<polyline style="&sto4;"
	points="454.22,165.62 457.84,163.54 454.22,161.47 454.22,165.62 
	454.22,165.62 "/>
<polyline style="&sto3;"
	points="454.64,163.54 446.64,163.54 446.64,145.25 38.64,145.25 "/>
<polyline style="&sto3;"
	points="462.75,174.05 462.75,181.15 "/>
<polyline style="&sto3;"
	points="462.75,157.25 462.75,61.42 454.53,61.42 "/>
<text x="458.06" y="188.59"
	style="&stt1;">Q</text>
<text x="463.64" y="188.59"
	style="&stt1;">7</text>
<text x="414.14" y="6.79"
	style="&stt1;">D</text>
<text x="419.18" y="6.79"
	style="&stt1;">7</text>
<polyline style="&sto0;"
	points="470.64,157.51 454.64,157.51 462.64,169.51 470.64,157.51 
	470.64,157.51 "/>
<polyline style="&sto0;"
	points="402.53,101.06 402.53,49.25 374.54,49.25 374.54,101.06 
	402.53,101.06 402.53,101.06 "/>
<polyline style="&sto3;"
	points="430.64,92.45 438.64,92.45 "/>
<polyline style="&sto0;"
	points="374.53,17.08 358.53,17.08 366.53,29.08 374.53,17.08 
	374.53,17.08 "/>
<polyline style="&sto2;"
	points="366.53,17.08 366.53,9.25 "/>
<text x="376.88" y="63.67"
	style="&stt1;">D</text>
<text x="378.14" y="98.77"
	style="&stt1;">L</text>
<text x="382.10" y="98.77"
	style="&stt1;">E</text>
<text x="390.20" y="98.77"
	style="&stt1;">L</text>
<text x="393.98" y="98.77"
	style="&stt1;">E</text>
<text x="394.70" y="63.67"
	style="&stt1;">Q</text>
<polyline style="&sto3;"
	points="374.54,61.42 366.53,61.42 366.53,29.08 "/>
<polyline style="&sto3;"
	points="382.53,101.25 382.53,113.25 "/>
<polyline style="&sto3;"
	points="394.53,101.25 394.53,125.25 "/>
<text x="377.78" y="75.55"
	style="&stt1;">L</text>
<text x="381.74" y="75.55"
	style="&stt1;">A</text>
<text x="385.52" y="75.55"
	style="&stt1;">T</text>
<text x="389.84" y="75.55"
	style="&stt1;">C</text>
<text x="394.88" y="75.55"
	style="&stt1;">H</text>
<text x="399.92" y="75.55"
	style="&stt1;"> </text>
<text x="386.96" y="84.01"
	style="&stt1;">7</text>
<polyline style="&sto4;"
	points="402.10,165.62 405.73,163.54 402.10,161.47 402.10,165.62 
	402.10,165.62 "/>
<polyline style="&sto3;"
	points="403.33,163.54 394.53,163.54 394.53,145.25 "/>
<polyline style="&sto3;"
	points="410.64,174.05 410.64,181.15 "/>
<polyline style="&sto3;"
	points="410.64,157.25 410.64,61.42 402.42,61.42 "/>
<text x="406.04" y="188.59"
	style="&stt1;">Q</text>
<text x="411.44" y="188.59"
	style="&stt1;">6</text>
<text x="361.94" y="6.79"
	style="&stt1;">D</text>
<text x="366.98" y="6.79"
	style="&stt1;">6</text>
<polyline style="&sto0;"
	points="418.64,157.51 402.64,157.51 410.64,169.51 418.64,157.51 
	418.64,157.51 "/>
<polyline style="&sto0;"
	points="350.41,101.06 350.41,49.25 322.43,49.25 322.43,101.06 
	350.41,101.06 350.41,101.06 "/>
<polyline style="&sto3;"
	points="378.53,92.45 386.53,92.45 "/>
<polyline style="&sto0;"
	points="322.41,17.08 306.41,17.08 314.41,29.08 322.41,17.08 
	322.41,17.08 "/>
<polyline style="&sto2;"
	points="314.41,17.08 314.41,9.25 "/>
<text x="324.86" y="63.67"
	style="&stt1;">D</text>
<text x="326.12" y="98.77"
	style="&stt1;">L</text>
<text x="329.90" y="98.77"
	style="&stt1;">E</text>
<text x="338.00" y="98.77"
	style="&stt1;">L</text>
<text x="341.96" y="98.77"
	style="&stt1;">E</text>
<text x="342.50" y="63.67"
	style="&stt1;">Q</text>
<polyline style="&sto3;"
	points="322.43,61.42 314.41,61.42 314.41,29.08 "/>
<polyline style="&sto3;"
	points="330.41,101.25 330.41,113.25 "/>
<polyline style="&sto3;"
	points="342.41,101.25 342.41,125.25 "/>
<text x="325.76" y="75.55"
	style="&stt1;">L</text>
<text x="329.54" y="75.55"
	style="&stt1;">A</text>
<text x="333.32" y="75.55"
	style="&stt1;">T</text>
<text x="337.64" y="75.55"
	style="&stt1;">C</text>
<text x="342.68" y="75.55"
	style="&stt1;">H</text>
<text x="347.72" y="75.55"
	style="&stt1;"> </text>
<text x="334.76" y="84.01"
	style="&stt1;">6</text>
<polyline style="&sto4;"
	points="349.99,165.62 353.61,163.54 349.99,161.47 349.99,165.62 
	349.99,165.62 "/>
<polyline style="&sto3;"
	points="351.21,163.54 342.41,163.54 342.41,145.25 "/>
<polyline style="&sto3;"
	points="358.53,174.05 358.53,181.15 "/>
<polyline style="&sto3;"
	points="358.53,157.25 358.53,61.42 350.30,61.42 "/>
<text x="353.84" y="188.59"
	style="&stt1;">Q</text>
<text x="359.42" y="188.59"
	style="&stt1;">5</text>
<text x="309.92" y="6.79"
	style="&stt1;">D</text>
<text x="314.96" y="6.79"
	style="&stt1;">5</text>
<polyline style="&sto0;"
	points="366.64,157.51 350.64,157.51 358.64,169.51 366.64,157.51 
	366.64,157.51 "/>
<polyline style="&sto0;"
	points="298.30,101.06 298.30,49.25 270.32,49.25 270.32,101.06 
	298.30,101.06 298.30,101.06 "/>
<polyline style="&sto3;"
	points="326.41,92.45 334.41,92.45 "/>
<polyline style="&sto0;"
	points="270.30,17.08 254.30,17.08 262.30,29.08 270.30,17.08 
	270.30,17.08 "/>
<polyline style="&sto2;"
	points="262.30,17.08 262.30,9.25 "/>
<text x="272.66" y="63.67"
	style="&stt1;">D</text>
<text x="273.92" y="98.77"
	style="&stt1;">L</text>
<text x="277.88" y="98.77"
	style="&stt1;">E</text>
<text x="285.98" y="98.77"
	style="&stt1;">L</text>
<text x="289.76" y="98.77"
	style="&stt1;">E</text>
<text x="290.48" y="63.67"
	style="&stt1;">Q</text>
<polyline style="&sto3;"
	points="270.32,61.42 262.30,61.42 262.30,29.08 "/>
<polyline style="&sto3;"
	points="278.30,101.25 278.30,113.25 "/>
<polyline style="&sto3;"
	points="290.30,101.25 290.30,125.25 "/>
<text x="273.56" y="75.55"
	style="&stt1;">L</text>
<text x="277.52" y="75.55"
	style="&stt1;">A</text>
<text x="281.30" y="75.55"
	style="&stt1;">T</text>
<text x="285.62" y="75.55"
	style="&stt1;">C</text>
<text x="290.66" y="75.55"
	style="&stt1;">H</text>
<text x="295.70" y="75.55"
	style="&stt1;"> </text>
<text x="282.74" y="84.01"
	style="&stt1;">5</text>
<polyline style="&sto4;"
	points="297.88,165.62 301.50,163.54 297.88,161.47 297.88,165.62 
	297.88,165.62 "/>
<polyline style="&sto3;"
	points="299.10,163.54 290.30,163.54 290.30,145.25 "/>
<polyline style="&sto3;"
	points="306.64,174.05 306.64,181.15 "/>
<polyline style="&sto3;"
	points="306.64,157.25 306.64,61.42 298.19,61.42 "/>
<text x="301.82" y="188.59"
	style="&stt1;">Q</text>
<text x="307.22" y="188.59"
	style="&stt1;">4</text>
<text x="257.72" y="6.79"
	style="&stt1;">D</text>
<text x="262.76" y="6.79"
	style="&stt1;">4</text>
<polyline style="&sto0;"
	points="314.64,157.51 298.64,157.51 306.64,169.51 314.64,157.51 
	314.64,157.51 "/>
<polyline style="&sto0;"
	points="246.19,101.06 246.19,49.25 218.20,49.25 218.20,101.06 
	246.19,101.06 246.19,101.06 "/>
<polyline style="&sto3;"
	points="274.30,92.45 282.30,92.45 "/>
<polyline style="&sto0;"
	points="218.19,17.08 202.19,17.08 210.19,29.08 218.19,17.08 
	218.19,17.08 "/>
<polyline style="&sto2;"
	points="210.19,17.08 210.19,9.25 "/>
<text x="220.64" y="63.67"
	style="&stt1;">D</text>
<text x="221.90" y="98.77"
	style="&stt1;">L</text>
<text x="225.68" y="98.77"
	style="&stt1;">E</text>
<text x="233.78" y="98.77"
	style="&stt1;">L</text>
<text x="237.74" y="98.77"
	style="&stt1;">E</text>
<text x="238.28" y="63.67"
	style="&stt1;">Q</text>
<polyline style="&sto3;"
	points="218.20,61.42 210.19,61.42 210.19,29.08 "/>
<polyline style="&sto3;"
	points="226.19,101.25 226.19,113.25 "/>
<polyline style="&sto3;"
	points="238.19,101.25 238.19,125.25 "/>
<text x="221.54" y="75.55"
	style="&stt1;">L</text>
<text x="225.32" y="75.55"
	style="&stt1;">A</text>
<text x="229.10" y="75.55"
	style="&stt1;">T</text>
<text x="233.42" y="75.55"
	style="&stt1;">C</text>
<text x="238.46" y="75.55"
	style="&stt1;">H</text>
<text x="243.50" y="75.55"
	style="&stt1;"> </text>
<text x="230.54" y="84.01"
	style="&stt1;">4</text>
<polyline style="&sto4;"
	points="245.76,165.62 249.39,163.54 245.76,161.47 245.76,165.62 
	245.76,165.62 "/>
<polyline style="&sto3;"
	points="246.99,163.54 238.19,163.54 238.19,145.25 "/>
<polyline style="&sto3;"
	points="254.64,174.05 254.64,181.15 "/>
<polyline style="&sto3;"
	points="254.64,157.25 254.64,61.42 246.08,61.42 "/>
<text x="249.80" y="188.59"
	style="&stt1;">Q</text>
<text x="255.38" y="188.59"
	style="&stt1;">3</text>
<text x="205.70" y="6.79"
	style="&stt1;">D</text>
<text x="210.74" y="6.79"
	style="&stt1;">3</text>
<polyline style="&sto0;"
	points="262.64,157.51 246.64,157.51 254.64,169.51 262.64,157.51 
	262.64,157.51 "/>
<polyline style="&sto0;"
	points="194.07,101.06 194.07,49.25 166.09,49.25 166.09,101.06 
	194.07,101.06 194.07,101.06 "/>
<polyline style="&sto3;"
	points="222.19,92.45 230.19,92.45 "/>
<polyline style="&sto0;"
	points="166.07,17.08 150.07,17.08 158.07,29.08 166.07,17.08 
	166.07,17.08 "/>
<polyline style="&sto2;"
	points="158.07,17.08 158.07,9.25 "/>
<text x="168.62" y="63.67"
	style="&stt1;">D</text>
<text x="169.88" y="98.77"
	style="&stt1;">L</text>
<text x="173.84" y="98.77"
	style="&stt1;">E</text>
<text x="181.94" y="98.77"
	style="&stt1;">L</text>
<text x="185.72" y="98.77"
	style="&stt1;">E</text>
<text x="186.44" y="63.67"
	style="&stt1;">Q</text>
<polyline style="&sto3;"
	points="166.09,61.42 158.07,61.42 158.07,29.08 "/>
<polyline style="&sto3;"
	points="174.07,101.25 174.07,113.25 "/>
<polyline style="&sto3;"
	points="186.07,101.25 186.07,125.25 "/>
<text x="169.52" y="75.55"
	style="&stt1;">L</text>
<text x="173.48" y="75.55"
	style="&stt1;">A</text>
<text x="177.26" y="75.55"
	style="&stt1;">T</text>
<text x="181.58" y="75.55"
	style="&stt1;">C</text>
<text x="186.62" y="75.55"
	style="&stt1;">H</text>
<text x="191.66" y="75.55"
	style="&stt1;"> </text>
<text x="178.70" y="84.01"
	style="&stt1;">3</text>
<polyline style="&sto4;"
	points="193.65,165.62 197.27,163.54 193.65,161.47 193.65,165.62 
	193.65,165.62 "/>
<polyline style="&sto3;"
	points="194.87,163.54 186.07,163.54 186.07,145.25 "/>
<polyline style="&sto3;"
	points="202.64,174.05 202.64,181.15 "/>
<polyline style="&sto3;"
	points="202.64,157.25 202.64,61.42 193.96,61.42 "/>
<text x="198.14" y="188.59"
	style="&stt1;">Q</text>
<text x="203.36" y="188.59"
	style="&stt1;">2</text>
<text x="153.68" y="6.79"
	style="&stt1;">D</text>
<text x="158.72" y="6.79"
	style="&stt1;">2</text>
<polyline style="&sto0;"
	points="210.64,157.51 194.64,157.51 202.64,169.51 210.64,157.51 
	210.64,157.51 "/>
<polyline style="&sto0;"
	points="141.96,101.06 141.96,49.25 113.98,49.25 113.98,101.06 
	141.96,101.06 141.96,101.06 "/>
<polyline style="&sto3;"
	points="170.07,92.45 178.07,92.45 "/>
<polyline style="&sto0;"
	points="113.96,17.08 97.96,17.08 105.96,29.08 113.96,17.08 
	113.96,17.08 "/>
<polyline style="&sto2;"
	points="105.96,17.08 105.96,9.25 "/>
<text x="116.60" y="63.67"
	style="&stt1;">D</text>
<text x="117.86" y="98.77"
	style="&stt1;">L</text>
<text x="121.64" y="98.77"
	style="&stt1;">E</text>
<text x="129.74" y="98.77"
	style="&stt1;">L</text>
<text x="133.70" y="98.77"
	style="&stt1;">E</text>
<text x="134.24" y="63.67"
	style="&stt1;">Q</text>
<polyline style="&sto3;"
	points="113.98,61.42 105.96,61.42 105.96,29.08 "/>
<polyline style="&sto3;"
	points="121.96,101.25 121.96,113.25 "/>
<polyline style="&sto3;"
	points="133.96,101.25 133.96,125.25 "/>
<text x="117.32" y="75.55"
	style="&stt1;">L</text>
<text x="121.28" y="75.55"
	style="&stt1;">A</text>
<text x="125.06" y="75.55"
	style="&stt1;">T</text>
<text x="129.38" y="75.55"
	style="&stt1;">C</text>
<text x="134.42" y="75.55"
	style="&stt1;">H</text>
<text x="139.46" y="75.55"
	style="&stt1;"> </text>
<text x="126.50" y="84.01"
	style="&stt1;">2</text>
<polyline style="&sto4;"
	points="141.54,165.62 145.16,163.54 141.54,161.47 141.54,165.62 
	141.54,165.62 "/>
<polyline style="&sto3;"
	points="142.76,163.54 133.96,163.54 133.96,145.25 "/>
<polyline style="&sto3;"
	points="150.64,174.05 150.64,181.15 "/>
<polyline style="&sto3;"
	points="150.64,157.25 150.64,61.42 141.85,61.42 "/>
<text x="146.12" y="188.59"
	style="&stt1;">Q</text>
<text x="151.52" y="188.59"
	style="&stt1;">1</text>
<text x="101.66" y="6.79"
	style="&stt1;">D</text>
<text x="106.70" y="6.79"
	style="&stt1;">1</text>
<polyline style="&sto0;"
	points="158.64,157.51 142.64,157.51 150.64,169.51 158.64,157.51 
	158.64,157.51 "/>
<polyline style="&sto0;"
	points="89.85,101.06 89.85,49.25 61.86,49.25 61.86,101.06 
	89.85,101.06 89.85,101.06 "/>
<polyline style="&sto3;"
	points="117.96,92.45 125.96,92.45 "/>
<polyline style="&sto0;"
	points="61.85,17.08 45.85,17.08 53.85,29.08 61.85,17.08 
	61.85,17.08 "/>
<polyline style="&sto2;"
	points="53.85,17.08 53.85,9.25 "/>
<text x="64.40" y="63.67"
	style="&stt1;">D</text>
<text x="65.66" y="98.77"
	style="&stt1;">L</text>
<text x="69.62" y="98.77"
	style="&stt1;">E</text>
<text x="77.72" y="98.77"
	style="&stt1;">L</text>
<text x="81.50" y="98.77"
	style="&stt1;">E</text>
<text x="82.22" y="63.67"
	style="&stt1;">Q</text>
<polyline style="&sto3;"
	points="61.86,61.42 53.85,61.42 53.85,29.08 "/>
<polyline style="&sto3;"
	points="69.85,101.25 69.85,113.25 "/>
<polyline style="&sto3;"
	points="81.85,101.25 81.85,125.25 "/>
<text x="65.30" y="75.55"
	style="&stt1;">L</text>
<text x="69.26" y="75.55"
	style="&stt1;">A</text>
<text x="73.04" y="75.55"
	style="&stt1;">T</text>
<text x="77.36" y="75.55"
	style="&stt1;">C</text>
<text x="82.40" y="75.55"
	style="&stt1;">H</text>
<text x="87.44" y="75.55"
	style="&stt1;"> </text>
<text x="74.48" y="84.01"
	style="&stt1;">1</text>
<polyline style="&sto4;"
	points="89.42,165.62 93.05,163.54 89.42,161.47 89.42,165.62 
	89.42,165.62 "/>
<polyline style="&sto3;"
	points="90.65,163.54 81.85,163.54 81.85,145.25 "/>
<polyline style="&sto3;"
	points="97.84,174.05 97.84,181.15 "/>
<polyline style="&sto3;"
	points="97.96,157.25 97.96,61.42 89.74,61.42 "/>
<text x="93.20" y="188.59"
	style="&stt1;">Q</text>
<text x="98.78" y="188.59"
	style="&stt1;">0</text>
<text x="49.46" y="6.79"
	style="&stt1;">D</text>
<text x="54.50" y="6.79"
	style="&stt1;">0</text>
<polyline style="&sto0;"
	points="105.91,157.51 89.91,157.51 97.91,169.51 105.91,157.51 
	105.91,157.51 "/>
<polyline style="&sto3;"
	points="65.85,92.45 73.85,92.45 "/>
<text x="3.02" y="127.57"
	style="&stt1;">L</text>
<text x="6.80" y="127.57"
	style="&stt1;">E</text>
<text x="1.40" y="147.55"
	style="&stt1;">O</text>
<text x="6.80" y="147.55"
	style="&stt1;">E</text>
<polyline style="&sto3;"
	points="1.83,141.25 10.64,141.25 "/>
<polyline style="&sto3;"
	points="82.64,57.25 87.44,57.25 "/>
<polyline style="&sto3;"
	points="134.64,57.25 139.44,57.25 "/>
<polyline style="&sto3;"
	points="186.64,57.25 191.44,57.25 "/>
<polyline style="&sto3;"
	points="238.64,57.25 243.44,57.25 "/>
<polyline style="&sto3;"
	points="290.64,57.25 295.44,57.25 "/>
<polyline style="&sto3;"
	points="342.64,57.25 347.44,57.25 "/>
<polyline style="&sto3;"
	points="394.64,57.25 399.44,57.25 "/>
<polyline style="&sto3;"
	points="446.64,57.25 451.44,57.25 "/>
</svg>
