<?xml version="1.0" standalone="no"?>
<!-- Generated by Visual Integrity Suite v8.5 -->
<!DOCTYPE svg PUBLIC "-//W3C//DTD SVG 1.1//EN"
	"http://www.w3.org/Graphics/SVG/1.1/DTD/svg11.dtd" [
<!ENTITY sto0 "fill:none;  fill-rule:nonzero; stroke:#000000; stroke-width:1.08; stroke-linecap:butt; stroke-linejoin:miter">
<!ENTITY sto1 "fill:none;  fill-rule:nonzero; stroke:#000000; stroke-width:0.36; stroke-linecap:butt; stroke-linejoin:miter">
<!ENTITY sto2 "fill:#000000;  fill-rule:nonzero; stroke:#000000; stroke-width:0.36; stroke-linecap:butt; stroke-linejoin:miter">
<!ENTITY sto3 "fill:none;  fill-rule:nonzero; stroke:#000000; stroke-width:0.54; stroke-linecap:butt; stroke-linejoin:miter">
<!ENTITY stt0 "font-family:Arial; font-size:6.00px; font-style:italic; fill:#000000">
<!ENTITY stt1 "font-family:Arial; font-size:7.00px; fill:#000000">
<!ENTITY stt2 "font-family:Arial; font-size:6.00px; fill:#000000">
]>
<svg version="1.1" baseProfile="full" xmlns="http://www.w3.org/2000/svg" xmlns:xlink="http://www.w3.org/1999/xlink" xml:space="preserve" width="93.81mm" height="65.74mm" viewBox="0 0 265.93 186.35">
<text x="233.78" y="184.99"
	style="&stt0;">0</text>
<text x="237.20" y="184.99"
	style="&stt0;">0</text>
<text x="240.44" y="184.99"
	style="&stt0;">1</text>
<text x="243.86" y="184.99"
	style="&stt0;">a</text>
<text x="247.10" y="184.99"
	style="&stt0;">a</text>
<text x="250.52" y="184.99"
	style="&stt0;">e</text>
<text x="253.76" y="184.99"
	style="&stt0;">3</text>
<text x="257.18" y="184.99"
	style="&stt0;">0</text>
<text x="260.42" y="184.99"
	style="&stt0;">7</text>
<polyline style="&sto0;"
	points="60.88,37.53 78.21,37.53 88.13,4.48 184.39,4.48 
	194.31,37.53 255.54,37.53 "/>
<polyline style="&sto1;"
	points="187.70,21.01 191.42,21.01 "/>
<polyline style="&sto0;"
	points="60.42,95.37 121.59,95.37 "/>
<polyline style="&sto0;"
	points="60.42,120.41 129.86,120.41 "/>
<polyline style="&sto1;"
	points="85.24,21.01 81.11,21.01 "/>
<polyline style="&sto1;"
	points="126.55,91.66 121.59,91.66 "/>
<polyline style="&sto1;"
	points="83.17,12.04 83.17,111.32 "/>
<polyline style="&sto1;"
	points="124.07,47.62 124.07,97.03 "/>
<polyline style="&sto1;"
	points="134.82,124.13 129.86,124.13 "/>
<polyline style="&sto1;"
	points="216.07,78.54 220.62,78.54 "/>
<polyline style="&sto1;"
	points="189.35,11.09 189.35,111.32 "/>
<polyline style="&sto1;"
	points="226.42,106.78 226.42,168.34 "/>
<polyline style="&sto1;"
	points="218.44,86.09 218.44,48.28 "/>
<text x="97.52" y="51.07"
	style="&stt1;">t</text>
<text x="99.50" y="52.51"
	style="&stt2;">P</text>
<text x="103.46" y="52.51"
	style="&stt2;">L</text>
<text x="106.88" y="52.51"
	style="&stt2;">Z</text>
<text x="101.12" y="109.57"
	style="&stt1;">t</text>
<text x="103.10" y="111.01"
	style="&stt2;">P</text>
<text x="107.06" y="111.01"
	style="&stt2;">H</text>
<text x="111.38" y="111.01"
	style="&stt2;">Z</text>
<polyline style="&sto1;"
	points="120.59,49.29 113.15,49.29 "/>
<polyline style="&sto2;"
	points="118.57,48.07 123.48,49.29 118.57,50.51 118.57,48.07 
	118.57,48.07 "/>
<polyline style="&sto1;"
	points="86.82,49.53 94.67,49.53 "/>
<polyline style="&sto2;"
	points="88.83,50.76 83.92,49.53 88.83,48.31 88.83,50.76 
	88.83,50.76 "/>
<polyline style="&sto1;"
	points="129.95,108.56 117.14,108.56 "/>
<polyline style="&sto2;"
	points="126.69,107.34 131.60,108.56 126.69,109.79 126.69,107.34 
	126.69,107.34 "/>
<polyline style="&sto1;"
	points="85.33,108.56 98.55,108.56 "/>
<polyline style="&sto2;"
	points="88.99,109.79 84.09,108.56 88.99,107.34 88.99,109.79 
	88.99,109.79 "/>
<polyline style="&sto1;"
	points="222.86,108.47 217.23,108.47 "/>
<polyline style="&sto2;"
	points="220.84,107.24 225.75,108.47 220.84,109.69 220.84,107.24 
	220.84,107.24 "/>
<polyline style="&sto1;"
	points="193.50,108.47 198.65,108.47 "/>
<polyline style="&sto2;"
	points="195.11,109.69 190.20,108.47 195.11,107.24 195.11,109.69 
	195.11,109.69 "/>
<polyline style="&sto1;"
	points="222.67,167.45 195.21,167.45 "/>
<polyline style="&sto2;"
	points="220.31,166.23 225.22,167.45 220.31,168.67 220.31,166.23 
	220.31,166.23 "/>
<polyline style="&sto1;"
	points="133.25,167.45 163.13,167.45 "/>
<polyline style="&sto2;"
	points="138.16,168.67 133.25,167.45 138.16,166.23 138.16,168.67 
	138.16,168.67 "/>
<polyline style="&sto1;"
	points="222.33,49.53 230.18,49.53 "/>
<polyline style="&sto2;"
	points="224.35,50.76 219.44,49.53 224.35,48.31 224.35,50.76 
	224.35,50.76 "/>
<polyline style="&sto1;"
	points="185.80,49.53 177.13,49.53 "/>
<polyline style="&sto2;"
	points="183.37,48.31 188.28,49.53 183.37,50.76 183.37,48.31 
	183.37,48.31 "/>
<polyline style="&sto1;"
	points="132.34,107.18 132.34,168.34 "/>
<polyline style="&sto1;"
	points="131.43,167.45 119.45,167.45 "/>
<polyline style="&sto2;"
	points="126.53,166.23 131.43,167.45 126.53,168.67 126.53,166.23 
	126.53,166.23 "/>
<text x="167.18" y="166.45"
	style="&stt1;">o</text>
<text x="170.96" y="166.45"
	style="&stt1;">u</text>
<text x="174.92" y="166.45"
	style="&stt1;">t</text>
<text x="176.90" y="166.45"
	style="&stt1;">p</text>
<text x="180.86" y="166.45"
	style="&stt1;">u</text>
<text x="184.64" y="166.45"
	style="&stt1;">t</text>
<text x="186.62" y="166.45"
	style="&stt1;">s</text>
<text x="190.04" y="166.45"
	style="&stt1;"> </text>
<text x="165.74" y="174.01"
	style="&stt1;">d</text>
<text x="169.52" y="174.01"
	style="&stt1;">i</text>
<text x="171.14" y="174.01"
	style="&stt1;">s</text>
<text x="174.56" y="174.01"
	style="&stt1;">a</text>
<text x="178.52" y="174.01"
	style="&stt1;">b</text>
<text x="182.30" y="174.01"
	style="&stt1;">l</text>
<text x="183.74" y="174.01"
	style="&stt1;">e</text>
<text x="187.70" y="174.01"
	style="&stt1;">d</text>
<text x="239.54" y="166.45"
	style="&stt1;">o</text>
<text x="243.50" y="166.45"
	style="&stt1;">u</text>
<text x="247.28" y="166.45"
	style="&stt1;">t</text>
<text x="249.26" y="166.45"
	style="&stt1;">p</text>
<text x="253.22" y="166.45"
	style="&stt1;">u</text>
<text x="257.00" y="166.45"
	style="&stt1;">t</text>
<text x="258.98" y="166.45"
	style="&stt1;">s</text>
<text x="262.58" y="166.45"
	style="&stt1;"> </text>
<text x="239.54" y="174.01"
	style="&stt1;">e</text>
<text x="243.50" y="174.01"
	style="&stt1;">n</text>
<text x="247.28" y="174.01"
	style="&stt1;">a</text>
<text x="251.24" y="174.01"
	style="&stt1;">b</text>
<text x="255.02" y="174.01"
	style="&stt1;">l</text>
<text x="256.64" y="174.01"
	style="&stt1;">e</text>
<text x="260.42" y="174.01"
	style="&stt1;">d</text>
<polyline style="&sto1;"
	points="229.77,167.38 238.61,167.38 "/>
<polyline style="&sto2;"
	points="232.12,168.61 227.22,167.38 232.12,166.16 232.12,168.61 
	232.12,168.61 "/>
<text x="137.30" y="125.77"
	style="&stt1;">9</text>
<text x="141.26" y="125.77"
	style="&stt1;">0</text>
<text x="145.22" y="125.77"
	style="&stt1;">%</text>
<text x="128.48" y="94.09"
	style="&stt1;">1</text>
<text x="132.26" y="94.09"
	style="&stt1;">0</text>
<text x="136.22" y="94.09"
	style="&stt1;">%</text>
<text x="93.92" y="166.45"
	style="&stt1;">o</text>
<text x="97.70" y="166.45"
	style="&stt1;">u</text>
<text x="101.66" y="166.45"
	style="&stt1;">t</text>
<text x="103.64" y="166.45"
	style="&stt1;">p</text>
<text x="107.42" y="166.45"
	style="&stt1;">u</text>
<text x="111.38" y="166.45"
	style="&stt1;">t</text>
<text x="113.36" y="166.45"
	style="&stt1;">s</text>
<text x="116.78" y="166.45"
	style="&stt1;"> </text>
<text x="92.12" y="174.01"
	style="&stt1;">e</text>
<text x="95.90" y="174.01"
	style="&stt1;">n</text>
<text x="99.86" y="174.01"
	style="&stt1;">a</text>
<text x="103.82" y="174.01"
	style="&stt1;">b</text>
<text x="107.42" y="174.01"
	style="&stt1;">l</text>
<text x="109.04" y="174.01"
	style="&stt1;">e</text>
<text x="113.00" y="174.01"
	style="&stt1;">d</text>
<text x="14.18" y="73.93"
	style="&stt1;">o</text>
<text x="17.96" y="73.93"
	style="&stt1;">u</text>
<text x="21.92" y="73.93"
	style="&stt1;">t</text>
<text x="23.90" y="73.93"
	style="&stt1;">p</text>
<text x="27.68" y="73.93"
	style="&stt1;">u</text>
<text x="31.64" y="73.93"
	style="&stt1;">t</text>
<text x="33.62" y="73.93"
	style="&stt1;"> </text>
<text x="3.92" y="81.49"
	style="&stt1;">L</text>
<text x="7.70" y="81.49"
	style="&stt1;">O</text>
<text x="12.92" y="81.49"
	style="&stt1;">W</text>
<text x="19.40" y="81.49"
	style="&stt1;">-</text>
<text x="21.74" y="81.49"
	style="&stt1;">t</text>
<text x="23.54" y="81.49"
	style="&stt1;">o</text>
<text x="27.50" y="81.49"
	style="&stt1;">-</text>
<text x="29.84" y="81.49"
	style="&stt1;">O</text>
<text x="35.24" y="81.49"
	style="&stt1;">F</text>
<text x="39.56" y="81.49"
	style="&stt1;">F</text>
<text x="43.88" y="81.49"
	style="&stt1;"> </text>
<text x="3.74" y="89.05"
	style="&stt1;">O</text>
<text x="9.14" y="89.05"
	style="&stt1;">F</text>
<text x="13.46" y="89.05"
	style="&stt1;">F</text>
<text x="17.78" y="89.05"
	style="&stt1;">-</text>
<text x="20.12" y="89.05"
	style="&stt1;">t</text>
<text x="22.10" y="89.05"
	style="&stt1;">o</text>
<text x="25.88" y="89.05"
	style="&stt1;">-</text>
<text x="28.22" y="89.05"
	style="&stt1;">L</text>
<text x="32.18" y="89.05"
	style="&stt1;">O</text>
<text x="37.40" y="89.05"
	style="&stt1;">W</text>
<text x="12.56" y="132.07"
	style="&stt1;">o</text>
<text x="16.52" y="132.07"
	style="&stt1;">u</text>
<text x="20.48" y="132.07"
	style="&stt1;">t</text>
<text x="22.28" y="132.07"
	style="&stt1;">p</text>
<text x="26.24" y="132.07"
	style="&stt1;">u</text>
<text x="30.20" y="132.07"
	style="&stt1;">t</text>
<text x="32.18" y="132.07"
	style="&stt1;"> </text>
<text x="1.40" y="139.63"
	style="&stt1;">H</text>
<text x="6.44" y="139.63"
	style="&stt1;">I</text>
<text x="8.42" y="139.63"
	style="&stt1;">G</text>
<text x="13.82" y="139.63"
	style="&stt1;">H</text>
<text x="18.86" y="139.63"
	style="&stt1;">-</text>
<text x="21.20" y="139.63"
	style="&stt1;">t</text>
<text x="23.18" y="139.63"
	style="&stt1;">o</text>
<text x="26.96" y="139.63"
	style="&stt1;">-</text>
<text x="29.30" y="139.63"
	style="&stt1;">O</text>
<text x="34.88" y="139.63"
	style="&stt1;">F</text>
<text x="39.02" y="139.63"
	style="&stt1;">F</text>
<text x="43.34" y="139.63"
	style="&stt1;"> </text>
<text x="1.40" y="147.19"
	style="&stt1;">O</text>
<text x="6.80" y="147.19"
	style="&stt1;">F</text>
<text x="11.12" y="147.19"
	style="&stt1;">F</text>
<text x="15.44" y="147.19"
	style="&stt1;">-</text>
<text x="17.78" y="147.19"
	style="&stt1;">t</text>
<text x="19.58" y="147.19"
	style="&stt1;">o</text>
<text x="23.54" y="147.19"
	style="&stt1;">-</text>
<text x="25.88" y="147.19"
	style="&stt1;">H</text>
<text x="30.92" y="147.19"
	style="&stt1;">I</text>
<text x="32.90" y="147.19"
	style="&stt1;">G</text>
<text x="38.30" y="147.19"
	style="&stt1;">H</text>
<path style="&sto0;"
d="M 121.59 95.37 C 124.35 90.97 127.52 86.84 131.10 82.98 C 134.68 79.12 137.98 76.09 141.01 73.89
	 C 144.04 71.69 147.62 69.62 151.75 67.69 C 155.89 65.76 159.60 64.53 162.91 63.97 C 166.22 63.42 169.24 63.01 172.00 62.74
	 C 174.75 62.46 178.06 62.33 181.91 62.33 L 213.31 62.34 L 223.23 95.37
	 L 255.70 95.37"/>
<path style="&sto0;"
d="M 129.86 120.41 C 132.61 124.82 135.78 128.95 139.36 132.80 C 142.94 136.66 146.25 139.69 149.28 141.89
	 C 152.31 144.10 155.89 146.16 160.02 148.09 C 164.15 150.02 167.87 151.26 171.17 151.81 C 174.48 152.36 177.51 152.77 180.26 153.05
	 C 183.02 153.32 186.31 153.46 190.16 153.46 L 221.58 153.46 L 231.49 120.41
	 L 255.70 120.41"/>
<polyline style="&sto1;"
	points="60.46,4.47 86.49,4.47 "/>
<polyline style="&sto1;"
	points="60.45,62.29 168.08,62.29 "/>
<polyline style="&sto1;"
	points="60.74,153.46 172.92,153.46 "/>
<text x="13.64" y="22.81"
	style="&stt1;">O</text>
<text x="19.04" y="22.81"
	style="&stt1;">E</text>
<text x="23.72" y="22.81"
	style="&stt1;"> </text>
<text x="25.70" y="22.81"
	style="&stt1;">i</text>
<text x="27.32" y="22.81"
	style="&stt1;">n</text>
<text x="31.10" y="22.81"
	style="&stt1;">p</text>
<text x="35.06" y="22.81"
	style="&stt1;">u</text>
<text x="38.84" y="22.81"
	style="&stt1;">t</text>
<polyline style="&sto3;"
	points="14.10,15.84 23.85,15.84 "/>
<text x="50.90" y="6.79"
	style="&stt1;">V</text>
<text x="55.58" y="8.23"
	style="&stt2;">I</text>
<text x="44.24" y="98.23"
	style="&stt1;">V</text>
<text x="48.92" y="99.67"
	style="&stt2;">O</text>
<text x="53.60" y="99.67"
	style="&stt2;">L</text>
<text x="42.98" y="121.27"
	style="&stt1;">V</text>
<text x="47.66" y="122.53"
	style="&stt2;">O</text>
<text x="52.34" y="122.53"
	style="&stt2;">H</text>
<text x="43.88" y="63.31"
	style="&stt1;">V</text>
<text x="48.56" y="64.75"
	style="&stt2;">C</text>
<text x="52.88" y="64.75"
	style="&stt2;">C</text>
<text x="86.72" y="23.71"
	style="&stt1;">V</text>
<text x="91.40" y="25.15"
	style="&stt2;">M</text>
<text x="42.08" y="40.45"
	style="&stt1;">G</text>
<text x="47.48" y="40.45"
	style="&stt1;">N</text>
<text x="52.52" y="40.45"
	style="&stt1;">D</text>
<text x="42.08" y="156.37"
	style="&stt1;">G</text>
<text x="47.48" y="156.37"
	style="&stt1;">N</text>
<text x="52.52" y="156.37"
	style="&stt1;">D</text>
<text x="198.14" y="51.25"
	style="&stt1;">t</text>
<text x="200.12" y="52.51"
	style="&stt2;">P</text>
<text x="204.08" y="52.51"
	style="&stt2;">Z</text>
<text x="207.68" y="52.51"
	style="&stt2;">L</text>
<text x="200.84" y="109.57"
	style="&stt1;">t</text>
<text x="202.82" y="111.01"
	style="&stt2;">P</text>
<text x="206.78" y="111.01"
	style="&stt2;">Z</text>
<text x="210.56" y="111.01"
	style="&stt2;">H</text>
<text x="222.44" y="80.41"
	style="&stt1;">V</text>
<text x="227.12" y="81.85"
	style="&stt2;">M</text>
<polyline style="&sto1;"
	points="224.39,136.73 228.93,136.73 "/>
<text x="230.72" y="138.55"
	style="&stt1;">V</text>
<text x="235.40" y="139.99"
	style="&stt2;">M</text>
</svg>
