<?xml version="1.0" standalone="no"?>
<!-- Generated by Visual Integrity Suite v8.5 -->
<!DOCTYPE svg PUBLIC "-//W3C//DTD SVG 1.1//EN"
	"http://www.w3.org/Graphics/SVG/1.1/DTD/svg11.dtd" [
<!ENTITY sto0 "fill:none;  fill-rule:nonzero; stroke:#000000; stroke-width:1.08; stroke-linecap:butt; stroke-linejoin:miter">
<!ENTITY sto1 "fill:none;  fill-rule:nonzero; stroke:#000000; stroke-width:0.36; stroke-linecap:butt; stroke-linejoin:miter">
<!ENTITY sto2 "fill:#CCCCCC;  fill-rule:nonzero; stroke:none; stroke-width:0.36; stroke-linecap:butt; stroke-linejoin:miter">
<!ENTITY sto3 "fill:none;  fill-rule:nonzero; stroke:#000000; stroke-width:0.36; stroke-linecap:square; stroke-linejoin:miter">
<!ENTITY sto4 "fill:#000000;  fill-rule:nonzero; stroke:none; stroke-width:0.36; stroke-linecap:square; stroke-linejoin:miter">
<!ENTITY stt0 "font-family:Arial; font-size:6.00px; font-style:italic; fill:#000000">
<!ENTITY stt1 "font-family:Arial; font-size:7.00px; fill:#000000">
<!ENTITY stt2 "font-family:Arial; font-size:6.00px; fill:#000000">
]>
<svg version="1.1" baseProfile="full" xmlns="http://www.w3.org/2000/svg" xmlns:xlink="http://www.w3.org/1999/xlink" xml:space="preserve" width="80.77mm" height="39.53mm" viewBox="0 0 228.96 112.06">
<text x="197.78" y="110.70"
	style="&stt0;">0</text>
<text x="201.20" y="110.70"
	style="&stt0;">0</text>
<text x="204.44" y="110.70"
	style="&stt0;">1</text>
<text x="207.86" y="110.70"
	style="&stt0;">a</text>
<text x="211.10" y="110.70"
	style="&stt0;">a</text>
<text x="214.52" y="110.70"
	style="&stt0;">e</text>
<text x="217.76" y="110.70"
	style="&stt0;">0</text>
<text x="221.18" y="110.70"
	style="&stt0;">8</text>
<text x="224.42" y="110.70"
	style="&stt0;">4</text>
<polyline style="&sto0;"
	points="34.94,0.54 93.34,0.54 102.94,32.54 130.14,32.54 
	139.74,0.54 191.74,0.54 201.34,32.54 228.14,32.54 "/>
<polyline style="&sto1;"
	points="100.54,16.54 95.74,16.54 "/>
<polyline style="&sto1;"
	points="137.34,16.54 132.54,16.54 "/>
<polyline style="&sto1;"
	points="196.54,11.54 196.54,56.15 "/>
<polyline style="&sto1;"
	points="198.94,16.54 194.14,16.54 "/>
<text x="102.02" y="18.54"
	style="&stt1;">V</text>
<text x="106.70" y="19.98"
	style="&stt2;">M</text>
<polyline style="&sto1;"
	points="198.94,16.54 194.14,16.54 "/>
<text x="1.58" y="18.90"
	style="&stt1;">L</text>
<text x="5.54" y="18.90"
	style="&stt1;">E</text>
<text x="10.22" y="18.90"
	style="&stt1;"> </text>
<text x="12.20" y="18.90"
	style="&stt1;">i</text>
<text x="13.64" y="18.90"
	style="&stt1;">n</text>
<text x="17.60" y="18.90"
	style="&stt1;">p</text>
<text x="21.56" y="18.90"
	style="&stt1;">u</text>
<text x="25.34" y="18.90"
	style="&stt1;">t</text>
<polyline style="&sto2;"
	points="34.94,68.47 58.14,68.47 67.74,100.47 34.94,100.47 
	34.94,68.47 34.94,68.47 "/>
<polyline style="&sto2;"
	points="228.14,68.47 201.34,68.47 210.94,100.47 228.14,100.47 
	228.14,68.47 228.14,68.47 "/>
<polyline style="&sto2;"
	points="112.54,68.47 166.14,68.47 156.54,100.47 102.94,100.47 
	112.54,68.47 112.54,68.47 "/>
<polyline style="&sto0;"
	points="201.34,68.46 210.94,100.47 228.14,100.47 "/>
<polyline style="&sto0;"
	points="102.94,100.46 112.54,68.46 228.14,68.46 "/>
<polyline style="&sto0;"
	points="34.94,100.46 156.54,100.46 166.14,68.47 "/>
<polyline style="&sto0;"
	points="34.94,68.46 58.34,68.46 67.74,100.46 "/>
<polyline style="&sto1;"
	points="65.54,84.47 60.74,84.47 "/>
<text x="1.40" y="86.76"
	style="&stt1;">D</text>
<text x="6.44" y="86.76"
	style="&stt1;">n</text>
<text x="10.40" y="86.76"
	style="&stt1;"> </text>
<text x="12.38" y="86.76"
	style="&stt1;">i</text>
<text x="13.82" y="86.76"
	style="&stt1;">n</text>
<text x="17.78" y="86.76"
	style="&stt1;">p</text>
<text x="21.74" y="86.76"
	style="&stt1;">u</text>
<text x="25.52" y="86.76"
	style="&stt1;">t</text>
<text x="67.10" y="86.58"
	style="&stt1;">V</text>
<text x="71.78" y="88.02"
	style="&stt2;">M</text>
<polyline style="&sto1;"
	points="208.54,84.47 203.74,84.47 "/>
<polyline style="&sto1;"
	points="163.74,84.47 158.94,84.47 "/>
<polyline style="&sto3;"
	points="188.54,54.56 193.34,54.56 "/>
<polyline style="&sto4;"
	points="192.54,53.33 196.54,54.56 192.54,55.73 192.54,53.33 
	192.54,53.33 "/>
<polyline style="&sto3;"
	points="214.14,54.56 209.34,54.56 "/>
<polyline style="&sto4;"
	points="210.14,53.33 206.14,54.56 210.14,55.73 210.14,53.33 
	210.14,53.33 "/>
<polyline style="&sto3;"
	points="184.54,44.96 193.34,44.96 "/>
<polyline style="&sto4;"
	points="192.54,43.73 196.54,44.96 192.54,46.13 192.54,43.73 
	192.54,43.73 "/>
<polyline style="&sto3;"
	points="173.34,44.96 164.54,44.96 "/>
<polyline style="&sto4;"
	points="165.34,43.73 161.34,44.96 165.34,46.13 165.34,43.73 
	165.34,43.73 "/>
<text x="198.32" y="56.34"
	style="&stt1;">t</text>
<text x="200.84" y="57.60"
	style="&stt2;">h</text>
<text x="174.56" y="46.44"
	style="&stt1;">t</text>
<text x="177.08" y="47.88"
	style="&stt2;">s</text>
<text x="180.14" y="47.88"
	style="&stt2;">u</text>
<polyline style="&sto1;"
	points="206.14,52.96 206.14,89.47 "/>
<polyline style="&sto1;"
	points="161.34,43.56 161.34,89.47 "/>
<polyline style="&sto1;"
	points="98.14,11.54 98.14,56.35 "/>
<polyline style="&sto1;"
	points="110.14,84.47 105.34,84.47 "/>
<polyline style="&sto3;"
	points="90.13,54.56 94.94,54.56 "/>
<polyline style="&sto4;"
	points="94.14,53.33 98.14,54.56 94.14,55.73 94.14,53.33 
	94.14,53.33 "/>
<polyline style="&sto3;"
	points="115.74,54.56 110.94,54.56 "/>
<polyline style="&sto4;"
	points="111.74,53.33 107.74,54.56 111.74,55.73 111.74,53.33 
	111.74,53.33 "/>
<polyline style="&sto3;"
	points="86.14,44.96 94.94,44.96 "/>
<polyline style="&sto4;"
	points="94.14,43.73 98.14,44.96 94.14,46.13 94.14,43.73 
	94.14,43.73 "/>
<polyline style="&sto3;"
	points="74.94,44.96 66.14,44.96 "/>
<polyline style="&sto4;"
	points="66.94,43.73 62.94,44.96 66.94,46.13 66.94,43.73 
	66.94,43.73 "/>
<text x="99.86" y="56.34"
	style="&stt1;">t</text>
<text x="102.38" y="57.60"
	style="&stt2;">h</text>
<text x="76.28" y="46.62"
	style="&stt1;">t</text>
<text x="78.80" y="48.06"
	style="&stt2;">s</text>
<text x="81.68" y="48.06"
	style="&stt2;">u</text>
<polyline style="&sto1;"
	points="107.73,52.96 107.73,89.47 "/>
<polyline style="&sto1;"
	points="62.94,43.36 62.94,89.47 "/>
</svg>
