<?xml version="1.0" standalone="no"?>
<!-- Generated by Visual Integrity Suite v8.5 -->
<!DOCTYPE svg PUBLIC "-//W3C//DTD SVG 1.1//EN"
	"http://www.w3.org/Graphics/SVG/1.1/DTD/svg11.dtd" [
<!ENTITY sto0 "fill:none;  fill-rule:nonzero; stroke:#000000; stroke-width:0.36; stroke-linecap:square; stroke-linejoin:miter">
<!ENTITY sto1 "fill:#000000;  fill-rule:nonzero; stroke:none; stroke-width:0.36; stroke-linecap:square; stroke-linejoin:miter">
<!ENTITY sto2 "fill:none;  fill-rule:nonzero; stroke:#000000; stroke-width:0.36; stroke-linecap:butt; stroke-linejoin:miter">
<!ENTITY sto3 "fill:none;  fill-rule:nonzero; stroke:#000000; stroke-width:1.08; stroke-linecap:butt; stroke-linejoin:miter">
<!ENTITY stt0 "font-family:Arial; font-size:7.00px; fill:#000000">
<!ENTITY stt1 "font-family:Arial; font-size:6.00px; fill:#000000">
<!ENTITY stt2 "font-family:Arial; font-size:6.00px; font-style:italic; fill:#000000">
]>
<svg version="1.1" baseProfile="full" xmlns="http://www.w3.org/2000/svg" xmlns:xlink="http://www.w3.org/1999/xlink" xml:space="preserve" width="80.07mm" height="42.74mm" viewBox="0 0 226.98 121.16">
<text x="67.28" y="18.83"
	style="&stt0;">V</text>
<text x="71.96" y="20.09"
	style="&stt1;">M</text>
<text x="103.28" y="87.05"
	style="&stt0;">V</text>
<text x="107.96" y="88.49"
	style="&stt1;">M</text>
<polyline style="&sto0;"
	points="146.06,56.54 153.26,56.54 "/>
<polyline style="&sto1;"
	points="152.46,55.32 156.46,56.54 152.46,57.72 152.46,55.32 
	152.46,55.32 "/>
<polyline style="&sto0;"
	points="196.30,56.54 189.10,56.54 "/>
<polyline style="&sto1;"
	points="189.90,55.32 185.90,56.54 189.90,57.72 189.90,55.32 
	189.90,55.32 "/>
<text x="164.48" y="58.43"
	style="&stt0;">t</text>
<text x="167.00" y="59.87"
	style="&stt1;">P</text>
<text x="170.96" y="59.87"
	style="&stt1;">L</text>
<text x="174.38" y="59.87"
	style="&stt1;">H</text>
<polyline style="&sto0;"
	points="86.87,56.54 93.57,56.54 "/>
<polyline style="&sto1;"
	points="92.78,55.32 96.78,56.54 92.78,57.72 92.78,55.32 
	92.78,55.32 "/>
<polyline style="&sto0;"
	points="71.67,56.54 63.96,56.54 "/>
<polyline style="&sto1;"
	points="64.76,55.32 60.76,56.54 64.76,57.72 64.76,55.32 
	64.76,55.32 "/>
<text x="72.68" y="58.43"
	style="&stt0;">t</text>
<text x="75.20" y="59.87"
	style="&stt1;">P</text>
<text x="79.16" y="59.87"
	style="&stt1;">H</text>
<text x="83.48" y="59.87"
	style="&stt1;">L</text>
<polyline style="&sto0;"
	points="91.87,44.54 105.26,44.54 "/>
<polyline style="&sto1;"
	points="104.47,43.32 108.47,44.54 104.47,45.72 104.47,43.32 
	104.47,43.32 "/>
<polyline style="&sto0;"
	points="78.87,44.54 64.31,44.54 "/>
<polyline style="&sto1;"
	points="65.11,43.32 61.11,44.54 65.11,45.72 65.11,43.32 
	65.11,43.32 "/>
<text x="81.32" y="46.37"
	style="&stt0;">t</text>
<text x="83.84" y="47.81"
	style="&stt1;">W</text>
<polyline style="&sto2;"
	points="64.01,16.54 57.61,16.54 "/>
<polyline style="&sto2;"
	points="60.73,12.45 60.73,58.65 "/>
<polyline style="&sto3;"
	points="34.78,68.54 87.94,68.54 106.07,100.54 176.94,100.54 
	195.06,68.54 225.86,68.54 "/>
<polyline style="&sto2;"
	points="100.42,84.72 94.02,84.72 "/>
<polyline style="&sto2;"
	points="185.80,54.74 185.80,90.45 "/>
<polyline style="&sto2;"
	points="189.59,84.72 182.39,84.72 "/>
<polyline style="&sto2;"
	points="97.02,54.34 97.02,90.45 "/>
<polyline style="&sto3;"
	points="34.78,32.54 51.66,32.54 69.79,0.54 100.47,0.54 
	116.83,32.54 147.66,32.54 165.69,0.54 195.14,0.54 
	213.27,32.54 225.86,32.54 "/>
<polyline style="&sto2;"
	points="112.16,16.54 105.76,16.54 "/>
<polyline style="&sto2;"
	points="108.74,12.22 108.74,47.48 "/>
<polyline style="&sto2;"
	points="160.19,16.54 153.80,16.54 "/>
<polyline style="&sto2;"
	points="156.79,12.17 156.79,58.40 "/>
<text x="6.44" y="18.83"
	style="&stt0;">L</text>
<text x="10.40" y="18.83"
	style="&stt0;">E</text>
<text x="15.08" y="18.83"
	style="&stt0;"> </text>
<text x="17.06" y="18.83"
	style="&stt0;">i</text>
<text x="18.50" y="18.83"
	style="&stt0;">n</text>
<text x="22.46" y="18.83"
	style="&stt0;">p</text>
<text x="26.42" y="18.83"
	style="&stt0;">u</text>
<text x="30.20" y="18.83"
	style="&stt0;">t</text>
<text x="1.40" y="87.23"
	style="&stt0;">Q</text>
<text x="6.80" y="87.23"
	style="&stt0;">n</text>
<text x="10.76" y="87.23"
	style="&stt0;"> </text>
<text x="12.74" y="87.23"
	style="&stt0;">o</text>
<text x="16.70" y="87.23"
	style="&stt0;">u</text>
<text x="20.48" y="87.23"
	style="&stt0;">t</text>
<text x="22.46" y="87.23"
	style="&stt0;">p</text>
<text x="26.42" y="87.23"
	style="&stt0;">u</text>
<text x="30.20" y="87.23"
	style="&stt0;">t</text>
<text x="195.80" y="119.81"
	style="&stt2;">0</text>
<text x="199.04" y="119.81"
	style="&stt2;">0</text>
<text x="202.46" y="119.81"
	style="&stt2;">1</text>
<text x="205.70" y="119.81"
	style="&stt2;">a</text>
<text x="209.12" y="119.81"
	style="&stt2;">a</text>
<text x="212.36" y="119.81"
	style="&stt2;">e</text>
<text x="215.78" y="119.81"
	style="&stt2;">0</text>
<text x="219.02" y="119.81"
	style="&stt2;">8</text>
<text x="222.44" y="119.81"
	style="&stt2;">3</text>
<polyline style="&sto0;"
	points="203.37,109.66 195.78,109.66 "/>
<polyline style="&sto1;"
	points="196.58,110.89 192.58,109.66 196.58,108.49 196.58,110.89 
	196.58,110.89 "/>
<polyline style="&sto0;"
	points="168.34,109.66 175.93,109.66 "/>
<polyline style="&sto1;"
	points="175.13,108.43 179.13,109.66 175.13,110.83 175.13,108.43 
	175.13,108.43 "/>
<text x="152.96" y="111.17"
	style="&stt0;">t</text>
<text x="155.48" y="112.61"
	style="&stt1;">T</text>
<text x="159.26" y="112.61"
	style="&stt1;">L</text>
<text x="162.50" y="112.61"
	style="&stt1;">H</text>
<polyline style="&sto2;"
	points="189.03,73.35 196.41,73.35 "/>
<polyline style="&sto2;"
	points="192.38,67.75 192.38,111.46 "/>
<polyline style="&sto0;"
	points="79.67,109.66 87.27,109.66 "/>
<polyline style="&sto1;"
	points="86.47,108.43 90.47,109.66 86.47,110.83 86.47,108.43 
	86.47,108.43 "/>
<polyline style="&sto0;"
	points="114.67,109.66 107.07,109.66 "/>
<polyline style="&sto1;"
	points="107.87,110.89 103.87,109.66 107.87,108.49 107.87,110.89 
	107.87,110.89 "/>
<text x="64.40" y="111.17"
	style="&stt0;">t</text>
<text x="66.92" y="112.61"
	style="&stt1;">T</text>
<text x="70.52" y="112.61"
	style="&stt1;">H</text>
<text x="74.84" y="112.61"
	style="&stt1;">L</text>
<polyline style="&sto2;"
	points="87.32,73.35 94.70,73.35 "/>
<polyline style="&sto2;"
	points="100.32,96.35 107.70,96.35 "/>
<polyline style="&sto2;"
	points="90.67,67.75 90.67,111.46 "/>
<polyline style="&sto2;"
	points="103.67,90.75 103.67,111.46 "/>
<polyline style="&sto2;"
	points="175.99,96.35 183.36,96.35 "/>
<polyline style="&sto2;"
	points="179.33,90.75 179.33,111.46 "/>
<text x="69.98" y="75.71"
	style="&stt0;">9</text>
<text x="73.76" y="75.71"
	style="&stt0;">0</text>
<text x="77.72" y="75.71"
	style="&stt0;"> </text>
<text x="79.70" y="75.71"
	style="&stt0;">%</text>
<text x="108.14" y="98.03"
	style="&stt0;">1</text>
<text x="111.92" y="98.03"
	style="&stt0;">0</text>
<text x="115.88" y="98.03"
	style="&stt0;"> </text>
<text x="117.86" y="98.03"
	style="&stt0;">%</text>
</svg>
