<?xml version="1.0" standalone="no"?>
<!-- Generated by Visual Integrity Suite v8.5 -->
<!DOCTYPE svg PUBLIC "-//W3C//DTD SVG 1.1//EN"
	"http://www.w3.org/Graphics/SVG/1.1/DTD/svg11.dtd" [
<!ENTITY sto0 "fill:none;  fill-rule:nonzero; stroke:#000000; stroke-width:0.36; stroke-linecap:butt; stroke-linejoin:miter">
<!ENTITY sto1 "fill:none;  fill-rule:nonzero; stroke:#000000; stroke-width:0.72; stroke-linecap:butt; stroke-linejoin:miter">
<!ENTITY sto2 "fill:#000000;  fill-rule:nonzero; stroke:#000000; stroke-width:0.36; stroke-linecap:butt; stroke-linejoin:miter">
<!ENTITY sto3 "fill:none;  fill-rule:nonzero; stroke:#000000; stroke-width:0.54; stroke-linecap:butt; stroke-linejoin:miter">
<!ENTITY sto4 "fill:none;  fill-rule:nonzero; stroke:#000000; stroke-width:0.54; stroke-linecap:square; stroke-linejoin:miter">
<!ENTITY sto5 "fill:none;  fill-rule:nonzero; stroke:#000000; stroke-width:0.36; stroke-linecap:square; stroke-linejoin:miter">
<!ENTITY stt0 "font-family:Arial; font-size:6.84px; font-weight:bold; fill:#000000">
<!ENTITY stt1 "font-family:Arial; font-size:5.70px; font-weight:bold; fill:#000000">
<!ENTITY stt2 "font-family:Arial; font-size:6.84px; fill:#000000">
<!ENTITY stt3 "font-family:Arial; font-size:6.84px; fill:#000000">
<!ENTITY stt4 "font-family:Arial; font-size:5.13px; fill:#000000">
<!ENTITY stt5 "font-family:Arial; font-size:5.70px; fill:#000000">
<!ENTITY stt6 "font-family:Arial; font-size:7.52px; fill:#000000">
<!ENTITY stt7 "font-family:Arial; font-size:9.12px; font-weight:bold; fill:#000000">
]>
<svg version="1.1" baseProfile="full" xmlns="http://www.w3.org/2000/svg" xmlns:xlink="http://www.w3.org/1999/xlink" xml:space="preserve" width="170.46mm" height="206.15mm" viewBox="0 0 483.18 584.35">
<polyline style="&sto0;"
	points="337.21,528.71 337.21,573.89 "/>
<polyline style="&sto0;"
	points="467.50,573.88 467.50,528.64 11.50,528.64 11.50,573.88 
	467.50,573.88 467.50,573.88 "/>
<polyline style="&sto0;"
	points="11.50,554.51 467.50,554.51 "/>
<polyline style="&sto0;"
	points="76.65,528.71 76.65,573.89 "/>
<polyline style="&sto0;"
	points="141.79,541.54 141.79,573.89 "/>
<polyline style="&sto0;"
	points="206.93,541.54 206.93,573.89 "/>
<polyline style="&sto0;"
	points="272.07,541.54 272.07,573.89 "/>
<polyline style="&sto0;"
	points="402.36,528.71 402.36,573.89 "/>
<polyline style="&sto0;"
	points="76.70,541.54 336.97,541.54 "/>
<polyline style="&sto0;"
	points="467.52,492.96 467.52,452.05 11.50,452.05 11.50,492.96 
	467.52,492.96 467.52,492.96 "/>
<polyline style="&sto0;"
	points="11.58,472.43 467.47,472.43 "/>
<polyline style="&sto0;"
	points="38.15,452.05 38.15,492.95 "/>
<polyline style="&sto0;"
	points="62.00,452.05 62.00,492.95 "/>
<polyline style="&sto0;"
	points="85.86,452.05 85.86,492.95 "/>
<polyline style="&sto0;"
	points="109.71,452.05 109.71,492.95 "/>
<polyline style="&sto0;"
	points="133.56,452.05 133.56,492.95 "/>
<polyline style="&sto0;"
	points="157.42,452.05 157.42,492.95 "/>
<polyline style="&sto0;"
	points="181.27,451.91 181.27,492.95 "/>
<polyline style="&sto0;"
	points="205.12,452.05 205.12,492.95 "/>
<polyline style="&sto0;"
	points="228.97,452.05 228.97,492.95 "/>
<polyline style="&sto0;"
	points="252.83,452.05 252.83,492.95 "/>
<polyline style="&sto0;"
	points="276.68,452.05 276.68,492.95 "/>
<polyline style="&sto0;"
	points="300.53,452.05 300.53,492.95 "/>
<polyline style="&sto0;"
	points="324.39,452.05 324.39,492.95 "/>
<polyline style="&sto0;"
	points="348.24,452.05 348.24,492.95 "/>
<polyline style="&sto0;"
	points="372.09,452.05 372.09,492.95 "/>
<polyline style="&sto0;"
	points="395.95,451.91 395.95,492.95 "/>
<polyline style="&sto0;"
	points="419.80,452.05 419.80,492.95 "/>
<polyline style="&sto0;"
	points="443.65,452.05 443.65,492.95 "/>
<text x="16.94" y="464.72"
	style="&stt0;">U</text>
<text x="21.80" y="464.72"
	style="&stt0;">N</text>
<text x="26.66" y="464.72"
	style="&stt0;">I</text>
<text x="28.64" y="464.72"
	style="&stt0;">T</text>
<text x="32.78" y="464.72"
	style="&stt0;"> </text>
<text x="69.32" y="464.72"
	style="&stt0;">A</text>
<text x="74.18" y="464.72"
	style="&stt0;"> </text>
<text x="74.54" y="466.16"
	style="&stt1;">1</text>
<text x="77.78" y="466.16"
	style="&stt1;"> </text>
<text x="93.08" y="464.72"
	style="&stt0;">A</text>
<text x="98.12" y="464.72"
	style="&stt0;"> </text>
<text x="98.48" y="466.16"
	style="&stt1;">2</text>
<text x="101.54" y="466.16"
	style="&stt1;"> </text>
<text x="116.84" y="464.72"
	style="&stt0;">A</text>
<text x="121.88" y="464.72"
	style="&stt0;"> </text>
<text x="122.24" y="466.16"
	style="&stt1;">3</text>
<text x="125.48" y="466.16"
	style="&stt1;"> </text>
<text x="141.68" y="464.72"
	style="&stt0;">b</text>
<text x="145.82" y="464.72"
	style="&stt0;"> </text>
<text x="146.00" y="466.16"
	style="&stt1;">p</text>
<text x="149.60" y="466.16"
	style="&stt1;"> </text>
<text x="167.60" y="464.72"
	style="&stt0;">c</text>
<text x="171.38" y="464.72"
	style="&stt0;"> </text>
<text x="187.76" y="464.72"
	style="&stt0;">D</text>
<text x="192.80" y="464.72"
	style="&stt0;"> </text>
<text x="193.88" y="462.02"
	style="&stt1;">(</text>
<text x="195.68" y="462.02"
	style="&stt1;">1</text>
<text x="198.92" y="462.02"
	style="&stt1;">)</text>
<text x="200.72" y="462.02"
	style="&stt1;"> </text>
<text x="211.88" y="464.72"
	style="&stt0;">E</text>
<text x="216.38" y="464.72"
	style="&stt0;"> </text>
<text x="217.64" y="462.02"
	style="&stt1;">(</text>
<text x="219.62" y="462.02"
	style="&stt1;">2</text>
<text x="222.68" y="462.02"
	style="&stt1;">)</text>
<text x="224.66" y="462.02"
	style="&stt1;"> </text>
<text x="432.56" y="462.02"
	style="&stt1;">(</text>
<text x="434.54" y="462.02"
	style="&stt1;">1</text>
<text x="437.60" y="462.02"
	style="&stt1;">)</text>
<text x="439.58" y="462.02"
	style="&stt1;"> </text>
<text x="238.88" y="464.72"
	style="&stt0;">e</text>
<text x="242.66" y="464.72"
	style="&stt0;"> </text>
<text x="259.94" y="464.72"
	style="&stt0;">H</text>
<text x="264.98" y="464.72"
	style="&stt0;"> </text>
<text x="264.98" y="466.16"
	style="&stt1;">E</text>
<text x="268.76" y="466.16"
	style="&stt1;"> </text>
<text x="286.40" y="464.72"
	style="&stt0;">L</text>
<text x="290.72" y="464.72"
	style="&stt0;"> </text>
<text x="308.36" y="464.72"
	style="&stt0;">L</text>
<text x="312.68" y="464.72"
	style="&stt0;"> </text>
<text x="313.04" y="466.16"
	style="&stt1;">p</text>
<text x="316.46" y="466.16"
	style="&stt1;"> </text>
<text x="333.56" y="464.72"
	style="&stt0;">Q</text>
<text x="338.96" y="464.72"
	style="&stt0;"> </text>
<text x="426.98" y="464.72"
	style="&stt0;">Z</text>
<text x="431.12" y="464.72"
	style="&stt0;"> </text>
<text x="405.92" y="464.72"
	style="&stt0;">y</text>
<text x="409.70" y="464.72"
	style="&stt0;"> </text>
<text x="381.26" y="464.72"
	style="&stt0;">w</text>
<text x="386.66" y="464.72"
	style="&stt0;"> </text>
<text x="358.22" y="464.72"
	style="&stt0;">v</text>
<text x="362.00" y="464.72"
	style="&stt0;"> </text>
<text x="453.80" y="464.72"
	style="&stt2;">&#952;</text>
<text x="457.22" y="464.72"
	style="&stt2;"> </text>
<text x="182.72" y="537.80"
	style="&stt0;"> </text>
<text x="184.70" y="537.80"
	style="&stt0;">R</text>
<text x="189.56" y="537.80"
	style="&stt0;">E</text>
<text x="194.24" y="537.80"
	style="&stt0;">F</text>
<text x="198.38" y="537.80"
	style="&stt0;">E</text>
<text x="202.88" y="537.80"
	style="&stt0;">R</text>
<text x="207.92" y="537.80"
	style="&stt0;">E</text>
<text x="212.42" y="537.80"
	style="&stt0;">N</text>
<text x="217.28" y="537.80"
	style="&stt0;">C</text>
<text x="222.32" y="537.80"
	style="&stt0;">E</text>
<text x="226.82" y="537.80"
	style="&stt0;">S</text>
<text x="231.32" y="537.80"
	style="&stt0;"> </text>
<text x="29.18" y="539.78"
	style="&stt0;">O</text>
<text x="34.58" y="539.78"
	style="&stt0;">U</text>
<text x="39.44" y="539.78"
	style="&stt0;">T</text>
<text x="43.58" y="539.78"
	style="&stt0;">L</text>
<text x="47.90" y="539.78"
	style="&stt0;">I</text>
<text x="49.70" y="539.78"
	style="&stt0;">N</text>
<text x="54.74" y="539.78"
	style="&stt0;">E</text>
<text x="59.24" y="539.78"
	style="&stt0;"> </text>
<text x="28.82" y="548.06"
	style="&stt0;">V</text>
<text x="33.32" y="548.06"
	style="&stt0;">E</text>
<text x="38.00" y="548.06"
	style="&stt0;">R</text>
<text x="42.86" y="548.06"
	style="&stt0;">S</text>
<text x="47.54" y="548.06"
	style="&stt0;">I</text>
<text x="49.34" y="548.06"
	style="&stt0;">O</text>
<text x="54.74" y="548.06"
	style="&stt0;">N</text>
<text x="59.60" y="548.06"
	style="&stt0;"> </text>
<text x="350.48" y="539.78"
	style="&stt0;">E</text>
<text x="354.98" y="539.78"
	style="&stt0;">U</text>
<text x="359.84" y="539.78"
	style="&stt0;">R</text>
<text x="364.88" y="539.78"
	style="&stt0;">O</text>
<text x="370.10" y="539.78"
	style="&stt0;">P</text>
<text x="374.78" y="539.78"
	style="&stt0;">E</text>
<text x="379.28" y="539.78"
	style="&stt0;">A</text>
<text x="384.32" y="539.78"
	style="&stt0;">N</text>
<text x="389.18" y="539.78"
	style="&stt0;"> </text>
<text x="347.60" y="548.06"
	style="&stt0;">P</text>
<text x="352.10" y="548.06"
	style="&stt0;">R</text>
<text x="357.14" y="548.06"
	style="&stt0;">O</text>
<text x="362.36" y="548.06"
	style="&stt0;">J</text>
<text x="366.14" y="548.06"
	style="&stt0;">E</text>
<text x="370.82" y="548.06"
	style="&stt0;">C</text>
<text x="375.68" y="548.06"
	style="&stt0;">T</text>
<text x="379.82" y="548.06"
	style="&stt0;">I</text>
<text x="381.80" y="548.06"
	style="&stt0;">O</text>
<text x="387.02" y="548.06"
	style="&stt0;">N</text>
<text x="392.06" y="548.06"
	style="&stt0;"> </text>
<text x="414.56" y="544.10"
	style="&stt0;">I</text>
<text x="416.36" y="544.10"
	style="&stt0;">S</text>
<text x="421.04" y="544.10"
	style="&stt0;">S</text>
<text x="425.54" y="544.10"
	style="&stt0;">U</text>
<text x="430.58" y="544.10"
	style="&stt0;">E</text>
<text x="435.08" y="544.10"
	style="&stt0;"> </text>
<text x="436.88" y="544.10"
	style="&stt0;">D</text>
<text x="441.92" y="544.10"
	style="&stt0;">A</text>
<text x="446.78" y="544.10"
	style="&stt0;">T</text>
<text x="451.10" y="544.10"
	style="&stt0;">E</text>
<text x="455.60" y="544.10"
	style="&stt0;"> </text>
<text x="102.62" y="550.76"
	style="&stt0;"> </text>
<text x="104.60" y="550.76"
	style="&stt0;">I</text>
<text x="106.58" y="550.76"
	style="&stt0;">E</text>
<text x="111.08" y="550.76"
	style="&stt0;">C</text>
<text x="115.94" y="550.76"
	style="&stt0;"> </text>
<text x="162.20" y="550.76"
	style="&stt0;"> </text>
<text x="164.18" y="550.76"
	style="&stt0;">J</text>
<text x="167.96" y="550.76"
	style="&stt0;">E</text>
<text x="172.46" y="550.76"
	style="&stt0;">D</text>
<text x="177.50" y="550.76"
	style="&stt0;">E</text>
<text x="182.00" y="550.76"
	style="&stt0;">C</text>
<text x="187.04" y="550.76"
	style="&stt0;"> </text>
<text x="228.62" y="550.76"
	style="&stt0;"> </text>
<text x="230.60" y="550.76"
	style="&stt0;">J</text>
<text x="234.38" y="550.76"
	style="&stt0;">E</text>
<text x="238.88" y="550.76"
	style="&stt0;">I</text>
<text x="240.86" y="550.76"
	style="&stt0;">T</text>
<text x="245.00" y="550.76"
	style="&stt0;">A</text>
<text x="249.86" y="550.76"
	style="&stt0;"> </text>
<polyline style="&sto1;"
	points="372.24,569.99 372.24,558.71 349.71,560.94 349.71,567.76 
	372.24,569.99 372.24,569.99 "/>
<path style="&sto1;"
d="M 383.84 569.99 C 386.96 569.99 389.50 567.46 389.50 564.34 C 389.50 561.22 386.96 558.69 383.84 558.69
	 C 380.72 558.69 378.19 561.22 378.19 564.34 C 378.19 567.46 380.72 569.99 383.84 569.99 L 383.84 569.99"/>
<path style="&sto1;"
d="M 383.84 567.73 C 385.71 567.73 387.23 566.21 387.23 564.34 C 387.23 562.47 385.71 560.95 383.84 560.95
	 C 381.97 560.95 380.45 562.47 380.45 564.34 C 380.45 566.21 381.97 567.73 383.84 567.73 L 383.84 567.73"/>
<polyline style="&sto0;"
	points="347.32,564.34 358.39,564.34 "/>
<polyline style="&sto0;"
	points="362.98,564.34 374.23,564.34 "/>
<polyline style="&sto0;"
	points="360.05,564.34 361.29,564.34 "/>
<polyline style="&sto0;"
	points="376.71,564.34 381.95,564.34 "/>
<polyline style="&sto0;"
	points="385.89,564.34 391.13,564.34 "/>
<polyline style="&sto0;"
	points="383.07,564.34 384.66,564.34 "/>
<polyline style="&sto0;"
	points="383.84,571.55 383.84,566.31 "/>
<polyline style="&sto0;"
	points="383.84,562.29 383.84,557.06 "/>
<polyline style="&sto0;"
	points="383.84,565.05 383.84,563.60 "/>
<text x="19.10" y="484.52"
	style="&stt3;">m</text>
<text x="24.86" y="484.52"
	style="&stt3;">m</text>
<text x="30.62" y="484.52"
	style="&stt3;"> </text>
<text x="67.34" y="480.92"
	style="&stt3;">0</text>
<text x="71.30" y="480.92"
	style="&stt3;">.</text>
<text x="73.10" y="480.92"
	style="&stt3;">1</text>
<text x="76.88" y="480.92"
	style="&stt3;">5</text>
<text x="80.66" y="480.92"
	style="&stt3;"> </text>
<text x="67.34" y="489.20"
	style="&stt3;">0</text>
<text x="71.30" y="489.20"
	style="&stt3;">.</text>
<text x="73.10" y="489.20"
	style="&stt3;">0</text>
<text x="76.88" y="489.20"
	style="&stt3;">5</text>
<text x="80.66" y="489.20"
	style="&stt3;"> </text>
<text x="91.28" y="480.92"
	style="&stt3;">0</text>
<text x="95.06" y="480.92"
	style="&stt3;">.</text>
<text x="97.04" y="480.92"
	style="&stt3;">9</text>
<text x="100.82" y="480.92"
	style="&stt3;">5</text>
<text x="104.60" y="480.92"
	style="&stt3;"> </text>
<text x="91.28" y="489.20"
	style="&stt3;">0</text>
<text x="95.06" y="489.20"
	style="&stt3;">.</text>
<text x="97.04" y="489.20"
	style="&stt3;">8</text>
<text x="100.82" y="489.20"
	style="&stt3;">0</text>
<text x="104.60" y="489.20"
	style="&stt3;"> </text>
<text x="138.98" y="480.92"
	style="&stt3;">0</text>
<text x="142.76" y="480.92"
	style="&stt3;">.</text>
<text x="144.74" y="480.92"
	style="&stt3;">3</text>
<text x="148.52" y="480.92"
	style="&stt3;">0</text>
<text x="152.30" y="480.92"
	style="&stt3;"> </text>
<text x="138.98" y="489.20"
	style="&stt3;">0</text>
<text x="142.76" y="489.20"
	style="&stt3;">.</text>
<text x="144.74" y="489.20"
	style="&stt3;">1</text>
<text x="148.52" y="489.20"
	style="&stt3;">9</text>
<text x="152.30" y="489.20"
	style="&stt3;"> </text>
<text x="164.72" y="480.92"
	style="&stt3;">0</text>
<text x="168.68" y="480.92"
	style="&stt3;">.</text>
<text x="170.48" y="480.92"
	style="&stt3;">2</text>
<text x="174.26" y="480.92"
	style="&stt3;"> </text>
<text x="164.72" y="489.20"
	style="&stt3;">0</text>
<text x="168.68" y="489.20"
	style="&stt3;">.</text>
<text x="170.48" y="489.20"
	style="&stt3;">1</text>
<text x="174.26" y="489.20"
	style="&stt3;"> </text>
<text x="188.66" y="480.92"
	style="&stt3;">6</text>
<text x="192.44" y="480.92"
	style="&stt3;">.</text>
<text x="194.42" y="480.92"
	style="&stt3;">6</text>
<text x="198.20" y="480.92"
	style="&stt3;"> </text>
<text x="188.66" y="489.20"
	style="&stt3;">6</text>
<text x="192.44" y="489.20"
	style="&stt3;">.</text>
<text x="194.42" y="489.20"
	style="&stt3;">4</text>
<text x="198.20" y="489.20"
	style="&stt3;"> </text>
<text x="212.60" y="480.92"
	style="&stt3;">4</text>
<text x="216.38" y="480.92"
	style="&stt3;">.</text>
<text x="218.18" y="480.92"
	style="&stt3;">5</text>
<text x="221.96" y="480.92"
	style="&stt3;"> </text>
<text x="212.60" y="489.20"
	style="&stt3;">4</text>
<text x="216.38" y="489.20"
	style="&stt3;">.</text>
<text x="218.18" y="489.20"
	style="&stt3;">3</text>
<text x="221.96" y="489.20"
	style="&stt3;"> </text>
<text x="234.38" y="485.06"
	style="&stt3;">0</text>
<text x="238.16" y="485.06"
	style="&stt3;">.</text>
<text x="239.96" y="485.06"
	style="&stt3;">6</text>
<text x="243.92" y="485.06"
	style="&stt3;">5</text>
<text x="247.70" y="485.06"
	style="&stt3;"> </text>
<text x="260.12" y="480.92"
	style="&stt3;">6</text>
<text x="263.90" y="480.92"
	style="&stt3;">.</text>
<text x="265.88" y="480.92"
	style="&stt3;">6</text>
<text x="269.66" y="480.92"
	style="&stt3;"> </text>
<text x="260.12" y="489.20"
	style="&stt3;">6</text>
<text x="263.90" y="489.20"
	style="&stt3;">.</text>
<text x="265.88" y="489.20"
	style="&stt3;">2</text>
<text x="269.66" y="489.20"
	style="&stt3;"> </text>
<text x="331.76" y="480.92"
	style="&stt3;">0</text>
<text x="335.54" y="480.92"
	style="&stt3;">.</text>
<text x="337.34" y="480.92"
	style="&stt3;">4</text>
<text x="341.12" y="480.92"
	style="&stt3;"> </text>
<text x="331.76" y="489.20"
	style="&stt3;">0</text>
<text x="335.54" y="489.20"
	style="&stt3;">.</text>
<text x="337.34" y="489.20"
	style="&stt3;">3</text>
<text x="341.12" y="489.20"
	style="&stt3;"> </text>
<text x="426.98" y="480.92"
	style="&stt3;">0</text>
<text x="430.76" y="480.92"
	style="&stt3;">.</text>
<text x="432.56" y="480.92"
	style="&stt3;">5</text>
<text x="436.52" y="480.92"
	style="&stt3;"> </text>
<text x="426.98" y="489.20"
	style="&stt3;">0</text>
<text x="430.76" y="489.20"
	style="&stt3;">.</text>
<text x="432.56" y="489.20"
	style="&stt3;">2</text>
<text x="436.52" y="489.20"
	style="&stt3;"> </text>
<text x="452.18" y="481.46"
	style="&stt3;">8</text>
<text x="455.96" y="481.46"
	style="&stt3;"> </text>
<text x="452.18" y="489.74"
	style="&stt3;">0</text>
<text x="455.96" y="489.74"
	style="&stt3;"> </text>
<text x="456.32" y="478.04"
	style="&stt4;">o</text>
<text x="459.20" y="478.04"
	style="&stt4;"> </text>
<text x="456.50" y="486.32"
	style="&stt4;">o</text>
<text x="459.20" y="486.32"
	style="&stt4;"> </text>
<text x="377.30" y="485.06"
	style="&stt3;">0</text>
<text x="381.08" y="485.06"
	style="&stt3;">.</text>
<text x="383.06" y="485.06"
	style="&stt3;">1</text>
<text x="386.84" y="485.06"
	style="&stt3;">3</text>
<text x="390.62" y="485.06"
	style="&stt3;"> </text>
<text x="403.04" y="485.06"
	style="&stt3;">0</text>
<text x="406.82" y="485.06"
	style="&stt3;">.</text>
<text x="408.80" y="485.06"
	style="&stt3;">1</text>
<text x="412.58" y="485.06"
	style="&stt3;"> </text>
<text x="355.88" y="485.06"
	style="&stt3;">0</text>
<text x="359.66" y="485.06"
	style="&stt3;">.</text>
<text x="361.64" y="485.06"
	style="&stt3;">2</text>
<text x="365.42" y="485.06"
	style="&stt3;"> </text>
<text x="286.76" y="485.06"
	style="&stt3;">1</text>
<text x="290.54" y="485.06"
	style="&stt3;"> </text>
<text x="11.00" y="448.70"
	style="&stt0;">D</text>
<text x="16.04" y="448.70"
	style="&stt0;">I</text>
<text x="17.84" y="448.70"
	style="&stt0;">M</text>
<text x="23.60" y="448.70"
	style="&stt0;">E</text>
<text x="28.10" y="448.70"
	style="&stt0;">N</text>
<text x="33.14" y="448.70"
	style="&stt0;">S</text>
<text x="37.64" y="448.70"
	style="&stt0;">I</text>
<text x="39.44" y="448.70"
	style="&stt0;">O</text>
<text x="44.84" y="448.70"
	style="&stt0;">N</text>
<text x="49.70" y="448.70"
	style="&stt0;">S</text>
<text x="54.38" y="448.70"
	style="&stt0;"> </text>
<text x="56.18" y="448.70"
	style="&stt0;">(</text>
<text x="58.52" y="448.70"
	style="&stt0;">m</text>
<text x="64.64" y="448.70"
	style="&stt0;">m</text>
<text x="70.76" y="448.70"
	style="&stt0;"> </text>
<text x="72.56" y="448.70"
	style="&stt0;">a</text>
<text x="76.34" y="448.70"
	style="&stt0;">r</text>
<text x="79.04" y="448.70"
	style="&stt0;">e</text>
<text x="82.82" y="448.70"
	style="&stt0;"> </text>
<text x="84.80" y="448.70"
	style="&stt0;">t</text>
<text x="86.96" y="448.70"
	style="&stt0;">h</text>
<text x="91.28" y="448.70"
	style="&stt0;">e</text>
<text x="95.06" y="448.70"
	style="&stt0;"> </text>
<text x="96.86" y="448.70"
	style="&stt0;">o</text>
<text x="101.18" y="448.70"
	style="&stt0;">r</text>
<text x="103.70" y="448.70"
	style="&stt0;">i</text>
<text x="105.68" y="448.70"
	style="&stt0;">g</text>
<text x="109.82" y="448.70"
	style="&stt0;">i</text>
<text x="111.80" y="448.70"
	style="&stt0;">n</text>
<text x="115.94" y="448.70"
	style="&stt0;">a</text>
<text x="119.72" y="448.70"
	style="&stt0;">l</text>
<text x="121.70" y="448.70"
	style="&stt0;"> </text>
<text x="123.50" y="448.70"
	style="&stt0;">d</text>
<text x="127.64" y="448.70"
	style="&stt0;">i</text>
<text x="129.62" y="448.70"
	style="&stt0;">m</text>
<text x="135.74" y="448.70"
	style="&stt0;">e</text>
<text x="139.52" y="448.70"
	style="&stt0;">n</text>
<text x="143.66" y="448.70"
	style="&stt0;">s</text>
<text x="147.44" y="448.70"
	style="&stt0;">i</text>
<text x="149.42" y="448.70"
	style="&stt0;">o</text>
<text x="153.56" y="448.70"
	style="&stt0;">n</text>
<text x="157.70" y="448.70"
	style="&stt0;">s</text>
<text x="161.48" y="448.70"
	style="&stt0;">)</text>
<text x="163.82" y="448.70"
	style="&stt0;"> </text>
<text x="11.54" y="503.78"
	style="&stt0;">N</text>
<text x="16.58" y="503.78"
	style="&stt0;">o</text>
<text x="20.72" y="503.78"
	style="&stt0;">t</text>
<text x="23.06" y="503.78"
	style="&stt0;">e</text>
<text x="26.84" y="503.78"
	style="&stt0;">s</text>
<text x="30.62" y="503.78"
	style="&stt0;"> </text>
<text x="11.54" y="514.04"
	style="&stt3;">1</text>
<text x="15.32" y="514.04"
	style="&stt3;">.</text>
<text x="17.30" y="514.04"
	style="&stt3;"> </text>
<text x="19.28" y="514.04"
	style="&stt3;">P</text>
<text x="23.78" y="514.04"
	style="&stt3;">l</text>
<text x="25.22" y="514.04"
	style="&stt3;">a</text>
<text x="29.00" y="514.04"
	style="&stt3;">s</text>
<text x="32.42" y="514.04"
	style="&stt3;">t</text>
<text x="34.40" y="514.04"
	style="&stt3;">i</text>
<text x="35.84" y="514.04"
	style="&stt3;">c</text>
<text x="39.26" y="514.04"
	style="&stt3;"> </text>
<text x="41.24" y="514.04"
	style="&stt3;">o</text>
<text x="45.02" y="514.04"
	style="&stt3;">r</text>
<text x="47.36" y="514.04"
	style="&stt3;"> </text>
<text x="49.16" y="514.04"
	style="&stt3;">m</text>
<text x="54.92" y="514.04"
	style="&stt3;">e</text>
<text x="58.70" y="514.04"
	style="&stt3;">t</text>
<text x="60.68" y="514.04"
	style="&stt3;">a</text>
<text x="64.46" y="514.04"
	style="&stt3;">l</text>
<text x="65.90" y="514.04"
	style="&stt3;"> </text>
<text x="67.88" y="514.04"
	style="&stt3;">p</text>
<text x="71.66" y="514.04"
	style="&stt3;">r</text>
<text x="74.00" y="514.04"
	style="&stt3;">o</text>
<text x="77.78" y="514.04"
	style="&stt3;">t</text>
<text x="79.58" y="514.04"
	style="&stt3;">r</text>
<text x="81.92" y="514.04"
	style="&stt3;">u</text>
<text x="85.70" y="514.04"
	style="&stt3;">s</text>
<text x="89.12" y="514.04"
	style="&stt3;">i</text>
<text x="90.74" y="514.04"
	style="&stt3;">o</text>
<text x="94.52" y="514.04"
	style="&stt3;">n</text>
<text x="98.30" y="514.04"
	style="&stt3;">s</text>
<text x="101.72" y="514.04"
	style="&stt3;"> </text>
<text x="103.52" y="514.04"
	style="&stt3;">o</text>
<text x="107.30" y="514.04"
	style="&stt3;">f</text>
<text x="109.28" y="514.04"
	style="&stt3;"> </text>
<text x="111.26" y="514.04"
	style="&stt3;">0</text>
<text x="115.04" y="514.04"
	style="&stt3;">.</text>
<text x="116.84" y="514.04"
	style="&stt3;">1</text>
<text x="120.62" y="514.04"
	style="&stt3;">5</text>
<text x="124.58" y="514.04"
	style="&stt3;"> </text>
<text x="126.38" y="514.04"
	style="&stt3;">m</text>
<text x="132.14" y="514.04"
	style="&stt3;">m</text>
<text x="137.72" y="514.04"
	style="&stt3;"> </text>
<text x="139.70" y="514.04"
	style="&stt3;">m</text>
<text x="145.46" y="514.04"
	style="&stt3;">a</text>
<text x="149.24" y="514.04"
	style="&stt3;">x</text>
<text x="152.66" y="514.04"
	style="&stt3;">i</text>
<text x="154.10" y="514.04"
	style="&stt3;">m</text>
<text x="159.86" y="514.04"
	style="&stt3;">u</text>
<text x="163.64" y="514.04"
	style="&stt3;">m</text>
<text x="169.40" y="514.04"
	style="&stt3;"> </text>
<text x="171.20" y="514.04"
	style="&stt3;">p</text>
<text x="174.98" y="514.04"
	style="&stt3;">e</text>
<text x="178.76" y="514.04"
	style="&stt3;">r</text>
<text x="181.10" y="514.04"
	style="&stt3;"> </text>
<text x="183.08" y="514.04"
	style="&stt3;">s</text>
<text x="186.50" y="514.04"
	style="&stt3;">i</text>
<text x="187.94" y="514.04"
	style="&stt3;">d</text>
<text x="191.72" y="514.04"
	style="&stt3;">e</text>
<text x="195.50" y="514.04"
	style="&stt3;"> </text>
<text x="197.48" y="514.04"
	style="&stt3;">a</text>
<text x="201.26" y="514.04"
	style="&stt3;">r</text>
<text x="203.60" y="514.04"
	style="&stt3;">e</text>
<text x="207.38" y="514.04"
	style="&stt3;"> </text>
<text x="209.18" y="514.04"
	style="&stt3;">n</text>
<text x="213.14" y="514.04"
	style="&stt3;">o</text>
<text x="216.92" y="514.04"
	style="&stt3;">t</text>
<text x="218.72" y="514.04"
	style="&stt3;"> </text>
<text x="220.70" y="514.04"
	style="&stt3;">i</text>
<text x="222.14" y="514.04"
	style="&stt3;">n</text>
<text x="225.92" y="514.04"
	style="&stt3;">c</text>
<text x="229.16" y="514.04"
	style="&stt3;">l</text>
<text x="230.78" y="514.04"
	style="&stt3;">u</text>
<text x="234.56" y="514.04"
	style="&stt3;">d</text>
<text x="238.34" y="514.04"
	style="&stt3;">e</text>
<text x="242.12" y="514.04"
	style="&stt3;">d</text>
<text x="245.90" y="514.04"
	style="&stt3;">.</text>
<text x="247.88" y="514.04"
	style="&stt3;"> </text>
<text x="11.54" y="524.30"
	style="&stt3;">2</text>
<text x="15.32" y="524.30"
	style="&stt3;">.</text>
<text x="17.30" y="524.30"
	style="&stt3;"> </text>
<text x="19.28" y="524.30"
	style="&stt3;">P</text>
<text x="23.78" y="524.30"
	style="&stt3;">l</text>
<text x="25.22" y="524.30"
	style="&stt3;">a</text>
<text x="29.00" y="524.30"
	style="&stt3;">s</text>
<text x="32.42" y="524.30"
	style="&stt3;">t</text>
<text x="34.40" y="524.30"
	style="&stt3;">i</text>
<text x="35.84" y="524.30"
	style="&stt3;">c</text>
<text x="39.26" y="524.30"
	style="&stt3;"> </text>
<text x="41.24" y="524.30"
	style="&stt3;">i</text>
<text x="42.68" y="524.30"
	style="&stt3;">n</text>
<text x="46.64" y="524.30"
	style="&stt3;">t</text>
<text x="48.44" y="524.30"
	style="&stt3;">e</text>
<text x="52.22" y="524.30"
	style="&stt3;">r</text>
<text x="54.56" y="524.30"
	style="&stt3;">l</text>
<text x="56.00" y="524.30"
	style="&stt3;">e</text>
<text x="59.78" y="524.30"
	style="&stt3;">a</text>
<text x="63.74" y="524.30"
	style="&stt3;">d</text>
<text x="67.52" y="524.30"
	style="&stt3;"> </text>
<text x="69.32" y="524.30"
	style="&stt3;">p</text>
<text x="73.10" y="524.30"
	style="&stt3;">r</text>
<text x="75.44" y="524.30"
	style="&stt3;">o</text>
<text x="79.22" y="524.30"
	style="&stt3;">t</text>
<text x="81.20" y="524.30"
	style="&stt3;">r</text>
<text x="83.36" y="524.30"
	style="&stt3;">u</text>
<text x="87.32" y="524.30"
	style="&stt3;">s</text>
<text x="90.74" y="524.30"
	style="&stt3;">i</text>
<text x="92.18" y="524.30"
	style="&stt3;">o</text>
<text x="95.96" y="524.30"
	style="&stt3;">n</text>
<text x="99.74" y="524.30"
	style="&stt3;">s</text>
<text x="103.16" y="524.30"
	style="&stt3;"> </text>
<text x="105.14" y="524.30"
	style="&stt3;">o</text>
<text x="108.92" y="524.30"
	style="&stt3;">f</text>
<text x="110.90" y="524.30"
	style="&stt3;"> </text>
<text x="112.70" y="524.30"
	style="&stt3;">0</text>
<text x="116.48" y="524.30"
	style="&stt3;">.</text>
<text x="118.46" y="524.30"
	style="&stt3;">2</text>
<text x="122.24" y="524.30"
	style="&stt3;">5</text>
<text x="126.02" y="524.30"
	style="&stt3;"> </text>
<text x="128.00" y="524.30"
	style="&stt3;">m</text>
<text x="133.58" y="524.30"
	style="&stt3;">m</text>
<text x="139.34" y="524.30"
	style="&stt3;"> </text>
<text x="141.14" y="524.30"
	style="&stt3;">m</text>
<text x="146.90" y="524.30"
	style="&stt3;">a</text>
<text x="150.68" y="524.30"
	style="&stt3;">x</text>
<text x="154.10" y="524.30"
	style="&stt3;">i</text>
<text x="155.72" y="524.30"
	style="&stt3;">m</text>
<text x="161.30" y="524.30"
	style="&stt3;">u</text>
<text x="165.08" y="524.30"
	style="&stt3;">m</text>
<text x="170.84" y="524.30"
	style="&stt3;"> </text>
<text x="172.82" y="524.30"
	style="&stt3;">p</text>
<text x="176.60" y="524.30"
	style="&stt3;">e</text>
<text x="180.38" y="524.30"
	style="&stt3;">r</text>
<text x="182.72" y="524.30"
	style="&stt3;"> </text>
<text x="184.52" y="524.30"
	style="&stt3;">s</text>
<text x="187.94" y="524.30"
	style="&stt3;">i</text>
<text x="189.56" y="524.30"
	style="&stt3;">d</text>
<text x="193.34" y="524.30"
	style="&stt3;">e</text>
<text x="197.12" y="524.30"
	style="&stt3;"> </text>
<text x="198.92" y="524.30"
	style="&stt3;">a</text>
<text x="202.88" y="524.30"
	style="&stt3;">r</text>
<text x="205.04" y="524.30"
	style="&stt3;">e</text>
<text x="208.82" y="524.30"
	style="&stt3;"> </text>
<text x="210.80" y="524.30"
	style="&stt3;">n</text>
<text x="214.58" y="524.30"
	style="&stt3;">o</text>
<text x="218.36" y="524.30"
	style="&stt3;">t</text>
<text x="220.34" y="524.30"
	style="&stt3;"> </text>
<text x="222.14" y="524.30"
	style="&stt3;">i</text>
<text x="223.76" y="524.30"
	style="&stt3;">n</text>
<text x="227.36" y="524.30"
	style="&stt3;">c</text>
<text x="230.78" y="524.30"
	style="&stt3;">l</text>
<text x="232.22" y="524.30"
	style="&stt3;">u</text>
<text x="236.00" y="524.30"
	style="&stt3;">d</text>
<text x="239.96" y="524.30"
	style="&stt3;">e</text>
<text x="243.74" y="524.30"
	style="&stt3;">d</text>
<text x="247.52" y="524.30"
	style="&stt3;">.</text>
<text x="249.32" y="524.30"
	style="&stt3;"> </text>
<text x="305.84" y="480.92"
	style="&stt3;">0</text>
<text x="309.62" y="480.92"
	style="&stt3;">.</text>
<text x="311.42" y="480.92"
	style="&stt3;">7</text>
<text x="315.20" y="480.92"
	style="&stt3;">5</text>
<text x="318.98" y="480.92"
	style="&stt3;"> </text>
<text x="305.84" y="489.20"
	style="&stt3;">0</text>
<text x="309.62" y="489.20"
	style="&stt3;">.</text>
<text x="311.42" y="489.20"
	style="&stt3;">5</text>
<text x="315.20" y="489.20"
	style="&stt3;">0</text>
<text x="318.98" y="489.20"
	style="&stt3;"> </text>
<text x="27.56" y="566.60"
	style="&stt3;"> </text>
<text x="29.36" y="566.60"
	style="&stt3;">S</text>
<text x="34.04" y="566.60"
	style="&stt3;">O</text>
<text x="39.26" y="566.60"
	style="&stt3;">T</text>
<text x="43.40" y="566.60"
	style="&stt3;">3</text>
<text x="47.18" y="566.60"
	style="&stt3;">6</text>
<text x="51.14" y="566.60"
	style="&stt3;">0</text>
<text x="54.92" y="566.60"
	style="&stt3;">-</text>
<text x="57.08" y="566.60"
	style="&stt3;">1</text>
<text x="61.04" y="566.60"
	style="&stt3;"> </text>
<text x="160.94" y="566.60"
	style="&stt3;"> </text>
<text x="162.74" y="566.60"
	style="&stt3;">M</text>
<text x="168.50" y="566.60"
	style="&stt3;">O</text>
<text x="173.90" y="566.60"
	style="&stt3;">-</text>
<text x="176.06" y="566.60"
	style="&stt3;">1</text>
<text x="179.84" y="566.60"
	style="&stt3;">5</text>
<text x="183.80" y="566.60"
	style="&stt3;">3</text>
<text x="187.58" y="566.60"
	style="&stt3;"> </text>
<text x="421.22" y="562.28"
	style="&stt3;">9</text>
<text x="425.00" y="562.28"
	style="&stt3;">9</text>
<text x="428.78" y="562.28"
	style="&stt3;">-</text>
<text x="431.12" y="562.28"
	style="&stt3;">1</text>
<text x="434.90" y="562.28"
	style="&stt3;">2</text>
<text x="438.68" y="562.28"
	style="&stt3;">-</text>
<text x="441.02" y="562.28"
	style="&stt3;">2</text>
<text x="444.80" y="562.28"
	style="&stt3;">7</text>
<text x="448.58" y="562.28"
	style="&stt3;"> </text>
<text x="421.22" y="570.56"
	style="&stt3;">0</text>
<text x="425.00" y="570.56"
	style="&stt3;">3</text>
<text x="428.78" y="570.56"
	style="&stt3;">-</text>
<text x="431.12" y="570.56"
	style="&stt3;">0</text>
<text x="434.90" y="570.56"
	style="&stt3;">2</text>
<text x="438.68" y="570.56"
	style="&stt3;">-</text>
<text x="441.02" y="570.56"
	style="&stt3;">1</text>
<text x="444.80" y="570.56"
	style="&stt3;">9</text>
<text x="448.58" y="570.56"
	style="&stt3;"> </text>
<polyline style="&sto0;"
	points="419.16,560.07 450.23,560.07 "/>
<polyline style="&sto0;"
	points="81.25,112.58 81.25,88.86 "/>
<polyline style="&sto0;"
	points="84.66,90.52 135.38,90.52 "/>
<polyline style="&sto2;"
	points="86.45,91.73 81.95,90.52 86.45,89.32 86.45,91.73 
	86.45,91.73 "/>
<polyline style="&sto0;"
	points="195.84,90.52 145.36,90.52 "/>
<polyline style="&sto2;"
	points="193.77,89.32 198.26,90.52 193.77,91.73 193.77,89.32 
	193.77,89.32 "/>
<polyline style="&sto0;"
	points="199.07,111.58 199.07,89.14 "/>
<polyline style="&sto0;"
	points="81.67,184.70 81.67,172.71 "/>
<polyline style="&sto0;"
	points="88.43,173.21 88.43,197.45 "/>
<polyline style="&sto0;"
	points="88.43,199.06 88.43,202.29 "/>
<polyline style="&sto0;"
	points="90.94,174.02 98.21,174.02 "/>
<polyline style="&sto2;"
	points="93.73,175.22 89.23,174.02 93.73,172.81 93.73,175.22 
	93.73,175.22 "/>
<polyline style="&sto0;"
	points="79.15,173.80 71.88,173.80 "/>
<polyline style="&sto2;"
	points="76.36,172.60 80.86,173.80 76.36,175.01 76.36,172.60 
	76.36,172.60 "/>
<polyline style="&sto0;"
	points="178.06,305.67 178.06,317.65 "/>
<polyline style="&sto0;"
	points="183.39,305.67 183.39,317.65 "/>
<polyline style="&sto0;"
	points="192.75,311.99 220.77,311.99 220.77,321.69 192.75,321.69 
	192.75,311.99 192.75,311.99 "/>
<path style="&sto0;"
d="M 197.60 314.42 C 198.94 314.42 200.02 315.50 200.02 316.84 C 200.02 318.18 198.94 319.26 197.60 319.26
	 C 196.26 319.26 195.17 318.18 195.17 316.84 C 195.17 315.50 196.26 314.42 197.60 314.42 L 197.60 314.42"/>
<polyline style="&sto0;"
	points="193.91,316.84 201.35,316.84 "/>
<polyline style="&sto0;"
	points="197.60,313.16 197.60,320.67 "/>
<polyline style="&sto0;"
	points="202.44,311.99 202.44,321.69 "/>
<text x="205.04" y="318.74"
	style="&stt3;">w</text>
<text x="209.90" y="318.74"
	style="&stt3;"> </text>
<path style="&sto0;"
d="M 215.73 313.21 C 217.74 313.21 219.36 314.84 219.36 316.85 C 219.36 318.85 217.74 320.48 215.73 320.48
	 C 213.72 320.48 212.09 318.85 212.09 316.85 C 212.09 314.84 213.72 313.21 215.73 313.21 L 215.73 313.21"/>
<text x="213.50" y="318.74"
	style="&stt5;">M</text>
<text x="218.36" y="318.74"
	style="&stt5;"> </text>
<polyline style="&sto0;"
	points="186.69,316.84 192.75,316.84 "/>
<polyline style="&sto2;"
	points="188.69,318.05 184.20,316.84 188.69,315.63 188.69,318.05 
	188.69,318.05 "/>
<polyline style="&sto0;"
	points="174.90,316.84 166.35,316.84 "/>
<polyline style="&sto2;"
	points="172.76,315.63 177.26,316.84 172.76,318.05 172.76,315.63 
	172.76,315.63 "/>
<polyline style="&sto0;"
	points="122.98,297.36 122.98,318.08 "/>
<polyline style="&sto0;"
	points="134.58,297.36 134.58,318.08 "/>
<polyline style="&sto0;"
	points="120.04,316.98 112.77,316.98 "/>
<polyline style="&sto2;"
	points="117.68,315.78 122.18,316.98 117.68,318.19 117.68,315.78 
	117.68,315.78 "/>
<polyline style="&sto0;"
	points="137.67,316.98 144.94,316.98 "/>
<polyline style="&sto2;"
	points="139.89,318.19 135.39,316.98 139.89,315.78 139.89,318.19 
	139.89,318.19 "/>
<text x="177.14" y="324.14"
	style="&stt3;">b</text>
<text x="180.92" y="324.14"
	style="&stt3;"> </text>
<text x="181.64" y="325.58"
	style="&stt5;">p</text>
<text x="184.88" y="325.58"
	style="&stt5;"> </text>
<text x="138.26" y="92.84"
	style="&stt3;">D</text>
<text x="143.30" y="92.84"
	style="&stt3;"> </text>
<text x="83.36" y="175.82"
	style="&stt3;">Z</text>
<text x="87.50" y="175.82"
	style="&stt3;"> </text>
<polyline style="&sto0;"
	points="133.39,329.67 133.39,319.97 123.70,319.97 123.70,329.67 
	133.39,329.67 133.39,329.67 "/>
<text x="126.74" y="326.66"
	style="&stt3;">e</text>
<text x="130.52" y="326.66"
	style="&stt3;"> </text>
<path style="&sto0;"
d="M 69.59 245.75 L 86.12 245.75
M 88.97 245.75 L 91.82 245.75
M 94.67 245.75 L 111.20 245.75
M 114.05 245.75 L 116.90 245.75
M 119.75 245.75 L 136.28 245.75
M 139.13 245.75 L 141.98 245.75
M 144.83 245.75 L 161.36 245.75
M 164.21 245.75 L 167.06 245.75
M 169.91 245.75 L 186.44 245.75
M 189.29 245.75 L 192.14 245.75
M 194.99 245.75 L 211.52 245.75"/>
<path style="&sto0;"
d="M 140.46 176.80 L 140.46 196.75
M 140.46 199.60 L 140.46 202.45
M 140.46 205.30 L 140.46 225.25
M 140.46 228.10 L 140.46 230.95
M 140.46 233.80 L 140.46 253.75
M 140.46 256.60 L 140.46 259.45
M 140.46 262.30 L 140.46 282.25
M 140.46 285.10 L 140.46 287.95
M 140.46 290.80 L 140.46 310.75"/>
<text x="115.04" y="485.24"
	style="&stt3;">0</text>
<text x="119.00" y="485.24"
	style="&stt3;">.</text>
<text x="120.80" y="485.24"
	style="&stt3;">2</text>
<text x="124.58" y="485.24"
	style="&stt3;">5</text>
<text x="128.36" y="485.24"
	style="&stt3;"> </text>
<polyline style="&sto3;"
	points="83.54,283.33 197.07,283.33 197.07,207.44 83.54,207.44 
	83.54,283.33 83.54,283.33 "/>
<polyline style="&sto3;"
	points="81.77,285.11 198.85,285.11 198.85,205.66 81.77,205.66 
	81.77,285.11 81.77,285.11 "/>
<polyline style="&sto3;"
	points="81.77,205.66 83.54,207.44 "/>
<polyline style="&sto3;"
	points="197.07,283.33 198.85,285.11 "/>
<polyline style="&sto3;"
	points="81.77,285.11 83.54,283.33 "/>
<polyline style="&sto3;"
	points="198.85,205.66 197.07,207.44 "/>
<polyline style="&sto3;"
	points="85.72,186.92 91.06,186.92 91.06,205.66 85.72,205.66 
	85.72,186.92 85.72,186.92 "/>
<polyline style="&sto3;"
	points="85.72,195.81 91.06,195.81 "/>
<polyline style="&sto3;"
	points="97.28,186.92 102.61,186.92 102.61,205.66 97.28,205.66 
	97.28,186.92 97.28,186.92 "/>
<polyline style="&sto3;"
	points="97.28,195.81 102.61,195.81 "/>
<polyline style="&sto3;"
	points="108.83,186.92 114.16,186.92 114.16,205.66 108.83,205.66 
	108.83,186.92 108.83,186.92 "/>
<polyline style="&sto3;"
	points="108.83,195.81 114.16,195.81 "/>
<polyline style="&sto3;"
	points="120.38,186.92 125.71,186.92 125.71,205.66 120.38,205.66 
	120.38,186.92 120.38,186.92 "/>
<polyline style="&sto3;"
	points="120.38,195.81 125.71,195.81 "/>
<polyline style="&sto3;"
	points="131.93,186.92 137.27,186.92 137.27,205.66 131.93,205.66 
	131.93,186.92 131.93,186.92 "/>
<polyline style="&sto3;"
	points="131.93,195.81 137.27,195.81 "/>
<polyline style="&sto3;"
	points="189.57,186.92 194.90,186.92 194.90,205.66 189.57,205.66 
	189.57,186.92 189.57,186.92 "/>
<polyline style="&sto3;"
	points="189.57,195.81 194.90,195.81 "/>
<polyline style="&sto3;"
	points="85.72,285.11 91.06,285.11 91.06,303.85 85.72,303.85 
	85.72,285.11 85.72,285.11 "/>
<polyline style="&sto3;"
	points="85.72,294.96 91.06,294.96 "/>
<polyline style="&sto3;"
	points="97.28,285.11 102.61,285.11 102.61,303.85 97.28,303.85 
	97.28,285.11 97.28,285.11 "/>
<polyline style="&sto3;"
	points="97.28,294.96 102.61,294.96 "/>
<polyline style="&sto3;"
	points="108.83,285.11 114.16,285.11 114.16,303.85 108.83,303.85 
	108.83,285.11 108.83,285.11 "/>
<polyline style="&sto3;"
	points="108.83,294.96 114.16,294.96 "/>
<polyline style="&sto3;"
	points="120.38,285.11 125.71,285.11 125.71,303.85 120.38,303.85 
	120.38,285.11 120.38,285.11 "/>
<polyline style="&sto3;"
	points="120.38,294.96 125.71,294.96 "/>
<polyline style="&sto3;"
	points="131.93,285.11 137.27,285.11 137.27,303.85 131.93,303.85 
	131.93,285.11 131.93,285.11 "/>
<polyline style="&sto3;"
	points="131.93,294.96 137.27,294.96 "/>
<polyline style="&sto3;"
	points="189.57,285.11 194.90,285.11 194.90,303.85 189.57,303.85 
	189.57,285.11 189.57,285.11 "/>
<polyline style="&sto3;"
	points="189.57,294.96 194.90,294.96 "/>
<path style="&sto3;"
d="M 98.77 257.89 C 103.98 257.89 108.20 262.11 108.20 267.32 C 108.20 272.52 103.98 276.74 98.77 276.74
	 C 93.57 276.74 89.35 272.52 89.35 267.32 C 89.35 262.11 93.57 257.89 98.77 257.89 L 98.77 257.89"/>
<text x="78.86" y="303.62"
	style="&stt6;">1</text>
<text x="83.00" y="303.62"
	style="&stt6;"> </text>
<text x="197.66" y="303.62"
	style="&stt6;">1</text>
<text x="201.80" y="303.62"
	style="&stt6;">0</text>
<text x="205.94" y="303.62"
	style="&stt6;"> </text>
<text x="74.90" y="191.84"
	style="&stt6;">2</text>
<text x="79.04" y="191.84"
	style="&stt6;">0</text>
<text x="83.18" y="191.84"
	style="&stt6;"> </text>
<text x="197.66" y="191.66"
	style="&stt6;">1</text>
<text x="201.80" y="191.66"
	style="&stt6;">1</text>
<text x="205.94" y="191.66"
	style="&stt6;"> </text>
<polyline style="&sto3;"
	points="143.49,186.92 148.82,186.92 148.82,205.66 143.49,205.66 
	143.49,186.92 143.49,186.92 "/>
<polyline style="&sto3;"
	points="143.49,195.81 148.82,195.81 "/>
<polyline style="&sto3;"
	points="155.04,186.92 160.37,186.92 160.37,205.66 155.04,205.66 
	155.04,186.92 155.04,186.92 "/>
<polyline style="&sto3;"
	points="155.04,195.81 160.37,195.81 "/>
<polyline style="&sto3;"
	points="166.59,186.92 171.92,186.92 171.92,205.66 166.59,205.66 
	166.59,186.92 166.59,186.92 "/>
<polyline style="&sto3;"
	points="166.59,195.81 171.92,195.81 "/>
<polyline style="&sto3;"
	points="178.15,186.92 183.48,186.92 183.48,205.66 178.15,205.66 
	178.15,186.92 178.15,186.92 "/>
<polyline style="&sto3;"
	points="178.15,195.81 183.48,195.81 "/>
<polyline style="&sto3;"
	points="143.49,285.11 148.82,285.11 148.82,303.85 143.49,303.85 
	143.49,285.11 143.49,285.11 "/>
<polyline style="&sto3;"
	points="143.49,294.96 148.82,294.96 "/>
<polyline style="&sto3;"
	points="155.04,285.11 160.37,285.11 160.37,303.85 155.04,303.85 
	155.04,285.11 155.04,285.11 "/>
<polyline style="&sto3;"
	points="155.04,294.96 160.37,294.96 "/>
<polyline style="&sto3;"
	points="166.59,285.11 171.92,285.11 171.92,303.85 166.59,303.85 
	166.59,285.11 166.59,285.11 "/>
<polyline style="&sto3;"
	points="166.59,294.96 171.92,294.96 "/>
<polyline style="&sto3;"
	points="178.15,285.11 183.48,285.11 183.48,303.85 178.15,303.85 
	178.15,285.11 178.15,285.11 "/>
<polyline style="&sto3;"
	points="178.15,294.96 183.48,294.96 "/>
<polyline style="&sto3;"
	points="189.57,114.30 194.90,114.30 194.90,127.05 189.57,127.05 
	189.57,114.30 189.57,114.30 "/>
<polyline style="&sto3;"
	points="189.57,124.70 194.90,124.70 "/>
<polyline style="&sto3;"
	points="131.93,114.30 137.27,114.30 137.27,127.05 131.93,127.05 
	131.93,114.30 131.93,114.30 "/>
<polyline style="&sto3;"
	points="131.97,124.70 137.30,124.70 "/>
<polyline style="&sto3;"
	points="120.38,114.30 125.71,114.30 125.71,127.05 120.38,127.05 
	120.38,114.30 120.38,114.30 "/>
<polyline style="&sto3;"
	points="120.42,124.70 125.75,124.70 "/>
<polyline style="&sto3;"
	points="108.83,114.30 114.16,114.30 114.16,127.05 108.83,127.05 
	108.83,114.30 108.83,114.30 "/>
<polyline style="&sto3;"
	points="108.86,124.70 114.20,124.70 "/>
<polyline style="&sto3;"
	points="97.28,114.30 102.61,114.30 102.61,127.05 97.28,127.05 
	97.28,114.30 97.28,114.30 "/>
<polyline style="&sto3;"
	points="97.31,124.70 102.64,124.70 "/>
<polyline style="&sto3;"
	points="85.72,114.30 91.06,114.30 91.06,127.05 85.72,127.05 
	85.72,114.30 85.72,114.30 "/>
<polyline style="&sto3;"
	points="85.76,124.70 91.09,124.70 "/>
<polyline style="&sto3;"
	points="85.72,124.13 83.01,124.13 81.79,116.93 81.76,114.30 
	83.04,107.09 197.53,107.09 198.85,114.30 198.87,116.99 
	197.53,124.13 194.89,124.13 "/>
<polyline style="&sto3;"
	points="189.59,124.13 183.48,124.13 "/>
<polyline style="&sto3;"
	points="131.93,124.13 125.71,124.13 "/>
<polyline style="&sto3;"
	points="120.38,124.13 114.16,124.13 "/>
<polyline style="&sto3;"
	points="108.83,124.13 102.61,124.13 "/>
<polyline style="&sto3;"
	points="97.28,124.13 91.06,124.13 "/>
<polyline style="&sto3;"
	points="198.85,114.30 81.76,114.30 "/>
<polyline style="&sto3;"
	points="189.57,116.96 183.46,116.96 "/>
<polyline style="&sto3;"
	points="131.93,116.96 125.71,116.96 "/>
<polyline style="&sto3;"
	points="120.38,116.96 114.16,116.96 "/>
<polyline style="&sto3;"
	points="108.83,116.96 102.61,116.96 "/>
<polyline style="&sto3;"
	points="97.28,116.96 91.06,116.96 "/>
<polyline style="&sto3;"
	points="85.71,116.96 81.79,116.96 "/>
<polyline style="&sto3;"
	points="198.87,116.96 194.89,116.96 "/>
<polyline style="&sto3;"
	points="178.14,114.30 183.48,114.30 183.48,127.05 178.14,127.05 
	178.14,114.30 178.14,114.30 "/>
<polyline style="&sto3;"
	points="178.14,124.70 183.48,124.70 "/>
<polyline style="&sto3;"
	points="166.59,114.30 171.92,114.30 171.92,127.05 166.59,127.05 
	166.59,114.30 166.59,114.30 "/>
<polyline style="&sto3;"
	points="166.59,124.70 171.92,124.70 "/>
<polyline style="&sto3;"
	points="155.04,114.30 160.37,114.30 160.37,127.05 155.04,127.05 
	155.04,114.30 155.04,114.30 "/>
<polyline style="&sto3;"
	points="155.08,124.70 160.41,124.70 "/>
<polyline style="&sto3;"
	points="143.49,114.30 148.82,114.30 148.82,127.05 143.49,127.05 
	143.49,114.30 143.49,114.30 "/>
<polyline style="&sto3;"
	points="143.49,124.70 148.82,124.70 "/>
<polyline style="&sto3;"
	points="189.57,124.13 183.48,124.13 "/>
<polyline style="&sto3;"
	points="178.14,124.13 171.92,124.13 "/>
<polyline style="&sto3;"
	points="166.59,124.13 160.37,124.13 "/>
<polyline style="&sto3;"
	points="155.04,124.13 148.82,124.13 "/>
<polyline style="&sto3;"
	points="178.14,116.96 171.92,116.96 "/>
<polyline style="&sto3;"
	points="166.59,116.96 160.37,116.96 "/>
<polyline style="&sto3;"
	points="155.04,116.96 148.82,116.96 "/>
<polyline style="&sto3;"
	points="143.49,116.96 137.27,116.96 "/>
<polyline style="&sto3;"
	points="143.48,124.13 137.26,124.13 "/>
<polyline style="&sto0;"
	points="81.67,203.65 81.67,194.19 "/>
<text x="102.26" y="254.48"
	style="&stt3;">p</text>
<text x="106.04" y="254.48"
	style="&stt3;">i</text>
<text x="107.48" y="254.48"
	style="&stt3;">n</text>
<text x="111.26" y="254.48"
	style="&stt3;"> </text>
<text x="113.24" y="254.48"
	style="&stt3;">1</text>
<text x="117.02" y="254.48"
	style="&stt3;"> </text>
<text x="119.00" y="254.48"
	style="&stt3;">i</text>
<text x="120.44" y="254.48"
	style="&stt3;">n</text>
<text x="124.22" y="254.48"
	style="&stt3;">d</text>
<text x="128.00" y="254.48"
	style="&stt3;">e</text>
<text x="131.78" y="254.48"
	style="&stt3;">x</text>
<text x="135.20" y="254.48"
	style="&stt3;"> </text>
<polyline style="&sto0;"
	points="109.42,262.42 116.39,256.59 "/>
<polyline style="&sto2;"
	points="113.03,261.22 108.37,263.34 111.35,259.17 113.03,261.22 
	113.03,261.22 "/>
<path style="&sto0;"
d="M 108.33 108.28 L 108.33 107.07 L 107.04 107.07
M 105.33 107.07 L 102.82 107.07
M 101.11 107.07 L 98.60 107.07
M 96.89 107.07 L 94.38 107.07
M 92.67 107.07 L 90.16 107.07
M 89.31 107.92 L 89.31 108.28 L 91.46 108.28
M 93.17 108.28 L 95.68 108.28
M 97.39 108.28 L 99.90 108.28
M 101.61 108.28 L 104.11 108.28
M 105.82 108.28 L 108.33 108.28"/>
<polyline style="&sto0;"
	points="291.58,220.27 262.59,220.27 "/>
<polyline style="&sto0;"
	points="290.58,262.06 262.80,262.06 "/>
<polyline style="&sto0;"
	points="361.14,267.15 275.66,267.15 "/>
<polyline style="&sto0;"
	points="276.90,259.87 276.90,252.59 "/>
<polyline style="&sto2;"
	points="278.10,256.76 276.90,261.26 275.69,256.76 278.10,256.76 
	278.10,256.76 "/>
<polyline style="&sto0;"
	points="276.90,270.70 276.90,277.97 "/>
<polyline style="&sto2;"
	points="275.69,272.46 276.90,267.96 278.10,272.46 275.69,272.46 
	275.69,272.46 "/>
<polyline style="&sto0;"
	points="263.97,222.92 263.97,236.22 "/>
<polyline style="&sto2;"
	points="262.76,225.72 263.97,221.22 265.17,225.72 262.76,225.72 
	262.76,225.72 "/>
<polyline style="&sto0;"
	points="263.97,259.12 263.97,245.67 "/>
<polyline style="&sto2;"
	points="265.17,256.76 263.97,261.26 262.76,256.76 265.17,256.76 
	265.17,256.76 "/>
<polyline style="&sto0;"
	points="363.89,267.34 363.89,295.11 "/>
<polyline style="&sto0;"
	points="335.98,255.41 335.98,281.43 "/>
<polyline style="&sto0;"
	points="359.86,280.62 354.87,280.62 "/>
<polyline style="&sto2;"
	points="358.46,279.42 362.96,280.62 358.46,281.83 358.46,279.42 
	358.46,279.42 "/>
<polyline style="&sto0;"
	points="339.33,280.62 345.32,280.62 "/>
<polyline style="&sto2;"
	points="341.27,281.83 336.77,280.62 341.27,279.42 341.27,281.83 
	341.27,281.83 "/>
<polyline style="&sto0;"
	points="315.52,220.27 407.14,220.27 "/>
<polyline style="&sto0;"
	points="364.85,267.15 378.06,269.32 "/>
<polyline style="&sto0;"
	points="382.05,270.03 394.12,272.16 "/>
<polyline style="&sto0;"
	points="391.60,274.54 389.99,281.81 "/>
<polyline style="&sto2;"
	points="389.88,276.96 392.03,272.83 392.23,277.48 389.88,276.96 
	389.88,276.96 "/>
<polyline style="&sto0;"
	points="393.03,263.99 393.03,256.72 "/>
<polyline style="&sto2;"
	points="394.23,261.49 393.03,265.98 391.82,261.49 394.23,261.49 
	394.23,261.49 "/>
<polyline style="&sto0;"
	points="337.26,237.97 365.23,237.97 "/>
<polyline style="&sto0;"
	points="363.56,240.71 363.56,247.55 "/>
<polyline style="&sto2;"
	points="362.36,243.06 363.56,238.57 364.77,243.06 362.36,243.06 
	362.36,243.06 "/>
<polyline style="&sto2;"
	points="364.77,215.03 363.56,219.53 362.36,215.03 364.77,215.03 
	364.77,215.03 "/>
<polyline style="&sto0;"
	points="406.05,224.21 406.05,239.42 "/>
<polyline style="&sto2;"
	points="404.85,225.72 406.05,221.22 407.26,225.72 404.85,225.72 
	404.85,225.72 "/>
<polyline style="&sto2;"
	points="407.26,261.63 406.05,266.13 404.85,261.63 407.26,261.63 
	407.26,261.63 "/>
<text x="395.66" y="273.20"
	style="&stt2;">&#952;</text>
<text x="399.26" y="273.20"
	style="&stt2;"> </text>
<text x="403.58" y="246.56"
	style="&stt3;">A</text>
<text x="408.26" y="246.56"
	style="&stt3;"> </text>
<text x="272.00" y="250.52"
	style="&stt3;">A</text>
<text x="276.68" y="250.52"
	style="&stt3;"> </text>
<text x="277.22" y="251.96"
	style="&stt5;">1</text>
<text x="280.28" y="251.96"
	style="&stt5;"> </text>
<text x="259.40" y="242.78"
	style="&stt3;">A</text>
<text x="263.90" y="242.78"
	style="&stt3;"> </text>
<text x="264.44" y="244.22"
	style="&stt5;">2</text>
<text x="267.68" y="244.22"
	style="&stt5;"> </text>
<text x="346.70" y="283.46"
	style="&stt3;">L</text>
<text x="350.48" y="283.46"
	style="&stt3;"> </text>
<text x="351.20" y="284.72"
	style="&stt5;">p</text>
<text x="354.44" y="284.72"
	style="&stt5;"> </text>
<text x="360.74" y="231.80"
	style="&stt3;">Q</text>
<text x="366.14" y="231.80"
	style="&stt3;"> </text>
<text x="321.14" y="313.34"
	style="&stt3;">d</text>
<text x="324.92" y="313.34"
	style="&stt3;">e</text>
<text x="328.88" y="313.34"
	style="&stt3;">t</text>
<text x="330.68" y="313.34"
	style="&stt3;">a</text>
<text x="334.46" y="313.34"
	style="&stt3;">i</text>
<text x="336.08" y="313.34"
	style="&stt3;">l</text>
<text x="337.52" y="313.34"
	style="&stt3;"> </text>
<text x="339.50" y="313.34"
	style="&stt3;">X</text>
<text x="344.00" y="313.34"
	style="&stt3;"> </text>
<polyline style="&sto0;"
	points="347.19,315.87 347.19,306.18 318.10,306.18 318.10,315.87 
	347.19,315.87 347.19,315.87 "/>
<polyline style="&sto0;"
	points="363.56,210.42 363.56,217.27 "/>
<polyline style="&sto0;"
	points="406.05,248.29 406.05,263.21 "/>
<polyline style="&sto0;"
	points="318.84,245.18 318.84,295.11 "/>
<text x="339.68" y="295.52"
	style="&stt3;">L</text>
<text x="343.46" y="295.52"
	style="&stt3;"> </text>
<polyline style="&sto0;"
	points="360.79,293.13 344.57,293.13 "/>
<polyline style="&sto2;"
	points="358.53,291.89 363.03,293.09 358.53,294.30 358.53,291.89 
	358.53,291.89 "/>
<polyline style="&sto0;"
	points="321.71,293.13 337.74,293.13 "/>
<polyline style="&sto2;"
	points="324.29,294.30 319.79,293.09 324.29,291.89 324.29,294.30 
	324.29,294.30 "/>
<polyline style="&sto0;"
	points="335.95,255.29 381.76,255.29 "/>
<polyline style="&sto0;"
	points="379.92,270.78 379.92,276.20 "/>
<polyline style="&sto2;"
	points="378.71,272.42 379.92,267.92 381.12,272.42 378.71,272.42 
	378.71,272.42 "/>
<polyline style="&sto2;"
	points="381.12,250.02 379.92,254.51 378.71,250.02 381.12,250.02 
	381.12,250.02 "/>
<polyline style="&sto0;"
	points="379.92,246.48 379.92,251.90 "/>
<text x="373.16" y="244.22"
	style="&stt3;">(</text>
<text x="375.50" y="244.22"
	style="&stt3;">A</text>
<text x="380.00" y="244.22"
	style="&stt3;"> </text>
<text x="381.80" y="244.22"
	style="&stt3;"> </text>
<text x="383.78" y="244.22"
	style="&stt3;">)</text>
<text x="386.12" y="244.22"
	style="&stt3;"> </text>
<text x="380.36" y="245.66"
	style="&stt5;">3</text>
<text x="383.60" y="245.66"
	style="&stt5;"> </text>
<polyline style="&sto0;"
	points="407.73,267.15 364.85,267.15 "/>
<polyline style="&sto3;"
	points="292.55,220.25 314.43,220.25 318.47,237.75 318.49,243.44 
	314.43,262.01 291.58,262.01 "/>
<path style="&sto0;"
d="M 292.55 220.25 C 293.08 223.58 294.45 227.57 294.18 231.05 C 293.79 236.24 291.55 240.57 291.92 245.06
	 C 292.30 249.57 291.30 248.12 291.34 251.76 C 291.40 256.18 292.78 257.87 291.58 262.01"/>
<path style="&sto3;"
d="M 291.82 243.41 L 317.77 243.42 C 319.00 243.42 328.23 243.43 329.49 243.43
	 C 330.78 243.43 332.78 243.96 334.06 245.07 C 336.48 247.16 336.27 250.11 336.19 254.42 C 336.11 258.72 337.13 261.79 339.46 263.30
	 C 341.79 264.82 344.86 265.33 349.64 265.92 C 354.15 266.48 363.30 266.67 363.62 266.70 C 363.93 266.74 364.10 266.63 364.13 266.37
	 C 364.16 266.04 364.17 265.24 364.19 263.92 C 364.21 262.54 364.24 262.12 364.27 261.87 C 364.29 261.63 364.16 261.49 363.87 261.46
	 C 363.58 261.43 353.55 261.11 350.25 260.57 C 345.34 259.77 344.64 259.69 343.34 258.85 C 341.00 257.36 341.79 253.56 341.61 248.96
	 C 341.42 244.09 339.31 241.98 337.78 240.41 C 336.24 238.84 333.34 237.88 330.72 237.76 C 329.05 237.69 319.84 237.76 318.47 237.76
	 L 292.91 237.77"/>
<polyline style="&sto0;"
	points="277.36,111.72 277.36,88.34 "/>
<polyline style="&sto0;"
	points="258.60,127.57 258.60,141.40 "/>
<polyline style="&sto0;"
	points="261.69,140.09 308.36,140.09 "/>
<polyline style="&sto2;"
	points="263.90,141.30 259.41,140.09 263.90,138.89 263.90,141.30 
	263.90,141.30 "/>
<polyline style="&sto0;"
	points="280.16,90.24 311.26,90.24 "/>
<polyline style="&sto2;"
	points="282.66,91.44 278.17,90.24 282.66,89.03 282.66,91.44 
	282.66,91.44 "/>
<polyline style="&sto0;"
	points="357.45,111.72 357.45,85.49 "/>
<polyline style="&sto0;"
	points="375.95,128.06 375.95,140.83 "/>
<polyline style="&sto0;"
	points="372.22,140.09 322.87,140.09 "/>
<polyline style="&sto2;"
	points="370.57,138.89 375.07,140.09 370.57,141.30 370.57,138.89 
	370.57,138.89 "/>
<polyline style="&sto0;"
	points="354.36,90.24 322.53,90.24 "/>
<polyline style="&sto2;"
	points="352.14,89.03 356.64,90.24 352.14,91.44 352.14,89.03 
	352.14,89.03 "/>
<text x="312.32" y="141.80"
	style="&stt3;">H</text>
<text x="317.18" y="141.80"
	style="&stt3;"> </text>
<text x="317.72" y="143.06"
	style="&stt5;">E</text>
<text x="321.50" y="143.06"
	style="&stt5;"> </text>
<text x="315.74" y="92.84"
	style="&stt3;">E</text>
<text x="320.24" y="92.84"
	style="&stt3;"> </text>
<polyline style="&sto0;"
	points="257.47,124.05 249.20,124.60 "/>
<polyline style="&sto0;"
	points="249.98,121.91 249.58,114.73 "/>
<polyline style="&sto2;"
	points="248.60,119.05 250.06,123.48 251.01,118.92 248.60,119.05 
	248.60,119.05 "/>
<polyline style="&sto0;"
	points="250.36,129.63 250.85,136.67 "/>
<polyline style="&sto2;"
	points="249.35,132.64 250.24,128.07 251.75,132.47 249.35,132.64 
	249.35,132.64 "/>
<polyline style="&sto0;"
	points="257.54,126.67 249.27,127.22 "/>
<text x="243.74" y="127.58"
	style="&stt3;">c</text>
<text x="247.16" y="127.58"
	style="&stt3;"> </text>
<polyline style="&sto0;"
	points="387.36,135.23 424.57,135.23 424.57,144.93 387.36,144.93 
	387.36,135.23 387.36,135.23 "/>
<polyline style="&sto0;"
	points="388.95,140.08 395.67,140.08 "/>
<polyline style="&sto0;"
	points="397.05,135.23 397.05,144.93 "/>
<text x="399.98" y="141.98"
	style="&stt3;">v</text>
<text x="403.40" y="141.98"
	style="&stt3;"> </text>
<path style="&sto0;"
d="M 409.76 136.45 C 411.77 136.45 413.40 138.08 413.40 140.09 C 413.40 142.10 411.77 143.72 409.76 143.72
	 C 407.76 143.72 406.13 142.10 406.13 140.09 C 406.13 138.08 407.76 136.45 409.76 136.45 L 409.76 136.45"/>
<text x="407.36" y="141.98"
	style="&stt5;">M</text>
<text x="412.22" y="141.98"
	style="&stt5;"> </text>
<polyline style="&sto0;"
	points="379.30,140.08 387.36,140.08 "/>
<polyline style="&sto2;"
	points="381.30,141.29 376.81,140.08 381.30,138.88 381.30,141.29 
	381.30,141.29 "/>
<polyline style="&sto1;"
	points="390.30,138.70 394.18,138.70 "/>
<polyline style="&sto1;"
	points="390.30,141.45 394.18,141.45 "/>
<polyline style="&sto0;"
	points="414.86,135.23 414.86,144.93 "/>
<text x="417.44" y="142.52"
	style="&stt3;">A</text>
<text x="421.94" y="142.52"
	style="&stt3;"> </text>
<path style="&sto0;"
d="M 317.88 101.41 L 317.88 110.53
M 317.88 113.38 L 317.88 116.23
M 317.88 119.08 L 317.88 128.20"/>
<polyline style="&sto0;"
	points="381.08,107.28 392.85,100.43 "/>
<text x="395.30" y="98.06"
	style="&stt3;">X</text>
<text x="399.80" y="98.06"
	style="&stt3;"> </text>
<polyline style="&sto0;"
	points="392.83,90.77 402.53,90.77 402.53,100.47 392.83,100.47 
	392.83,90.77 392.83,90.77 "/>
<path style="&sto0;"
d="M 365.80 99.01 L 369.11 99.31 L 372.22 100.16
	 L 372.48 100.29
M 375.06 101.51 L 375.08 101.52 L 377.65 103.34
	 L 379.87 105.56 L 380.17 105.99
M 381.78 108.34 L 383.04 110.99 L 383.90 114.10
	 L 383.96 114.78
M 384.17 117.62 L 383.90 120.71 L 383.04 123.82
	 L 382.82 124.28
M 381.57 126.84 L 379.87 129.25 L 377.65 131.47
	 L 377.04 131.90
M 374.67 133.48 L 372.22 134.65 L 369.11 135.50
	 L 368.21 135.58
M 365.38 135.76 L 362.49 135.50 L 359.38 134.65
	 L 358.73 134.34
M 356.19 133.06 L 353.95 131.47 L 351.73 129.25
	 L 351.18 128.47
M 349.63 126.08 L 348.56 123.82 L 347.71 120.71
	 L 347.61 119.61
M 347.47 116.77 L 347.71 114.10 L 348.56 110.99
	 L 348.96 110.14
M 350.27 107.62 L 351.73 105.56 L 353.95 103.34
	 L 354.91 102.66
M 357.31 101.15 L 359.38 100.16 L 362.49 99.31
	 L 363.81 99.19"/>
<polyline style="&sto0;"
	points="361.94,90.35 369.37,90.35 "/>
<polyline style="&sto0;"
	points="370.45,90.35 359.05,90.35 "/>
<polyline style="&sto2;"
	points="357.47,92.55 360.80,90.35 357.47,88.25 357.47,92.55 
	357.47,92.55 "/>
<polyline style="&sto0;"
	points="370.53,85.50 380.24,85.50 380.24,95.20 370.53,95.20 
	370.53,85.50 370.53,85.50 "/>
<text x="372.98" y="92.84"
	style="&stt3;">A</text>
<text x="377.66" y="92.84"
	style="&stt3;"> </text>
<polyline style="&sto3;"
	points="277.59,116.39 277.58,113.72 278.82,106.55 355.92,106.55 
	357.20,113.72 357.20,116.43 355.92,123.53 278.82,123.53 
	277.59,116.39 277.59,116.39 "/>
<path style="&sto3;"
d="M 356.82 116.39 L 277.95 116.39 C 277.40 116.39 275.23 116.38 274.64 116.38
	 C 273.57 116.39 272.84 116.61 272.22 117.19 C 271.53 117.85 271.46 118.88 271.25 120.66 C 271.04 122.59 270.68 123.58 269.76 124.58
	 C 268.91 125.51 267.48 126.05 265.26 126.24 C 263.19 126.42 259.47 126.50 259.16 126.53 C 259.02 126.55 258.94 126.49 258.92 126.38
	 C 258.91 126.26 258.87 125.88 258.80 125.26 C 258.73 124.63 258.69 124.19 258.68 124.08 C 258.66 123.97 258.73 123.90 258.86 123.89
	 C 258.99 123.87 262.70 123.78 264.29 123.60 C 266.32 123.38 266.77 123.52 267.68 122.68 C 268.69 121.77 268.75 118.83 268.95 117.89
	 C 269.16 116.93 269.53 115.93 270.43 115.07 C 271.38 114.16 272.13 113.68 273.85 113.72 C 274.62 113.74 276.92 113.72 277.54 113.72
	 L 277.54 113.72 L 357.20 113.72 L 357.20 113.72
	 C 357.82 113.72 360.62 113.74 361.39 113.72 C 363.11 113.68 363.86 114.16 364.81 115.07 C 365.71 115.93 366.08 116.93 366.29 117.89
	 C 366.52 118.98 366.53 121.93 367.56 122.68 C 368.58 123.43 369.15 123.40 370.95 123.60 C 372.55 123.78 375.33 123.87 375.47 123.89
	 C 375.60 123.90 375.66 123.97 375.65 124.08 C 375.64 124.19 375.60 124.63 375.53 125.26 C 375.46 125.88 375.41 126.26 375.40 126.38
	 C 375.39 126.49 375.31 126.55 375.17 126.53 C 374.86 126.50 372.05 126.47 369.98 126.24 C 367.97 126.02 366.53 125.55 365.48 124.58
	 C 364.55 123.72 364.21 122.62 363.99 120.66 C 363.79 118.88 363.71 117.85 363.02 117.19 C 362.40 116.61 361.67 116.38 360.60 116.37
	 C 360.01 116.36 357.37 116.39 356.82 116.39 L 356.82 116.39 L 356.82 116.39"/>
<path style="&sto0;"
d="M 348.60 107.73 L 348.60 106.52 L 347.30 106.52
M 345.59 106.52 L 343.08 106.52
M 341.37 106.52 L 338.87 106.52
M 337.16 106.52 L 334.65 106.52
M 332.94 106.52 L 330.43 106.52
M 329.57 107.38 L 329.57 107.73 L 331.73 107.73
M 333.44 107.73 L 335.94 107.73
M 337.65 107.73 L 340.16 107.73
M 341.87 107.73 L 344.38 107.73
M 346.09 107.73 L 348.60 107.73"/>
<polyline style="&sto2;"
	points="67.61,132.36 68.82,127.86 70.02,132.36 67.61,132.36 
	67.61,132.36 "/>
<polyline style="&sto0;"
	points="74.63,141.02 68.82,141.02 68.82,129.65 "/>
<polyline style="&sto0;"
	points="74.63,136.17 94.05,136.17 94.05,145.86 74.63,145.86 
	74.63,136.17 74.63,136.17 "/>
<polyline style="&sto0;"
	points="84.32,136.17 84.32,145.86 "/>
<polyline style="&sto0;"
	points="77.86,138.00 82.71,138.00 81.16,144.10 76.32,144.10 
	77.86,138.00 77.86,138.00 "/>
<text x="87.68" y="142.88"
	style="&stt3;">y</text>
<text x="91.10" y="142.88"
	style="&stt3;"> </text>
<polyline style="&sto0;"
	points="84.55,127.06 65.29,127.06 "/>
<polyline style="&sto4;"
	points="194.71,419.77 283.40,419.77 "/>
<polyline style="&sto5;"
	points="194.54,419.79 194.54,415.96 "/>
<polyline style="&sto5;"
	points="203.44,419.79 203.44,417.52 "/>
<polyline style="&sto5;"
	points="212.34,419.79 212.34,417.52 "/>
<polyline style="&sto5;"
	points="230.19,419.79 230.19,417.52 "/>
<polyline style="&sto5;"
	points="239.14,419.79 239.14,415.96 "/>
<polyline style="&sto5;"
	points="221.27,419.79 221.27,417.52 "/>
<polyline style="&sto5;"
	points="239.08,419.79 239.08,415.96 "/>
<polyline style="&sto5;"
	points="247.98,419.79 247.98,417.52 "/>
<polyline style="&sto5;"
	points="256.87,419.79 256.87,417.52 "/>
<polyline style="&sto5;"
	points="274.73,419.79 274.73,417.52 "/>
<polyline style="&sto5;"
	points="283.67,419.79 283.67,415.96 "/>
<polyline style="&sto5;"
	points="265.81,419.79 265.81,417.52 "/>
<text x="192.44" y="413.78"
	style="&stt3;">0</text>
<text x="196.22" y="413.78"
	style="&stt3;"> </text>
<text x="234.56" y="413.78"
	style="&stt3;">2</text>
<text x="238.34" y="413.78"
	style="&stt3;">.</text>
<text x="240.14" y="413.78"
	style="&stt3;">5</text>
<text x="243.92" y="413.78"
	style="&stt3;"> </text>
<text x="281.36" y="413.78"
	style="&stt3;">5</text>
<text x="285.14" y="413.78"
	style="&stt3;"> </text>
<text x="287.12" y="413.78"
	style="&stt3;">m</text>
<text x="292.70" y="413.78"
	style="&stt3;">m</text>
<text x="298.46" y="413.78"
	style="&stt3;"> </text>
<text x="231.14" y="427.28"
	style="&stt3;">s</text>
<text x="234.56" y="427.28"
	style="&stt3;">c</text>
<text x="237.98" y="427.28"
	style="&stt3;">a</text>
<text x="241.76" y="427.28"
	style="&stt3;">l</text>
<text x="243.38" y="427.28"
	style="&stt3;">e</text>
<text x="247.16" y="427.28"
	style="&stt3;"> </text>
<text x="1.82" y="8.96"
	style="&stt7;">T</text>
<text x="7.40" y="8.96"
	style="&stt7;">S</text>
<text x="13.52" y="8.96"
	style="&stt7;">S</text>
<text x="19.64" y="8.96"
	style="&stt7;">O</text>
<text x="26.66" y="8.96"
	style="&stt7;">P</text>
<text x="32.78" y="8.96"
	style="&stt7;">2</text>
<text x="37.82" y="8.96"
	style="&stt7;">0</text>
<text x="42.86" y="8.96"
	style="&stt7;">:</text>
<text x="45.92" y="8.96"
	style="&stt7;"> </text>
<text x="48.44" y="8.96"
	style="&stt7;">p</text>
<text x="54.02" y="8.96"
	style="&stt7;">l</text>
<text x="56.54" y="8.96"
	style="&stt7;">a</text>
<text x="61.58" y="8.96"
	style="&stt7;">s</text>
<text x="66.80" y="8.96"
	style="&stt7;">t</text>
<text x="69.86" y="8.96"
	style="&stt7;">i</text>
<text x="72.38" y="8.96"
	style="&stt7;">c</text>
<text x="77.42" y="8.96"
	style="&stt7;"> </text>
<text x="79.94" y="8.96"
	style="&stt7;">t</text>
<text x="83.00" y="8.96"
	style="&stt7;">h</text>
<text x="88.58" y="8.96"
	style="&stt7;">i</text>
<text x="91.10" y="8.96"
	style="&stt7;">n</text>
<text x="96.68" y="8.96"
	style="&stt7;"> </text>
<text x="99.20" y="8.96"
	style="&stt7;">s</text>
<text x="104.24" y="8.96"
	style="&stt7;">h</text>
<text x="109.82" y="8.96"
	style="&stt7;">r</text>
<text x="113.42" y="8.96"
	style="&stt7;">i</text>
<text x="115.94" y="8.96"
	style="&stt7;">n</text>
<text x="121.52" y="8.96"
	style="&stt7;">k</text>
<text x="126.56" y="8.96"
	style="&stt7;"> </text>
<text x="129.08" y="8.96"
	style="&stt7;">s</text>
<text x="134.12" y="8.96"
	style="&stt7;">m</text>
<text x="142.22" y="8.96"
	style="&stt7;">a</text>
<text x="147.26" y="8.96"
	style="&stt7;">l</text>
<text x="149.78" y="8.96"
	style="&stt7;">l</text>
<text x="152.48" y="8.96"
	style="&stt7;"> </text>
<text x="155.00" y="8.96"
	style="&stt7;">o</text>
<text x="160.58" y="8.96"
	style="&stt7;">u</text>
<text x="166.16" y="8.96"
	style="&stt7;">t</text>
<text x="169.04" y="8.96"
	style="&stt7;">l</text>
<text x="171.56" y="8.96"
	style="&stt7;">i</text>
<text x="174.26" y="8.96"
	style="&stt7;">n</text>
<text x="179.84" y="8.96"
	style="&stt7;">e</text>
<text x="184.88" y="8.96"
	style="&stt7;"> </text>
<text x="187.40" y="8.96"
	style="&stt7;">p</text>
<text x="192.98" y="8.96"
	style="&stt7;">a</text>
<text x="198.02" y="8.96"
	style="&stt7;">c</text>
<text x="203.06" y="8.96"
	style="&stt7;">k</text>
<text x="208.10" y="8.96"
	style="&stt7;">a</text>
<text x="213.14" y="8.96"
	style="&stt7;">g</text>
<text x="218.72" y="8.96"
	style="&stt7;">e</text>
<text x="223.94" y="8.96"
	style="&stt7;">;</text>
<text x="226.82" y="8.96"
	style="&stt7;"> </text>
<text x="229.34" y="8.96"
	style="&stt7;">2</text>
<text x="234.38" y="8.96"
	style="&stt7;">0</text>
<text x="239.42" y="8.96"
	style="&stt7;"> </text>
<text x="241.94" y="8.96"
	style="&stt7;">l</text>
<text x="244.46" y="8.96"
	style="&stt7;">e</text>
<text x="249.50" y="8.96"
	style="&stt7;">a</text>
<text x="254.54" y="8.96"
	style="&stt7;">d</text>
<text x="260.12" y="8.96"
	style="&stt7;">s</text>
<text x="265.16" y="8.96"
	style="&stt7;">;</text>
<text x="268.22" y="8.96"
	style="&stt7;"> </text>
<text x="270.74" y="8.96"
	style="&stt7;">b</text>
<text x="276.32" y="8.96"
	style="&stt7;">o</text>
<text x="281.90" y="8.96"
	style="&stt7;">d</text>
<text x="287.48" y="8.96"
	style="&stt7;">y</text>
<text x="292.52" y="8.96"
	style="&stt7;"> </text>
<text x="295.22" y="8.96"
	style="&stt7;">w</text>
<text x="302.24" y="8.96"
	style="&stt7;">i</text>
<text x="304.76" y="8.96"
	style="&stt7;">d</text>
<text x="310.34" y="8.96"
	style="&stt7;">t</text>
<text x="313.40" y="8.96"
	style="&stt7;">h</text>
<text x="318.98" y="8.96"
	style="&stt7;"> </text>
<text x="321.50" y="8.96"
	style="&stt7;">4</text>
<text x="326.54" y="8.96"
	style="&stt7;">.</text>
<text x="329.06" y="8.96"
	style="&stt7;">4</text>
<text x="334.10" y="8.96"
	style="&stt7;"> </text>
<text x="336.62" y="8.96"
	style="&stt7;">m</text>
<text x="344.90" y="8.96"
	style="&stt7;">m</text>
<text x="353.00" y="8.96"
	style="&stt7;"> </text>
<text x="436.70" y="9.14"
	style="&stt7;">S</text>
<text x="442.82" y="9.14"
	style="&stt7;">O</text>
<text x="450.02" y="9.14"
	style="&stt7;">T</text>
<text x="455.60" y="9.14"
	style="&stt7;">3</text>
<text x="460.64" y="9.14"
	style="&stt7;">6</text>
<text x="465.68" y="9.14"
	style="&stt7;">0</text>
<text x="470.72" y="9.14"
	style="&stt7;">-</text>
<text x="473.78" y="9.14"
	style="&stt7;">1</text>
<text x="478.82" y="9.14"
	style="&stt7;"> </text>
<polyline style="&sto1;"
	points="477.77,583.99 477.77,15.78 1.41,15.78 1.41,583.99 
	477.77,583.99 477.77,583.99 "/>
<text x="47.72" y="460.58"
	style="&stt0;">A</text>
<text x="52.58" y="460.58"
	style="&stt0;"> </text>
<text x="42.32" y="468.86"
	style="&stt0;">m</text>
<text x="48.44" y="468.86"
	style="&stt0;">a</text>
<text x="52.22" y="468.86"
	style="&stt0;">x</text>
<text x="56.00" y="468.86"
	style="&stt0;">.</text>
<text x="57.98" y="468.86"
	style="&stt0;"> </text>
<text x="45.56" y="484.88"
	style="&stt3;">1</text>
<text x="49.34" y="484.88"
	style="&stt3;">.</text>
<text x="51.14" y="484.88"
	style="&stt3;">1</text>
<text x="54.92" y="484.88"
	style="&stt3;"> </text>
</svg>
